%!PS-Adobe-3.0 EPSF-3.0
%%DocumentNeededResources: font Helvetica
%%+ font Helvetica-Bold
%%+ font Helvetica-Oblique
%%+ font Helvetica-BoldOblique
%%+ font Symbol
%%Title: R Graphics Output
%%Creator: R Software
%%Pages: (atend)
%%BoundingBox: 0 0 425 283
%%EndComments
%%BeginProlog
/bp  { gs sRGB gs } def
% begin .ps.prolog
/gs  { gsave } bind def
/gr  { grestore } bind def
/ep  { showpage gr gr } bind def
/m   { moveto } bind def
/l  { rlineto } bind def
/np  { newpath } bind def
/cp  { closepath } bind def
/f   { fill } bind def
/o   { stroke } bind def
/c   { newpath 0 360 arc } bind def
/r   { 4 2 roll moveto 1 copy 3 -1 roll exch 0 exch rlineto 0 rlineto -1 mul 0 exch rlineto closepath } bind def
/p1  { stroke } bind def
/p2  { gsave bg fill grestore newpath } bind def
/p3  { gsave bg fill grestore stroke } bind def
/p6  { gsave bg eofill grestore newpath } bind def
/p7  { gsave bg eofill grestore stroke } bind def
/t   { 5 -2 roll moveto gsave rotate
       1 index stringwidth pop
       mul neg 0 rmoveto show grestore } bind def
/ta  { 4 -2 roll moveto gsave rotate show } bind def
/tb  { 2 -1 roll 0 rmoveto show } bind def
/cl  { grestore gsave newpath 3 index 3 index moveto 1 index
       4 -1 roll lineto  exch 1 index lineto lineto
       closepath clip newpath } bind def
/rgb { setrgbcolor } bind def
/s   { scalefont setfont } bind def
% end   .ps.prolog
/sRGB { [ /CIEBasedABC
          << /DecodeLMN
               [ { dup 0.03928 le
                        {12.92321 div}
                        {0.055 add 1.055 div 2.4 exp }
                     ifelse
                 } bind dup dup
               ]
             /MatrixLMN [0.412457 0.212673 0.019334
                         0.357576 0.715152 0.119192
                         0.180437 0.072175 0.950301]
             /WhitePoint [0.9505 1.0 1.0890]
           >>
         ] setcolorspace } bind def
/srgb { setcolor } bind def
%%IncludeResource: font Helvetica
/Helvetica findfont
dup length dict begin
  {1 index /FID ne {def} {pop pop} ifelse} forall
  /Encoding ISOLatin1Encoding def
  currentdict
  end
/Font1 exch definefont pop
%%IncludeResource: font Helvetica-Bold
/Helvetica-Bold findfont
dup length dict begin
  {1 index /FID ne {def} {pop pop} ifelse} forall
  /Encoding ISOLatin1Encoding def
  currentdict
  end
/Font2 exch definefont pop
%%IncludeResource: font Helvetica-Oblique
/Helvetica-Oblique findfont
dup length dict begin
  {1 index /FID ne {def} {pop pop} ifelse} forall
  /Encoding ISOLatin1Encoding def
  currentdict
  end
/Font3 exch definefont pop
%%IncludeResource: font Helvetica-BoldOblique
/Helvetica-BoldOblique findfont
dup length dict begin
  {1 index /FID ne {def} {pop pop} ifelse} forall
  /Encoding ISOLatin1Encoding def
  currentdict
  end
/Font4 exch definefont pop
%%IncludeResource: font Symbol
/Symbol findfont
dup length dict begin
  {1 index /FID ne {def} {pop pop} ifelse} forall
  currentdict
  end
/Font5 exch definefont pop
%%EndProlog
%%Page: 1 1
bp
0.00 0.00 425.20 283.46 cl
0.00 0.00 425.20 283.46 cl
0.00 0.00 425.20 283.46 cl
0.00 0.00 425.20 283.46 cl
0.00 0.00 425.20 283.46 cl
0.00 0.00 425.20 283.46 cl
0.00 0.00 425.20 283.46 cl
0.00 0.00 425.20 283.46 cl
0.00 0.00 425.20 283.46 cl
0.00 0.00 425.20 283.46 cl
/bg { 1 1 1 srgb } def
1 1 1 srgb
1.07 setlinewidth
[] 0 setdash
1 setlinecap
1 setlinejoin
10.00 setmiterlimit
0.00 0.00 425.20 283.46 r p3
0.00 0.00 425.20 283.46 cl
54.33 41.23 419.72 277.99 cl
/bg { 1 1 1 srgb } def
54.33 41.23 365.38 236.76 r p2
0.9216 0.9216 0.9216 srgb
0.53 setlinewidth
[] 0 setdash
0 setlinecap
1 setlinejoin
10.00 setmiterlimit
np
54.33 72.20 m
365.39 0 l
o
np
54.33 109.22 m
365.39 0 l
o
np
54.33 146.25 m
365.39 0 l
o
np
54.33 183.27 m
365.39 0 l
o
np
54.33 220.30 m
365.39 0 l
o
np
54.33 257.32 m
365.39 0 l
o
np
109.53 41.23 m
0 236.76 l
o
np
193.41 41.23 m
0 236.76 l
o
np
277.29 41.23 m
0 236.76 l
o
np
361.17 41.23 m
0 236.76 l
o
1.07 setlinewidth
[] 0 setdash
np
54.33 53.69 m
365.39 0 l
o
np
54.33 90.71 m
365.39 0 l
o
np
54.33 127.74 m
365.39 0 l
o
np
54.33 164.76 m
365.39 0 l
o
np
54.33 201.79 m
365.39 0 l
o
np
54.33 238.81 m
365.39 0 l
o
np
54.33 275.84 m
365.39 0 l
o
np
67.59 41.23 m
0 236.76 l
o
np
151.47 41.23 m
0 236.76 l
o
np
235.35 41.23 m
0 236.76 l
o
np
319.23 41.23 m
0 236.76 l
o
np
403.11 41.23 m
0 236.76 l
o
0.9020 0.6235 0 srgb
1.00 setmiterlimit
np
70.94 185.92 m
36.91 9.16 l
36.91 -25.57 l
36.90 2.37 l
36.91 11.23 l
36.91 -7.59 l
36.91 -1.45 l
36.90 6.25 l
36.91 8.41 l
36.91 -6.20 l
o
np
70.94 224.87 m
36.91 8.44 l
36.91 -24.26 l
36.90 3.89 l
36.91 16.03 l
36.91 -17.58 l
36.91 5.50 l
36.90 3.79 l
36.91 1.47 l
36.91 1.00 l
o
0.3373 0.7059 0.9137 srgb
np
70.94 51.99 m
36.91 167.19 l
36.91 -2.29 l
36.90 2.98 l
36.91 -5.39 l
36.91 12.03 l
36.91 -7.01 l
36.90 -3.57 l
36.91 -9.84 l
36.91 11.00 l
o
np
70.94 152.80 m
36.91 99.97 l
36.91 -1.04 l
36.90 -0.95 l
36.91 4.89 l
36.91 11.55 l
36.91 -18.29 l
36.90 5.24 l
36.91 -7.70 l
36.91 8.53 l
o
0 0.6196 0.4510 srgb
10.00 setmiterlimit
np
54.33 164.76 m
365.39 0 l
o
0.2000 0.2000 0.2000 srgb
1 setlinecap
54.33 41.23 365.38 236.76 r p1
0.00 0.00 425.20 283.46 cl
0.00 0.00 425.20 283.46 cl
0.00 0.00 425.20 283.46 cl
0.00 0.00 425.20 283.46 cl
0.00 0.00 425.20 283.46 cl
0.00 0.00 425.20 283.46 cl
0.00 0.00 425.20 283.46 cl
0.00 0.00 425.20 283.46 cl
0.00 0.00 425.20 283.46 cl
0.00 0.00 425.20 283.46 cl
0.00 0.00 425.20 283.46 cl
0.00 0.00 425.20 283.46 cl
0.00 0.00 425.20 283.46 cl
0.00 0.00 425.20 283.46 cl
0.00 0.00 425.20 283.46 cl
0.00 0.00 425.20 283.46 cl
/Font1 findfont 17 s
0.3020 0.3020 0.3020 srgb
49.40 47.58 (-3) 1 0 t
49.40 84.61 (-2) 1 0 t
49.40 121.63 (-1) 1 0 t
49.40 158.66 (0) 1 0 t
49.40 195.68 (1) 1 0 t
49.40 232.71 (2) 1 0 t
49.40 269.73 (3) 1 0 t
0.00 0.00 425.20 283.46 cl
0.00 0.00 425.20 283.46 cl
0.2000 0.2000 0.2000 srgb
1.07 setlinewidth
[] 0 setdash
0 setlinecap
1 setlinejoin
10.00 setmiterlimit
np
51.59 53.69 m
2.74 0 l
o
np
51.59 90.71 m
2.74 0 l
o
np
51.59 127.74 m
2.74 0 l
o
np
51.59 164.76 m
2.74 0 l
o
np
51.59 201.79 m
2.74 0 l
o
np
51.59 238.81 m
2.74 0 l
o
np
51.59 275.84 m
2.74 0 l
o
0.00 0.00 425.20 283.46 cl
0.00 0.00 425.20 283.46 cl
0.00 0.00 425.20 283.46 cl
0.00 0.00 425.20 283.46 cl
0.00 0.00 425.20 283.46 cl
0.00 0.00 425.20 283.46 cl
0.00 0.00 425.20 283.46 cl
0.00 0.00 425.20 283.46 cl
0.00 0.00 425.20 283.46 cl
0.00 0.00 425.20 283.46 cl
0.2000 0.2000 0.2000 srgb
1.07 setlinewidth
[] 0 setdash
0 setlinecap
1 setlinejoin
10.00 setmiterlimit
np
67.59 38.49 m
0 2.74 l
o
np
151.47 38.49 m
0 2.74 l
o
np
235.35 38.49 m
0 2.74 l
o
np
319.23 38.49 m
0 2.74 l
o
np
403.11 38.49 m
0 2.74 l
o
0.00 0.00 425.20 283.46 cl
0.00 0.00 425.20 283.46 cl
/Font1 findfont 17 s
0.3020 0.3020 0.3020 srgb
67.59 24.09 (0.0) .5 0 t
151.47 24.09 (2.5) .5 0 t
235.35 24.09 (5.0) .5 0 t
319.23 24.09 (7.5) .5 0 t
403.11 24.09 (10.0) .5 0 t
0.00 0.00 425.20 283.46 cl
0.00 0.00 425.20 283.46 cl
0.00 0.00 425.20 283.46 cl
0.00 0.00 425.20 283.46 cl
0.00 0.00 425.20 283.46 cl
0.00 0.00 425.20 283.46 cl
/Font5 findfont 17 s
0 0 0 srgb
232.83 6.03 (d) 0 0 t
0.00 0.00 425.20 283.46 cl
0.00 0.00 425.20 283.46 cl
/Font5 findfont 17 s
0 0 0 srgb
18.08 151.60 (b) 0 90 t
/Font1 findfont 12 s
21.19 160.94 (2) 0 90 t
0.00 0.00 425.20 283.46 cl
0.00 0.00 425.20 283.46 cl
0.00 0.00 425.20 283.46 cl
0.00 0.00 425.20 283.46 cl
0.00 0.00 425.20 283.46 cl
0.00 0.00 425.20 283.46 cl
0.00 0.00 425.20 283.46 cl
0.00 0.00 425.20 283.46 cl
0.00 0.00 425.20 283.46 cl
0.00 0.00 425.20 283.46 cl
ep
%%Trailer
%%Pages: 1
%%EOF
