%!PS-Adobe-3.0 EPSF-3.0
%%DocumentNeededResources: font Helvetica
%%+ font Helvetica-Bold
%%+ font Helvetica-Oblique
%%+ font Helvetica-BoldOblique
%%+ font Symbol
%%Title: R Graphics Output
%%Creator: R Software
%%Pages: (atend)
%%BoundingBox: 0 0 425 283
%%EndComments
%%BeginProlog
/bp  { gs sRGB gs } def
% begin .ps.prolog
/gs  { gsave } bind def
/gr  { grestore } bind def
/ep  { showpage gr gr } bind def
/m   { moveto } bind def
/l  { rlineto } bind def
/np  { newpath } bind def
/cp  { closepath } bind def
/f   { fill } bind def
/o   { stroke } bind def
/c   { newpath 0 360 arc } bind def
/r   { 4 2 roll moveto 1 copy 3 -1 roll exch 0 exch rlineto 0 rlineto -1 mul 0 exch rlineto closepath } bind def
/p1  { stroke } bind def
/p2  { gsave bg fill grestore newpath } bind def
/p3  { gsave bg fill grestore stroke } bind def
/p6  { gsave bg eofill grestore newpath } bind def
/p7  { gsave bg eofill grestore stroke } bind def
/t   { 5 -2 roll moveto gsave rotate
       1 index stringwidth pop
       mul neg 0 rmoveto show grestore } bind def
/ta  { 4 -2 roll moveto gsave rotate show } bind def
/tb  { 2 -1 roll 0 rmoveto show } bind def
/cl  { grestore gsave newpath 3 index 3 index moveto 1 index
       4 -1 roll lineto  exch 1 index lineto lineto
       closepath clip newpath } bind def
/rgb { setrgbcolor } bind def
/s   { scalefont setfont } bind def
% end   .ps.prolog
/sRGB { [ /CIEBasedABC
          << /DecodeLMN
               [ { dup 0.03928 le
                        {12.92321 div}
                        {0.055 add 1.055 div 2.4 exp }
                     ifelse
                 } bind dup dup
               ]
             /MatrixLMN [0.412457 0.212673 0.019334
                         0.357576 0.715152 0.119192
                         0.180437 0.072175 0.950301]
             /WhitePoint [0.9505 1.0 1.0890]
           >>
         ] setcolorspace } bind def
/srgb { setcolor } bind def
%%IncludeResource: font Helvetica
/Helvetica findfont
dup length dict begin
  {1 index /FID ne {def} {pop pop} ifelse} forall
  /Encoding ISOLatin1Encoding def
  currentdict
  end
/Font1 exch definefont pop
%%IncludeResource: font Helvetica-Bold
/Helvetica-Bold findfont
dup length dict begin
  {1 index /FID ne {def} {pop pop} ifelse} forall
  /Encoding ISOLatin1Encoding def
  currentdict
  end
/Font2 exch definefont pop
%%IncludeResource: font Helvetica-Oblique
/Helvetica-Oblique findfont
dup length dict begin
  {1 index /FID ne {def} {pop pop} ifelse} forall
  /Encoding ISOLatin1Encoding def
  currentdict
  end
/Font3 exch definefont pop
%%IncludeResource: font Helvetica-BoldOblique
/Helvetica-BoldOblique findfont
dup length dict begin
  {1 index /FID ne {def} {pop pop} ifelse} forall
  /Encoding ISOLatin1Encoding def
  currentdict
  end
/Font4 exch definefont pop
%%IncludeResource: font Symbol
/Symbol findfont
dup length dict begin
  {1 index /FID ne {def} {pop pop} ifelse} forall
  currentdict
  end
/Font5 exch definefont pop
%%EndProlog
%%Page: 1 1
bp
0.00 0.00 425.20 283.46 cl
0.00 0.00 425.20 283.46 cl
0.00 0.00 425.20 283.46 cl
0.00 0.00 425.20 283.46 cl
0.00 0.00 425.20 283.46 cl
0.00 0.00 425.20 283.46 cl
0.00 0.00 425.20 283.46 cl
0.00 0.00 425.20 283.46 cl
0.00 0.00 425.20 283.46 cl
0.00 0.00 425.20 283.46 cl
/bg { 1 1 1 srgb } def
1 1 1 srgb
1.07 setlinewidth
[] 0 setdash
1 setlinecap
1 setlinejoin
10.00 setmiterlimit
0.00 0.00 425.20 283.46 r p3
0.00 0.00 425.20 283.46 cl
44.41 41.23 419.72 277.99 cl
/bg { 1 1 1 srgb } def
44.41 41.23 375.31 236.76 r p2
0.9216 0.9216 0.9216 srgb
0.53 setlinewidth
[] 0 setdash
0 setlinecap
1 setlinejoin
10.00 setmiterlimit
np
44.41 53.11 m
375.31 0 l
o
np
44.41 103.06 m
375.31 0 l
o
np
44.41 153.01 m
375.31 0 l
o
np
44.41 202.95 m
375.31 0 l
o
np
44.41 252.90 m
375.31 0 l
o
np
101.10 41.23 m
0 236.76 l
o
np
187.26 41.23 m
0 236.76 l
o
np
273.42 41.23 m
0 236.76 l
o
np
359.58 41.23 m
0 236.76 l
o
1.07 setlinewidth
[] 0 setdash
np
44.41 78.09 m
375.31 0 l
o
np
44.41 128.03 m
375.31 0 l
o
np
44.41 177.98 m
375.31 0 l
o
np
44.41 227.92 m
375.31 0 l
o
np
44.41 277.87 m
375.31 0 l
o
np
58.02 41.23 m
0 236.76 l
o
np
144.18 41.23 m
0 236.76 l
o
np
230.34 41.23 m
0 236.76 l
o
np
316.50 41.23 m
0 236.76 l
o
np
402.66 41.23 m
0 236.76 l
o
0.9020 0.6235 0 srgb
1.00 setmiterlimit
np
61.47 127.91 m
37.91 3.27 l
37.91 -3.39 l
37.91 11.33 l
37.91 -6.07 l
37.91 1.76 l
37.91 -4.30 l
37.91 -4.52 l
37.91 13.07 l
37.91 -0.11 l
o
np
61.47 138.56 m
37.91 3.74 l
37.91 -1.49 l
37.91 8.78 l
37.91 -5.42 l
37.91 0.77 l
37.91 -3.62 l
37.91 -4.46 l
37.91 14.39 l
37.91 -2.05 l
o
0.3373 0.7059 0.9137 srgb
np
61.47 213.74 m
37.91 -139.07 l
37.91 -22.68 l
37.91 14.51 l
37.91 28.60 l
37.91 -18.44 l
37.91 20.36 l
37.91 -10.12 l
37.91 -13.92 l
37.91 2.00 l
o
np
61.47 267.22 m
37.91 -91.43 l
37.91 -7.93 l
37.91 12.05 l
37.91 15.14 l
37.91 -10.94 l
37.91 18.54 l
37.91 -24.13 l
37.91 3.60 l
37.91 -9.13 l
o
0 0.6196 0.4510 srgb
10.00 setmiterlimit
np
44.41 78.09 m
375.31 0 l
o
0.2000 0.2000 0.2000 srgb
1 setlinecap
44.41 41.23 375.31 236.76 r p1
0.00 0.00 425.20 283.46 cl
0.00 0.00 425.20 283.46 cl
0.00 0.00 425.20 283.46 cl
0.00 0.00 425.20 283.46 cl
0.00 0.00 425.20 283.46 cl
0.00 0.00 425.20 283.46 cl
0.00 0.00 425.20 283.46 cl
0.00 0.00 425.20 283.46 cl
0.00 0.00 425.20 283.46 cl
0.00 0.00 425.20 283.46 cl
0.00 0.00 425.20 283.46 cl
0.00 0.00 425.20 283.46 cl
0.00 0.00 425.20 283.46 cl
0.00 0.00 425.20 283.46 cl
0.00 0.00 425.20 283.46 cl
0.00 0.00 425.20 283.46 cl
/Font1 findfont 17 s
0.3020 0.3020 0.3020 srgb
39.47 71.98 (0) 1 0 t
39.47 121.93 (1) 1 0 t
39.47 171.88 (2) 1 0 t
39.47 221.82 (3) 1 0 t
39.47 271.77 (4) 1 0 t
0.00 0.00 425.20 283.46 cl
0.00 0.00 425.20 283.46 cl
0.2000 0.2000 0.2000 srgb
1.07 setlinewidth
[] 0 setdash
0 setlinecap
1 setlinejoin
10.00 setmiterlimit
np
41.67 78.09 m
2.74 0 l
o
np
41.67 128.03 m
2.74 0 l
o
np
41.67 177.98 m
2.74 0 l
o
np
41.67 227.92 m
2.74 0 l
o
np
41.67 277.87 m
2.74 0 l
o
0.00 0.00 425.20 283.46 cl
0.00 0.00 425.20 283.46 cl
0.00 0.00 425.20 283.46 cl
0.00 0.00 425.20 283.46 cl
0.00 0.00 425.20 283.46 cl
0.00 0.00 425.20 283.46 cl
0.00 0.00 425.20 283.46 cl
0.00 0.00 425.20 283.46 cl
0.00 0.00 425.20 283.46 cl
0.00 0.00 425.20 283.46 cl
0.2000 0.2000 0.2000 srgb
1.07 setlinewidth
[] 0 setdash
0 setlinecap
1 setlinejoin
10.00 setmiterlimit
np
58.02 38.49 m
0 2.74 l
o
np
144.18 38.49 m
0 2.74 l
o
np
230.34 38.49 m
0 2.74 l
o
np
316.50 38.49 m
0 2.74 l
o
np
402.66 38.49 m
0 2.74 l
o
0.00 0.00 425.20 283.46 cl
0.00 0.00 425.20 283.46 cl
/Font1 findfont 17 s
0.3020 0.3020 0.3020 srgb
58.02 24.09 (0.0) .5 0 t
144.18 24.09 (2.5) .5 0 t
230.34 24.09 (5.0) .5 0 t
316.50 24.09 (7.5) .5 0 t
402.66 24.09 (10.0) .5 0 t
0.00 0.00 425.20 283.46 cl
0.00 0.00 425.20 283.46 cl
0.00 0.00 425.20 283.46 cl
0.00 0.00 425.20 283.46 cl
0.00 0.00 425.20 283.46 cl
0.00 0.00 425.20 283.46 cl
/Font5 findfont 17 s
0 0 0 srgb
227.86 6.03 (d) 0 0 t
0.00 0.00 425.20 283.46 cl
0.00 0.00 425.20 283.46 cl
/Font5 findfont 17 s
0 0 0 srgb
18.08 151.60 (b) 0 90 t
/Font1 findfont 12 s
21.19 160.94 (2) 0 90 t
0.00 0.00 425.20 283.46 cl
0.00 0.00 425.20 283.46 cl
0.00 0.00 425.20 283.46 cl
0.00 0.00 425.20 283.46 cl
0.00 0.00 425.20 283.46 cl
0.00 0.00 425.20 283.46 cl
0.00 0.00 425.20 283.46 cl
0.00 0.00 425.20 283.46 cl
0.00 0.00 425.20 283.46 cl
0.00 0.00 425.20 283.46 cl
ep
%%Trailer
%%Pages: 1
%%EOF
