%!PS-Adobe-3.0 EPSF-3.0
%%DocumentNeededResources: font Helvetica
%%+ font Helvetica-Bold
%%+ font Helvetica-Oblique
%%+ font Helvetica-BoldOblique
%%+ font Symbol
%%Title: R Graphics Output
%%Creator: R Software
%%Pages: (atend)
%%BoundingBox: 0 0 425 283
%%EndComments
%%BeginProlog
/bp  { gs sRGB gs } def
% begin .ps.prolog
/gs  { gsave } bind def
/gr  { grestore } bind def
/ep  { showpage gr gr } bind def
/m   { moveto } bind def
/l  { rlineto } bind def
/np  { newpath } bind def
/cp  { closepath } bind def
/f   { fill } bind def
/o   { stroke } bind def
/c   { newpath 0 360 arc } bind def
/r   { 4 2 roll moveto 1 copy 3 -1 roll exch 0 exch rlineto 0 rlineto -1 mul 0 exch rlineto closepath } bind def
/p1  { stroke } bind def
/p2  { gsave bg fill grestore newpath } bind def
/p3  { gsave bg fill grestore stroke } bind def
/p6  { gsave bg eofill grestore newpath } bind def
/p7  { gsave bg eofill grestore stroke } bind def
/t   { 5 -2 roll moveto gsave rotate
       1 index stringwidth pop
       mul neg 0 rmoveto show grestore } bind def
/ta  { 4 -2 roll moveto gsave rotate show } bind def
/tb  { 2 -1 roll 0 rmoveto show } bind def
/cl  { grestore gsave newpath 3 index 3 index moveto 1 index
       4 -1 roll lineto  exch 1 index lineto lineto
       closepath clip newpath } bind def
/rgb { setrgbcolor } bind def
/s   { scalefont setfont } bind def
% end   .ps.prolog
/sRGB { [ /CIEBasedABC
          << /DecodeLMN
               [ { dup 0.03928 le
                        {12.92321 div}
                        {0.055 add 1.055 div 2.4 exp }
                     ifelse
                 } bind dup dup
               ]
             /MatrixLMN [0.412457 0.212673 0.019334
                         0.357576 0.715152 0.119192
                         0.180437 0.072175 0.950301]
             /WhitePoint [0.9505 1.0 1.0890]
           >>
         ] setcolorspace } bind def
/srgb { setcolor } bind def
%%IncludeResource: font Helvetica
/Helvetica findfont
dup length dict begin
  {1 index /FID ne {def} {pop pop} ifelse} forall
  /Encoding ISOLatin1Encoding def
  currentdict
  end
/Font1 exch definefont pop
%%IncludeResource: font Helvetica-Bold
/Helvetica-Bold findfont
dup length dict begin
  {1 index /FID ne {def} {pop pop} ifelse} forall
  /Encoding ISOLatin1Encoding def
  currentdict
  end
/Font2 exch definefont pop
%%IncludeResource: font Helvetica-Oblique
/Helvetica-Oblique findfont
dup length dict begin
  {1 index /FID ne {def} {pop pop} ifelse} forall
  /Encoding ISOLatin1Encoding def
  currentdict
  end
/Font3 exch definefont pop
%%IncludeResource: font Helvetica-BoldOblique
/Helvetica-BoldOblique findfont
dup length dict begin
  {1 index /FID ne {def} {pop pop} ifelse} forall
  /Encoding ISOLatin1Encoding def
  currentdict
  end
/Font4 exch definefont pop
%%IncludeResource: font Symbol
/Symbol findfont
dup length dict begin
  {1 index /FID ne {def} {pop pop} ifelse} forall
  currentdict
  end
/Font5 exch definefont pop
%%EndProlog
%%Page: 1 1
bp
0.00 0.00 425.20 283.46 cl
0.00 0.00 425.20 283.46 cl
0.00 0.00 425.20 283.46 cl
0.00 0.00 425.20 283.46 cl
0.00 0.00 425.20 283.46 cl
0.00 0.00 425.20 283.46 cl
0.00 0.00 425.20 283.46 cl
0.00 0.00 425.20 283.46 cl
0.00 0.00 425.20 283.46 cl
0.00 0.00 425.20 283.46 cl
/bg { 1 1 1 srgb } def
1 1 1 srgb
1.07 setlinewidth
[] 0 setdash
1 setlinecap
1 setlinejoin
10.00 setmiterlimit
0.00 0.00 425.20 283.46 r p3
0.00 0.00 425.20 283.46 cl
58.58 41.23 419.72 277.99 cl
/bg { 1 1 1 srgb } def
58.58 41.23 361.13 236.76 r p2
0.9216 0.9216 0.9216 srgb
0.53 setlinewidth
[] 0 setdash
0 setlinecap
1 setlinejoin
10.00 setmiterlimit
np
58.58 74.01 m
361.14 0 l
o
np
58.58 118.04 m
361.14 0 l
o
np
58.58 162.07 m
361.14 0 l
o
np
58.58 206.10 m
361.14 0 l
o
np
58.58 250.13 m
361.14 0 l
o
np
113.14 41.23 m
0 236.76 l
o
np
196.04 41.23 m
0 236.76 l
o
np
278.95 41.23 m
0 236.76 l
o
np
361.85 41.23 m
0 236.76 l
o
1.07 setlinewidth
[] 0 setdash
np
58.58 51.99 m
361.14 0 l
o
np
58.58 96.02 m
361.14 0 l
o
np
58.58 140.05 m
361.14 0 l
o
np
58.58 184.09 m
361.14 0 l
o
np
58.58 228.12 m
361.14 0 l
o
np
58.58 272.15 m
361.14 0 l
o
np
71.68 41.23 m
0 236.76 l
o
np
154.59 41.23 m
0 236.76 l
o
np
237.49 41.23 m
0 236.76 l
o
np
320.40 41.23 m
0 236.76 l
o
np
403.30 41.23 m
0 236.76 l
o
0.9020 0.6235 0 srgb
1.00 setmiterlimit
np
75.00 118.83 m
36.48 5.91 l
36.48 -3.26 l
36.47 10.81 l
36.48 -16.52 l
36.48 1.52 l
36.48 17.51 l
36.48 0.90 l
36.47 -27.27 l
36.48 38.30 l
o
np
75.00 160.22 m
36.48 17.73 l
36.48 1.73 l
36.47 8.03 l
36.48 -10.29 l
36.48 -7.16 l
36.48 16.27 l
36.48 -0.27 l
36.47 -12.82 l
36.48 30.01 l
o
0.3373 0.7059 0.9137 srgb
np
75.00 211.75 m
36.48 -73.40 l
36.48 17.18 l
36.47 -9.05 l
36.48 9.05 l
36.48 16.81 l
36.48 -12.58 l
36.48 0.35 l
36.47 8.55 l
36.48 -5.70 l
o
np
75.00 231.78 m
36.48 0.89 l
36.48 10.84 l
36.47 -3.02 l
36.48 10.10 l
36.48 2.12 l
36.48 -4.88 l
36.48 8.08 l
36.47 11.31 l
36.48 -24.91 l
o
0 0.6196 0.4510 srgb
10.00 setmiterlimit
np
58.58 51.99 m
361.14 0 l
o
0.2000 0.2000 0.2000 srgb
1 setlinecap
58.58 41.23 361.13 236.76 r p1
0.00 0.00 425.20 283.46 cl
0.00 0.00 425.20 283.46 cl
0.00 0.00 425.20 283.46 cl
0.00 0.00 425.20 283.46 cl
0.00 0.00 425.20 283.46 cl
0.00 0.00 425.20 283.46 cl
0.00 0.00 425.20 283.46 cl
0.00 0.00 425.20 283.46 cl
0.00 0.00 425.20 283.46 cl
0.00 0.00 425.20 283.46 cl
0.00 0.00 425.20 283.46 cl
0.00 0.00 425.20 283.46 cl
0.00 0.00 425.20 283.46 cl
0.00 0.00 425.20 283.46 cl
0.00 0.00 425.20 283.46 cl
0.00 0.00 425.20 283.46 cl
/Font1 findfont 17 s
0.3020 0.3020 0.3020 srgb
53.65 45.89 (0.0) 1 0 t
53.65 89.92 (0.5) 1 0 t
53.65 133.95 (1.0) 1 0 t
53.65 177.98 (1.5) 1 0 t
53.65 222.01 (2.0) 1 0 t
53.65 266.05 (2.5) 1 0 t
0.00 0.00 425.20 283.46 cl
0.00 0.00 425.20 283.46 cl
0.2000 0.2000 0.2000 srgb
1.07 setlinewidth
[] 0 setdash
0 setlinecap
1 setlinejoin
10.00 setmiterlimit
np
55.84 51.99 m
2.74 0 l
o
np
55.84 96.02 m
2.74 0 l
o
np
55.84 140.05 m
2.74 0 l
o
np
55.84 184.09 m
2.74 0 l
o
np
55.84 228.12 m
2.74 0 l
o
np
55.84 272.15 m
2.74 0 l
o
0.00 0.00 425.20 283.46 cl
0.00 0.00 425.20 283.46 cl
0.00 0.00 425.20 283.46 cl
0.00 0.00 425.20 283.46 cl
0.00 0.00 425.20 283.46 cl
0.00 0.00 425.20 283.46 cl
0.00 0.00 425.20 283.46 cl
0.00 0.00 425.20 283.46 cl
0.00 0.00 425.20 283.46 cl
0.00 0.00 425.20 283.46 cl
0.2000 0.2000 0.2000 srgb
1.07 setlinewidth
[] 0 setdash
0 setlinecap
1 setlinejoin
10.00 setmiterlimit
np
71.68 38.49 m
0 2.74 l
o
np
154.59 38.49 m
0 2.74 l
o
np
237.49 38.49 m
0 2.74 l
o
np
320.40 38.49 m
0 2.74 l
o
np
403.30 38.49 m
0 2.74 l
o
0.00 0.00 425.20 283.46 cl
0.00 0.00 425.20 283.46 cl
/Font1 findfont 17 s
0.3020 0.3020 0.3020 srgb
71.68 24.09 (0.0) .5 0 t
154.59 24.09 (2.5) .5 0 t
237.49 24.09 (5.0) .5 0 t
320.40 24.09 (7.5) .5 0 t
403.30 24.09 (10.0) .5 0 t
0.00 0.00 425.20 283.46 cl
0.00 0.00 425.20 283.46 cl
0.00 0.00 425.20 283.46 cl
0.00 0.00 425.20 283.46 cl
0.00 0.00 425.20 283.46 cl
0.00 0.00 425.20 283.46 cl
/Font5 findfont 17 s
0 0 0 srgb
234.95 6.03 (d) 0 0 t
0.00 0.00 425.20 283.46 cl
0.00 0.00 425.20 283.46 cl
/Font5 findfont 17 s
0 0 0 srgb
18.08 151.60 (b) 0 90 t
/Font1 findfont 12 s
21.19 160.94 (2) 0 90 t
0.00 0.00 425.20 283.46 cl
0.00 0.00 425.20 283.46 cl
0.00 0.00 425.20 283.46 cl
0.00 0.00 425.20 283.46 cl
0.00 0.00 425.20 283.46 cl
0.00 0.00 425.20 283.46 cl
0.00 0.00 425.20 283.46 cl
0.00 0.00 425.20 283.46 cl
0.00 0.00 425.20 283.46 cl
0.00 0.00 425.20 283.46 cl
ep
%%Trailer
%%Pages: 1
%%EOF
