%!PS-Adobe-3.0
%%DocumentNeededResources: font Helvetica
%%+ font Helvetica-Bold
%%+ font Helvetica-Oblique
%%+ font Helvetica-BoldOblique
%%+ font Symbol
%%DocumentMedia: a4 595 841 0 () ()
%%Title: R Graphics Output
%%Creator: R Software
%%Pages: (atend)
%%Orientation: Landscape
%%BoundingBox: 18 18 577 824
%%EndComments
%%BeginProlog
/bp  { gs sRGB 595.00 0 translate 90 rotate gs } def
% begin .ps.prolog
/gs  { gsave } bind def
/gr  { grestore } bind def
/ep  { showpage gr gr } bind def
/m   { moveto } bind def
/l  { rlineto } bind def
/np  { newpath } bind def
/cp  { closepath } bind def
/f   { fill } bind def
/o   { stroke } bind def
/c   { newpath 0 360 arc } bind def
/r   { 4 2 roll moveto 1 copy 3 -1 roll exch 0 exch rlineto 0 rlineto -1 mul 0 exch rlineto closepath } bind def
/p1  { stroke } bind def
/p2  { gsave bg fill grestore newpath } bind def
/p3  { gsave bg fill grestore stroke } bind def
/p6  { gsave bg eofill grestore newpath } bind def
/p7  { gsave bg eofill grestore stroke } bind def
/t   { 5 -2 roll moveto gsave rotate
       1 index stringwidth pop
       mul neg 0 rmoveto show grestore } bind def
/ta  { 4 -2 roll moveto gsave rotate show } bind def
/tb  { 2 -1 roll 0 rmoveto show } bind def
/cl  { grestore gsave newpath 3 index 3 index moveto 1 index
       4 -1 roll lineto  exch 1 index lineto lineto
       closepath clip newpath } bind def
/rgb { setrgbcolor } bind def
/s   { scalefont setfont } bind def
% end   .ps.prolog
/sRGB { [ /CIEBasedABC
          << /DecodeLMN
               [ { dup 0.03928 le
                        {12.92321 div}
                        {0.055 add 1.055 div 2.4 exp }
                     ifelse
                 } bind dup dup
               ]
             /MatrixLMN [0.412457 0.212673 0.019334
                         0.357576 0.715152 0.119192
                         0.180437 0.072175 0.950301]
             /WhitePoint [0.9505 1.0 1.0890]
           >>
         ] setcolorspace } bind def
/srgb { setcolor } bind def
%%IncludeResource: font Helvetica
/Helvetica findfont
dup length dict begin
  {1 index /FID ne {def} {pop pop} ifelse} forall
  /Encoding ISOLatin1Encoding def
  currentdict
  end
/Font1 exch definefont pop
%%IncludeResource: font Helvetica-Bold
/Helvetica-Bold findfont
dup length dict begin
  {1 index /FID ne {def} {pop pop} ifelse} forall
  /Encoding ISOLatin1Encoding def
  currentdict
  end
/Font2 exch definefont pop
%%IncludeResource: font Helvetica-Oblique
/Helvetica-Oblique findfont
dup length dict begin
  {1 index /FID ne {def} {pop pop} ifelse} forall
  /Encoding ISOLatin1Encoding def
  currentdict
  end
/Font3 exch definefont pop
%%IncludeResource: font Helvetica-BoldOblique
/Helvetica-BoldOblique findfont
dup length dict begin
  {1 index /FID ne {def} {pop pop} ifelse} forall
  /Encoding ISOLatin1Encoding def
  currentdict
  end
/Font4 exch definefont pop
%%IncludeResource: font Symbol
/Symbol findfont
dup length dict begin
  {1 index /FID ne {def} {pop pop} ifelse} forall
  currentdict
  end
/Font5 exch definefont pop
%%EndProlog
%%Page: 1 1
bp
77.04 91.44 793.65 518.24 cl
1 0 0 srgb
0.75 setlinewidth
[] 0 setdash
1 setlinecap
1 setlinejoin
10.00 setmiterlimit
np
103.58 401.93 m
73.73 -25.44 l
73.72 -29.99 l
73.73 -71.60 l
73.72 17.08 l
73.73 31.88 l
73.72 -82.35 l
73.73 -22.87 l
73.72 -17.29 l
73.73 -9.43 l
o
18.00 18.00 823.89 577.28 cl
0 0 0 srgb
0.75 setlinewidth
[] 0 setdash
1 setlinecap
1 setlinejoin
10.00 setmiterlimit
np
243.27 91.44 m
523.84 0 l
o
np
243.27 91.44 m
0 -7.20 l
o
np
417.88 91.44 m
0 -7.20 l
o
np
592.50 91.44 m
0 -7.20 l
o
np
767.11 91.44 m
0 -7.20 l
o
/Font1 findfont 12 s
243.27 65.52 (0.5) .5 0 t
417.88 65.52 (1.0) .5 0 t
592.50 65.52 (1.5) .5 0 t
767.11 65.52 (2.0) .5 0 t
np
77.04 95.82 m
0 390.51 l
o
np
77.04 95.82 m
-7.20 0 l
o
np
77.04 160.91 m
-7.20 0 l
o
np
77.04 225.99 m
-7.20 0 l
o
np
77.04 291.08 m
-7.20 0 l
o
np
77.04 356.16 m
-7.20 0 l
o
np
77.04 421.24 m
-7.20 0 l
o
np
77.04 486.33 m
-7.20 0 l
o
59.76 95.82 (-1.5) .5 90 t
59.76 160.91 (-1.0) .5 90 t
59.76 225.99 (-0.5) .5 90 t
59.76 291.08 (0.0) .5 90 t
59.76 356.16 (0.5) .5 90 t
59.76 421.24 (1.0) .5 90 t
59.76 486.33 (1.5) .5 90 t
np
77.04 91.44 m
716.61 0 l
0 426.80 l
-716.61 0 l
0 -426.80 l
o
18.00 18.00 823.89 577.28 cl
/Font5 findfont 12 s
0 0 0 srgb
432.38 36.95 (d) 0 0 t
28.28 299.32 (b) 0 90 t
/Font1 findfont 8 s
30.48 305.91 (2) 0 90 t
77.04 91.44 793.65 518.24 cl
1 0 0 srgb
0.75 setlinewidth
[] 0 setdash
1 setlinecap
1 setlinejoin
10.00 setmiterlimit
np
103.58 408.82 m
73.73 -27.55 l
73.72 -30.40 l
73.73 -37.10 l
73.72 -24.51 l
73.73 9.82 l
73.72 -16.65 l
73.73 -112.27 l
73.72 -1.01 l
73.73 2.97 l
o
np
103.58 408.79 m
73.73 -28.42 l
73.72 -16.64 l
73.73 -40.82 l
73.72 0.33 l
73.73 18.83 l
73.72 -102.97 l
73.73 -45.49 l
73.72 37.51 l
73.73 -43.49 l
o
np
103.58 402.63 m
73.73 -24.59 l
73.72 -25.62 l
73.73 -31.62 l
73.72 -43.39 l
73.73 -8.95 l
73.72 -25.59 l
73.73 -6.18 l
73.72 -61.24 l
73.73 98.22 l
o
np
103.58 394.32 m
73.73 -31.02 l
73.72 -34.66 l
73.73 -11.21 l
73.72 -42.46 l
73.73 -3.44 l
73.72 18.34 l
73.73 -36.93 l
73.72 -18.20 l
73.73 14.11 l
o
np
103.58 401.13 m
73.73 -26.73 l
73.72 -20.05 l
73.73 -30.65 l
73.72 -12.32 l
73.73 4.76 l
73.72 -24.23 l
73.73 -112.71 l
73.72 -49.08 l
73.73 87.52 l
o
np
103.58 412.58 m
73.73 -25.24 l
73.72 -22.92 l
73.73 -16.66 l
73.72 -85.47 l
73.73 57.35 l
73.72 -39.12 l
73.73 -53.45 l
73.72 80.77 l
73.73 -155.89 l
o
np
103.58 407.98 m
73.73 -25.66 l
73.72 -27.88 l
73.73 -20.68 l
73.72 -39.81 l
73.73 6.21 l
73.72 -43.58 l
73.73 11.88 l
73.72 -125.51 l
73.73 43.33 l
o
np
103.58 390.68 m
73.73 -24.85 l
73.72 -24.44 l
73.73 -47.08 l
73.72 -26.02 l
73.73 -59.44 l
73.72 87.72 l
73.73 -76.72 l
73.72 -1.56 l
73.73 56.24 l
o
np
103.58 411.64 m
73.73 -30.53 l
73.72 -26.20 l
73.73 -27.86 l
73.72 -20.37 l
73.73 -27.20 l
73.72 -76.07 l
73.73 83.85 l
73.72 -44.29 l
73.73 -50.04 l
o
np
103.58 430.89 m
73.73 -5.93 l
73.72 -8.42 l
73.73 -14.32 l
73.72 27.01 l
73.73 20.80 l
73.72 -97.01 l
73.73 22.68 l
73.72 32.90 l
73.73 -29.90 l
o
np
103.58 437.60 m
73.73 -1.39 l
73.72 -14.30 l
73.73 8.46 l
73.72 -30.80 l
73.73 24.94 l
73.72 17.90 l
73.73 -92.94 l
73.72 -37.63 l
73.73 41.64 l
o
np
103.58 438.04 m
73.73 -6.01 l
73.72 -1.92 l
73.73 2.03 l
73.72 14.28 l
73.73 56.01 l
73.72 -66.19 l
73.73 -62.45 l
73.72 -15.42 l
73.73 40.93 l
o
np
103.58 430.39 m
73.73 -2.61 l
73.72 9.73 l
73.73 -5.09 l
73.72 -22.87 l
73.73 4.38 l
73.72 -7.84 l
73.73 10.88 l
73.72 -23.27 l
73.73 100.24 l
o
np
103.58 420.72 m
73.73 -0.91 l
73.72 -7.58 l
73.73 27.52 l
73.72 -39.97 l
73.73 -16.42 l
73.72 74.34 l
73.73 -21.70 l
73.72 -77.72 l
73.73 65.24 l
o
np
103.58 428.24 m
73.73 -0.24 l
73.72 -12.29 l
73.73 1.81 l
73.72 44.95 l
73.73 -51.95 l
73.72 14.46 l
73.73 -55.04 l
73.72 -6.71 l
73.73 30.60 l
o
np
103.58 439.63 m
73.73 0.18 l
73.72 1.77 l
73.73 -6.24 l
73.72 -11.84 l
73.73 7.87 l
73.72 -43.16 l
73.73 79.62 l
73.72 0.37 l
73.73 -119.99 l
o
np
103.58 434.38 m
73.73 -4.27 l
73.72 15.49 l
73.73 -13.61 l
73.72 -23.12 l
73.73 46.23 l
73.72 -32.81 l
73.73 32.42 l
73.72 -89.95 l
73.73 -15.11 l
o
np
103.58 423.69 m
73.73 -2.50 l
73.72 -7.97 l
73.73 -9.22 l
73.72 -10.21 l
73.73 -9.12 l
73.72 42.74 l
73.73 -49.64 l
73.72 7.12 l
73.73 68.80 l
o
np
103.58 440.31 m
73.73 -1.77 l
73.72 3.89 l
73.73 -20.67 l
73.72 30.47 l
73.73 -15.86 l
73.72 -55.08 l
73.73 69.68 l
73.72 8.81 l
73.73 -120.07 l
o
0 0 1 srgb
0.75 setlinewidth
[ 2.25 3.75] 0 setdash
np
103.58 398.51 m
73.73 -25.57 l
73.72 -28.82 l
73.73 -32.84 l
73.72 -19.68 l
73.73 -27.42 l
73.72 -46.26 l
73.73 -6.26 l
73.72 -30.95 l
73.73 -63.01 l
o
np
103.58 405.71 m
73.73 -22.20 l
73.72 -28.93 l
73.73 -28.31 l
73.72 -30.72 l
73.73 -21.95 l
73.72 -61.98 l
73.73 -40.60 l
73.72 -11.43 l
73.73 24.31 l
o
np
103.58 406.89 m
73.73 -26.48 l
73.72 -28.27 l
73.73 -35.11 l
73.72 -18.98 l
73.73 -39.63 l
73.72 -17.29 l
73.73 -55.38 l
73.72 -38.65 l
73.73 15.41 l
o
np
103.58 399.26 m
73.73 -22.25 l
73.72 -27.58 l
73.73 -24.77 l
73.72 -30.63 l
73.73 -22.32 l
73.72 -16.52 l
73.73 -46.25 l
73.72 -3.39 l
73.73 -58.34 l
o
np
103.58 391.55 m
73.73 -22.87 l
73.72 -25.03 l
73.73 -30.38 l
73.72 -27.01 l
73.73 -22.26 l
73.72 -43.54 l
73.73 -28.64 l
73.72 -4.25 l
73.73 -63.44 l
o
np
103.58 398.21 m
73.73 -23.57 l
73.72 -29.75 l
73.73 -25.14 l
73.72 -35.72 l
73.73 -20.49 l
73.72 -45.62 l
73.73 -27.89 l
73.72 -11.95 l
73.73 -30.00 l
o
np
103.58 410.14 m
73.73 -22.79 l
73.72 -26.69 l
73.73 -25.03 l
73.72 -26.90 l
73.73 -30.61 l
73.72 -36.64 l
73.73 -19.46 l
73.72 -47.21 l
73.73 25.36 l
o
np
103.58 404.79 m
73.73 -24.46 l
73.72 -29.15 l
73.73 -31.47 l
73.72 -27.47 l
73.73 -22.05 l
73.72 -54.96 l
73.73 -13.42 l
73.72 -30.22 l
73.73 -34.29 l
o
np
103.58 391.12 m
73.73 -26.10 l
73.72 -28.15 l
73.73 -30.04 l
73.72 -31.13 l
73.73 -33.46 l
73.72 -27.96 l
73.73 -30.96 l
73.72 -44.41 l
73.73 -31.66 l
o
np
103.58 408.49 m
73.73 -27.16 l
73.72 -22.91 l
73.73 -34.76 l
73.72 -35.25 l
73.73 -20.91 l
73.72 -41.17 l
73.73 -18.63 l
73.72 -40.15 l
73.73 -3.25 l
o
np
103.58 436.62 m
73.73 -2.06 l
73.72 -0.95 l
73.73 -1.31 l
73.72 -3.28 l
73.73 11.94 l
73.72 -6.74 l
73.73 17.93 l
73.72 3.24 l
73.73 26.74 l
o
np
103.58 442.36 m
73.73 -4.61 l
73.72 -1.98 l
73.73 3.72 l
73.72 -6.70 l
73.73 15.27 l
73.72 -9.20 l
73.73 -5.72 l
73.72 12.62 l
73.73 24.37 l
o
np
103.58 443.02 m
73.73 -2.06 l
73.72 -3.20 l
73.73 -0.87 l
73.72 3.93 l
73.73 -0.87 l
73.72 13.70 l
73.73 -14.30 l
73.72 16.16 l
73.73 5.10 l
o
np
103.58 434.52 m
73.73 -3.69 l
73.72 0.46 l
73.73 -3.18 l
73.72 3.16 l
73.73 -5.74 l
73.72 27.16 l
73.73 -19.94 l
73.72 9.62 l
73.73 21.13 l
o
np
103.58 426.84 m
73.73 -2.15 l
73.72 -4.73 l
73.73 2.51 l
73.72 -4.37 l
73.73 -6.74 l
73.72 16.35 l
73.73 8.90 l
73.72 -11.99 l
73.73 -18.21 l
o
np
103.58 433.01 m
73.73 -3.14 l
73.72 0.26 l
73.73 -2.23 l
73.72 4.28 l
73.73 -3.36 l
73.72 3.34 l
73.73 -14.19 l
73.72 -19.15 l
73.73 39.24 l
o
np
103.58 444.97 m
73.73 -3.54 l
73.72 0.12 l
73.73 -1.05 l
73.72 11.97 l
73.73 -14.39 l
73.72 -10.04 l
73.73 10.13 l
73.72 20.89 l
73.73 4.82 l
o
np
103.58 440.19 m
73.73 -2.68 l
73.72 0.14 l
73.73 -6.26 l
73.72 10.59 l
73.73 1.82 l
73.72 3.50 l
73.73 7.62 l
73.72 -4.13 l
73.73 -53.89 l
o
np
103.58 427.67 m
73.73 -3.69 l
73.72 1.51 l
73.73 0.22 l
73.72 -2.68 l
73.73 10.90 l
73.72 -9.45 l
73.73 -16.34 l
73.72 -13.84 l
73.73 6.24 l
o
np
103.58 445.32 m
73.73 -6.21 l
73.72 3.68 l
73.73 -2.65 l
73.72 0.68 l
73.73 18.04 l
73.72 -10.61 l
73.73 -16.57 l
73.72 31.02 l
73.73 -10.71 l
o
ep
%%Trailer
%%Pages: 1
%%EOF
