%!PS-Adobe-3.0
%%DocumentNeededResources: font Helvetica
%%+ font Helvetica-Bold
%%+ font Helvetica-Oblique
%%+ font Helvetica-BoldOblique
%%+ font Symbol
%%DocumentMedia: a4 595 841 0 () ()
%%Title: R Graphics Output
%%Creator: R Software
%%Pages: (atend)
%%Orientation: Landscape
%%BoundingBox: 18 18 577 824
%%EndComments
%%BeginProlog
/bp  { gs sRGB 595.00 0 translate 90 rotate gs } def
% begin .ps.prolog
/gs  { gsave } bind def
/gr  { grestore } bind def
/ep  { showpage gr gr } bind def
/m   { moveto } bind def
/l  { rlineto } bind def
/np  { newpath } bind def
/cp  { closepath } bind def
/f   { fill } bind def
/o   { stroke } bind def
/c   { newpath 0 360 arc } bind def
/r   { 4 2 roll moveto 1 copy 3 -1 roll exch 0 exch rlineto 0 rlineto -1 mul 0 exch rlineto closepath } bind def
/p1  { stroke } bind def
/p2  { gsave bg fill grestore newpath } bind def
/p3  { gsave bg fill grestore stroke } bind def
/p6  { gsave bg eofill grestore newpath } bind def
/p7  { gsave bg eofill grestore stroke } bind def
/t   { 5 -2 roll moveto gsave rotate
       1 index stringwidth pop
       mul neg 0 rmoveto show grestore } bind def
/ta  { 4 -2 roll moveto gsave rotate show } bind def
/tb  { 2 -1 roll 0 rmoveto show } bind def
/cl  { grestore gsave newpath 3 index 3 index moveto 1 index
       4 -1 roll lineto  exch 1 index lineto lineto
       closepath clip newpath } bind def
/rgb { setrgbcolor } bind def
/s   { scalefont setfont } bind def
% end   .ps.prolog
/sRGB { [ /CIEBasedABC
          << /DecodeLMN
               [ { dup 0.03928 le
                        {12.92321 div}
                        {0.055 add 1.055 div 2.4 exp }
                     ifelse
                 } bind dup dup
               ]
             /MatrixLMN [0.412457 0.212673 0.019334
                         0.357576 0.715152 0.119192
                         0.180437 0.072175 0.950301]
             /WhitePoint [0.9505 1.0 1.0890]
           >>
         ] setcolorspace } bind def
/srgb { setcolor } bind def
%%IncludeResource: font Helvetica
/Helvetica findfont
dup length dict begin
  {1 index /FID ne {def} {pop pop} ifelse} forall
  /Encoding ISOLatin1Encoding def
  currentdict
  end
/Font1 exch definefont pop
%%IncludeResource: font Helvetica-Bold
/Helvetica-Bold findfont
dup length dict begin
  {1 index /FID ne {def} {pop pop} ifelse} forall
  /Encoding ISOLatin1Encoding def
  currentdict
  end
/Font2 exch definefont pop
%%IncludeResource: font Helvetica-Oblique
/Helvetica-Oblique findfont
dup length dict begin
  {1 index /FID ne {def} {pop pop} ifelse} forall
  /Encoding ISOLatin1Encoding def
  currentdict
  end
/Font3 exch definefont pop
%%IncludeResource: font Helvetica-BoldOblique
/Helvetica-BoldOblique findfont
dup length dict begin
  {1 index /FID ne {def} {pop pop} ifelse} forall
  /Encoding ISOLatin1Encoding def
  currentdict
  end
/Font4 exch definefont pop
%%IncludeResource: font Symbol
/Symbol findfont
dup length dict begin
  {1 index /FID ne {def} {pop pop} ifelse} forall
  currentdict
  end
/Font5 exch definefont pop
%%EndProlog
%%Page: 1 1
bp
77.04 91.44 793.65 518.24 cl
1 0 0 srgb
0.75 setlinewidth
[] 0 setdash
1 setlinecap
1 setlinejoin
10.00 setmiterlimit
np
103.58 410.42 m
73.73 -22.61 l
73.72 -28.64 l
73.73 -51.32 l
73.72 13.82 l
73.73 -47.51 l
73.72 -35.68 l
73.73 9.99 l
73.72 -28.35 l
73.73 -2.35 l
o
18.00 18.00 823.89 577.28 cl
0 0 0 srgb
0.75 setlinewidth
[] 0 setdash
1 setlinecap
1 setlinejoin
10.00 setmiterlimit
np
243.27 91.44 m
523.84 0 l
o
np
243.27 91.44 m
0 -7.20 l
o
np
417.88 91.44 m
0 -7.20 l
o
np
592.50 91.44 m
0 -7.20 l
o
np
767.11 91.44 m
0 -7.20 l
o
/Font1 findfont 12 s
243.27 65.52 (0.5) .5 0 t
417.88 65.52 (1.0) .5 0 t
592.50 65.52 (1.5) .5 0 t
767.11 65.52 (2.0) .5 0 t
np
77.04 95.78 m
0 400.90 l
o
np
77.04 95.78 m
-7.20 0 l
o
np
77.04 162.60 m
-7.20 0 l
o
np
77.04 229.42 m
-7.20 0 l
o
np
77.04 296.23 m
-7.20 0 l
o
np
77.04 363.05 m
-7.20 0 l
o
np
77.04 429.87 m
-7.20 0 l
o
np
77.04 496.68 m
-7.20 0 l
o
59.76 95.78 (-0.5) .5 90 t
59.76 162.60 (0.0) .5 90 t
59.76 229.42 (0.5) .5 90 t
59.76 296.23 (1.0) .5 90 t
59.76 363.05 (1.5) .5 90 t
59.76 429.87 (2.0) .5 90 t
59.76 496.68 (2.5) .5 90 t
np
77.04 91.44 m
716.61 0 l
0 426.80 l
-716.61 0 l
0 -426.80 l
o
18.00 18.00 823.89 577.28 cl
/Font5 findfont 12 s
0 0 0 srgb
432.38 36.95 (d) 0 0 t
28.28 299.32 (b) 0 90 t
/Font1 findfont 8 s
30.48 305.91 (2) 0 90 t
77.04 91.44 793.65 518.24 cl
1 0 0 srgb
0.75 setlinewidth
[] 0 setdash
1 setlinecap
1 setlinejoin
10.00 setmiterlimit
np
103.58 418.71 m
73.73 -28.45 l
73.72 -24.65 l
73.73 -41.29 l
73.72 -27.50 l
73.73 -1.54 l
73.72 -32.72 l
73.73 -65.61 l
73.72 -85.36 l
73.73 95.08 l
o
np
103.58 417.03 m
73.73 -26.42 l
73.72 -25.64 l
73.73 -64.32 l
73.72 23.06 l
73.73 9.98 l
73.72 -99.52 l
73.73 -3.42 l
73.72 -37.91 l
73.73 -45.49 l
o
np
103.58 410.70 m
73.73 -25.05 l
73.72 -21.22 l
73.73 -39.85 l
73.72 -63.83 l
73.73 17.60 l
73.72 -87.66 l
73.73 30.18 l
73.72 -62.66 l
73.73 123.38 l
o
np
103.58 401.72 m
73.73 -23.07 l
73.72 -42.54 l
73.73 -17.41 l
73.72 -42.54 l
73.73 -35.03 l
73.72 7.17 l
73.73 31.33 l
73.72 -27.98 l
73.73 -68.32 l
o
np
103.58 407.36 m
73.73 -26.12 l
73.72 -21.29 l
73.73 -13.07 l
73.72 -41.96 l
73.73 -33.51 l
73.72 30.80 l
73.73 -58.21 l
73.72 -44.71 l
73.73 -9.04 l
o
np
103.58 421.22 m
73.73 -26.58 l
73.72 -14.52 l
73.73 -24.86 l
73.72 -44.34 l
73.73 -13.86 l
73.72 -23.38 l
73.73 -98.20 l
73.72 138.18 l
73.73 -117.88 l
o
np
103.58 417.03 m
73.73 -25.04 l
73.72 -26.73 l
73.73 -26.64 l
73.72 -47.15 l
73.73 40.30 l
73.72 -55.18 l
73.73 -34.28 l
73.72 -60.44 l
73.73 -14.91 l
o
np
103.58 400.65 m
73.73 -25.92 l
73.72 -25.16 l
73.73 -45.98 l
73.72 -17.46 l
73.73 -69.91 l
73.72 49.05 l
73.73 -35.97 l
73.72 -41.59 l
73.73 14.87 l
o
np
103.58 419.76 m
73.73 -30.01 l
73.72 -34.32 l
73.73 -37.80 l
73.72 4.32 l
73.73 -42.19 l
73.72 -51.10 l
73.73 92.52 l
73.72 -86.93 l
73.73 36.35 l
o
np
103.58 439.83 m
73.73 -4.43 l
73.72 -7.99 l
73.73 3.57 l
73.72 9.54 l
73.73 -14.12 l
73.72 -15.68 l
73.73 -33.20 l
73.72 87.59 l
73.73 -93.48 l
o
np
103.58 445.75 m
73.73 -0.82 l
73.72 -9.99 l
73.73 8.23 l
73.72 -28.12 l
73.73 42.18 l
73.72 -57.75 l
73.73 -8.22 l
73.72 -92.45 l
73.73 45.79 l
o
np
103.58 446.67 m
73.73 -3.52 l
73.72 3.10 l
73.73 0.27 l
73.72 33.66 l
73.73 13.14 l
73.72 -32.71 l
73.73 -83.60 l
73.72 -21.12 l
73.73 11.25 l
o
np
103.58 439.52 m
73.73 -4.07 l
73.72 4.27 l
73.73 -9.19 l
73.72 -7.11 l
73.73 9.33 l
73.72 -16.59 l
73.73 0.90 l
73.72 -71.10 l
73.73 156.47 l
o
np
103.58 431.63 m
73.73 0.95 l
73.72 -6.25 l
73.73 9.49 l
73.72 -33.32 l
73.73 -10.58 l
73.72 28.27 l
73.73 2.58 l
73.72 -9.64 l
73.73 -36.07 l
o
np
103.58 436.49 m
73.73 1.02 l
73.72 -8.03 l
73.73 3.34 l
73.72 25.21 l
73.73 -52.10 l
73.72 68.43 l
73.73 -107.11 l
73.72 -20.93 l
73.73 125.03 l
o
np
103.58 448.90 m
73.73 -2.76 l
73.72 16.34 l
73.73 -23.58 l
73.72 5.95 l
73.73 -14.66 l
73.72 -11.45 l
73.73 -3.83 l
73.72 34.96 l
73.73 -89.63 l
o
np
103.58 444.36 m
73.73 -3.60 l
73.72 8.90 l
73.73 -18.90 l
73.72 4.21 l
73.73 47.90 l
73.72 -51.42 l
73.73 -10.57 l
73.72 -25.81 l
73.73 49.14 l
o
np
103.58 432.02 m
73.73 -3.19 l
73.72 -6.18 l
73.73 -13.28 l
73.72 -2.64 l
73.73 -0.93 l
73.72 45.51 l
73.73 -41.34 l
73.72 -72.45 l
73.73 107.95 l
o
np
103.58 449.65 m
73.73 -9.46 l
73.72 14.10 l
73.73 -22.38 l
73.72 21.69 l
73.73 -21.90 l
73.72 -37.69 l
73.73 89.48 l
73.72 -91.45 l
73.73 46.05 l
o
0 0 1 srgb
0.75 setlinewidth
[ 2.25 3.75] 0 setdash
np
103.58 406.51 m
73.73 -26.26 l
73.72 -29.60 l
73.73 -33.77 l
73.72 -20.21 l
73.73 -28.19 l
73.72 -47.63 l
73.73 -6.47 l
73.72 -31.81 l
73.73 -64.84 l
o
np
103.58 413.92 m
73.73 -22.80 l
73.72 -29.73 l
73.73 -29.08 l
73.72 -31.61 l
73.73 -22.57 l
73.72 -63.58 l
73.73 -41.90 l
73.72 -11.60 l
73.73 24.67 l
o
np
103.58 415.12 m
73.73 -27.19 l
73.72 -29.03 l
73.73 -36.08 l
73.72 -19.65 l
73.73 -40.60 l
73.72 -17.87 l
73.73 -57.73 l
73.72 -39.01 l
73.73 15.87 l
o
np
103.58 407.29 m
73.73 -22.85 l
73.72 -28.33 l
73.73 -25.44 l
73.72 -31.49 l
73.73 -22.98 l
73.72 -17.07 l
73.73 -47.70 l
73.72 -3.53 l
73.73 -59.78 l
o
np
103.58 399.38 m
73.73 -23.50 l
73.72 -25.70 l
73.73 -31.22 l
73.72 -27.77 l
73.73 -22.90 l
73.72 -44.86 l
73.73 -29.51 l
73.72 -4.29 l
73.73 -65.20 l
o
np
103.58 406.22 m
73.73 -24.21 l
73.72 -30.56 l
73.73 -25.87 l
73.72 -36.65 l
73.73 -21.23 l
73.72 -46.65 l
73.73 -28.95 l
73.72 -12.16 l
73.73 -31.08 l
o
np
103.58 418.46 m
73.73 -23.41 l
73.72 -27.41 l
73.73 -25.73 l
73.72 -27.65 l
73.73 -31.41 l
73.72 -37.75 l
73.73 -20.01 l
73.72 -48.55 l
73.73 26.04 l
o
np
103.58 412.97 m
73.73 -25.12 l
73.72 -29.95 l
73.73 -32.35 l
73.72 -28.20 l
73.73 -22.73 l
73.72 -56.77 l
73.73 -13.80 l
73.72 -30.72 l
73.73 -35.53 l
o
np
103.58 398.93 m
73.73 -26.80 l
73.72 -28.92 l
73.73 -30.89 l
73.72 -32.00 l
73.73 -34.39 l
73.72 -28.73 l
73.73 -32.28 l
73.72 -45.16 l
73.73 -32.51 l
o
np
103.58 416.76 m
73.73 -27.89 l
73.72 -23.55 l
73.73 -35.69 l
73.72 -36.22 l
73.73 -21.47 l
73.72 -42.36 l
73.73 -19.16 l
73.72 -41.29 l
73.73 -3.53 l
o
np
103.58 445.64 m
73.73 -2.13 l
73.72 -0.99 l
73.73 -1.38 l
73.72 -3.40 l
73.73 12.21 l
73.72 -7.21 l
73.73 18.48 l
73.72 3.33 l
73.73 27.28 l
o
np
103.58 451.53 m
73.73 -4.74 l
73.72 -2.06 l
73.73 3.79 l
73.72 -6.91 l
73.73 15.64 l
73.72 -9.56 l
73.73 -5.89 l
73.72 12.75 l
73.73 25.09 l
o
np
103.58 452.21 m
73.73 -2.12 l
73.72 -3.31 l
73.73 -0.96 l
73.72 4.04 l
73.73 -0.95 l
73.72 14.04 l
73.73 -15.14 l
73.72 16.89 l
73.73 5.02 l
o
np
103.58 443.48 m
73.73 -3.79 l
73.72 0.46 l
73.73 -3.30 l
73.72 3.21 l
73.73 -5.94 l
73.72 27.79 l
73.73 -20.37 l
73.72 9.77 l
73.73 21.57 l
o
np
103.58 435.60 m
73.73 -2.22 l
73.72 -4.87 l
73.73 2.53 l
73.72 -4.52 l
73.73 -6.95 l
73.72 16.64 l
73.73 9.11 l
73.72 -12.25 l
73.73 -19.14 l
o
np
103.58 441.94 m
73.73 -3.24 l
73.72 0.24 l
73.73 -2.30 l
73.72 4.31 l
73.73 -3.50 l
73.72 3.29 l
73.73 -14.39 l
73.72 -19.69 l
73.73 40.10 l
o
np
103.58 454.21 m
73.73 -3.64 l
73.72 0.10 l
73.73 -1.11 l
73.72 12.26 l
73.73 -14.85 l
73.72 -10.38 l
73.73 10.29 l
73.72 21.53 l
73.73 4.74 l
o
np
103.58 449.31 m
73.73 -2.76 l
73.72 0.12 l
73.73 -6.47 l
73.72 10.85 l
73.73 1.84 l
73.72 3.43 l
73.73 7.83 l
73.72 -4.42 l
73.73 -55.07 l
o
np
103.58 436.45 m
73.73 -3.80 l
73.72 1.53 l
73.73 0.18 l
73.72 -2.75 l
73.73 11.02 l
73.72 -9.65 l
73.73 -16.86 l
73.72 -14.34 l
73.73 6.27 l
o
np
103.58 454.58 m
73.73 -6.39 l
73.72 3.76 l
73.73 -2.77 l
73.72 0.68 l
73.73 18.43 l
73.72 -10.85 l
73.73 -17.29 l
73.72 31.68 l
73.73 -10.98 l
o
ep
%%Trailer
%%Pages: 1
%%EOF
