%!PS-Adobe-3.0
%%DocumentNeededResources: font Helvetica
%%+ font Helvetica-Bold
%%+ font Helvetica-Oblique
%%+ font Helvetica-BoldOblique
%%+ font Symbol
%%DocumentMedia: a4 595 841 0 () ()
%%Title: R Graphics Output
%%Creator: R Software
%%Pages: (atend)
%%Orientation: Landscape
%%BoundingBox: 18 18 577 824
%%EndComments
%%BeginProlog
/bp  { gs sRGB 595.00 0 translate 90 rotate gs } def
% begin .ps.prolog
/gs  { gsave } bind def
/gr  { grestore } bind def
/ep  { showpage gr gr } bind def
/m   { moveto } bind def
/l  { rlineto } bind def
/np  { newpath } bind def
/cp  { closepath } bind def
/f   { fill } bind def
/o   { stroke } bind def
/c   { newpath 0 360 arc } bind def
/r   { 4 2 roll moveto 1 copy 3 -1 roll exch 0 exch rlineto 0 rlineto -1 mul 0 exch rlineto closepath } bind def
/p1  { stroke } bind def
/p2  { gsave bg fill grestore newpath } bind def
/p3  { gsave bg fill grestore stroke } bind def
/p6  { gsave bg eofill grestore newpath } bind def
/p7  { gsave bg eofill grestore stroke } bind def
/t   { 5 -2 roll moveto gsave rotate
       1 index stringwidth pop
       mul neg 0 rmoveto show grestore } bind def
/ta  { 4 -2 roll moveto gsave rotate show } bind def
/tb  { 2 -1 roll 0 rmoveto show } bind def
/cl  { grestore gsave newpath 3 index 3 index moveto 1 index
       4 -1 roll lineto  exch 1 index lineto lineto
       closepath clip newpath } bind def
/rgb { setrgbcolor } bind def
/s   { scalefont setfont } bind def
% end   .ps.prolog
/sRGB { [ /CIEBasedABC
          << /DecodeLMN
               [ { dup 0.03928 le
                        {12.92321 div}
                        {0.055 add 1.055 div 2.4 exp }
                     ifelse
                 } bind dup dup
               ]
             /MatrixLMN [0.412457 0.212673 0.019334
                         0.357576 0.715152 0.119192
                         0.180437 0.072175 0.950301]
             /WhitePoint [0.9505 1.0 1.0890]
           >>
         ] setcolorspace } bind def
/srgb { setcolor } bind def
%%IncludeResource: font Helvetica
/Helvetica findfont
dup length dict begin
  {1 index /FID ne {def} {pop pop} ifelse} forall
  /Encoding ISOLatin1Encoding def
  currentdict
  end
/Font1 exch definefont pop
%%IncludeResource: font Helvetica-Bold
/Helvetica-Bold findfont
dup length dict begin
  {1 index /FID ne {def} {pop pop} ifelse} forall
  /Encoding ISOLatin1Encoding def
  currentdict
  end
/Font2 exch definefont pop
%%IncludeResource: font Helvetica-Oblique
/Helvetica-Oblique findfont
dup length dict begin
  {1 index /FID ne {def} {pop pop} ifelse} forall
  /Encoding ISOLatin1Encoding def
  currentdict
  end
/Font3 exch definefont pop
%%IncludeResource: font Helvetica-BoldOblique
/Helvetica-BoldOblique findfont
dup length dict begin
  {1 index /FID ne {def} {pop pop} ifelse} forall
  /Encoding ISOLatin1Encoding def
  currentdict
  end
/Font4 exch definefont pop
%%IncludeResource: font Symbol
/Symbol findfont
dup length dict begin
  {1 index /FID ne {def} {pop pop} ifelse} forall
  currentdict
  end
/Font5 exch definefont pop
%%EndProlog
%%Page: 1 1
bp
77.04 91.44 793.65 518.24 cl
1 0 0 srgb
0.75 setlinewidth
[] 0 setdash
1 setlinecap
1 setlinejoin
10.00 setmiterlimit
np
103.58 387.57 m
73.73 -26.11 l
73.72 -25.11 l
73.73 -44.48 l
73.72 5.17 l
73.73 -44.24 l
73.72 12.89 l
73.73 -69.91 l
73.72 16.76 l
73.73 14.05 l
o
18.00 18.00 823.89 577.28 cl
0 0 0 srgb
0.75 setlinewidth
[] 0 setdash
1 setlinecap
1 setlinejoin
10.00 setmiterlimit
np
243.27 91.44 m
523.84 0 l
o
np
243.27 91.44 m
0 -7.20 l
o
np
417.88 91.44 m
0 -7.20 l
o
np
592.50 91.44 m
0 -7.20 l
o
np
767.11 91.44 m
0 -7.20 l
o
/Font1 findfont 12 s
243.27 65.52 (0.5) .5 0 t
417.88 65.52 (1.0) .5 0 t
592.50 65.52 (1.5) .5 0 t
767.11 65.52 (2.0) .5 0 t
np
77.04 92.25 m
0 374.91 l
o
np
77.04 92.25 m
-7.20 0 l
o
np
77.04 154.73 m
-7.20 0 l
o
np
77.04 217.22 m
-7.20 0 l
o
np
77.04 279.70 m
-7.20 0 l
o
np
77.04 342.19 m
-7.20 0 l
o
np
77.04 404.67 m
-7.20 0 l
o
np
77.04 467.16 m
-7.20 0 l
o
59.76 92.25 (-1.5) .5 90 t
59.76 154.73 (-1.0) .5 90 t
59.76 217.22 (-0.5) .5 90 t
59.76 279.70 (0.0) .5 90 t
59.76 342.19 (0.5) .5 90 t
59.76 404.67 (1.0) .5 90 t
59.76 467.16 (1.5) .5 90 t
np
77.04 91.44 m
716.61 0 l
0 426.80 l
-716.61 0 l
0 -426.80 l
o
18.00 18.00 823.89 577.28 cl
/Font5 findfont 12 s
0 0 0 srgb
432.38 36.95 (d) 0 0 t
28.28 299.32 (b) 0 90 t
/Font1 findfont 8 s
30.48 305.91 (2) 0 90 t
77.04 91.44 793.65 518.24 cl
1 0 0 srgb
0.75 setlinewidth
[] 0 setdash
1 setlinecap
1 setlinejoin
10.00 setmiterlimit
np
103.58 393.34 m
73.73 -27.82 l
73.72 -24.61 l
73.73 -25.93 l
73.72 -18.88 l
73.73 -13.49 l
73.72 -48.00 l
73.73 -56.47 l
73.72 -56.22 l
73.73 14.01 l
o
np
103.58 393.38 m
73.73 -28.08 l
73.72 -29.39 l
73.73 -7.77 l
73.72 -19.36 l
73.73 -34.07 l
73.72 -69.16 l
73.73 -8.78 l
73.72 0.94 l
73.73 -13.16 l
o
np
103.58 386.16 m
73.73 -25.34 l
73.72 -22.11 l
73.73 -39.14 l
73.72 -32.60 l
73.73 -17.38 l
73.72 -54.63 l
73.73 -8.42 l
73.72 -57.73 l
73.73 134.89 l
o
np
103.58 380.22 m
73.73 -28.04 l
73.72 -25.62 l
73.73 -26.41 l
73.72 -14.89 l
73.73 -25.51 l
73.72 -6.73 l
73.73 -52.41 l
73.72 27.96 l
73.73 -9.67 l
o
np
103.58 384.28 m
73.73 -18.58 l
73.72 -28.14 l
73.73 -27.76 l
73.72 -16.25 l
73.73 -16.12 l
73.72 -13.62 l
73.73 -33.41 l
73.72 -87.72 l
73.73 -11.47 l
o
np
103.58 394.37 m
73.73 -23.33 l
73.72 -13.33 l
73.73 -38.26 l
73.72 -46.43 l
73.73 22.16 l
73.72 -40.37 l
73.73 -53.36 l
73.72 129.70 l
73.73 -153.63 l
o
np
103.58 391.01 m
73.73 -24.46 l
73.72 -23.41 l
73.73 -21.89 l
73.72 -37.57 l
73.73 2.22 l
73.72 -40.83 l
73.73 27.31 l
73.72 -111.76 l
73.73 11.04 l
o
np
103.58 379.21 m
73.73 -23.59 l
73.72 -28.83 l
73.73 -50.76 l
73.72 -24.14 l
73.73 -9.41 l
73.72 -9.70 l
73.73 -6.94 l
73.72 -19.59 l
73.73 21.53 l
o
np
103.58 394.01 m
73.73 -26.69 l
73.72 -23.85 l
73.73 -31.92 l
73.72 -5.22 l
73.73 -37.07 l
73.72 -13.21 l
73.73 23.33 l
73.72 -64.56 l
73.73 33.52 l
o
np
103.58 413.95 m
73.73 1.41 l
73.72 -9.16 l
73.73 -16.44 l
73.72 25.09 l
73.73 -46.76 l
73.72 47.22 l
73.73 9.80 l
73.72 -21.58 l
73.73 -54.86 l
o
np
103.58 419.61 m
73.73 -0.17 l
73.72 -14.77 l
73.73 0.01 l
73.72 -17.59 l
73.73 37.77 l
73.72 -26.24 l
73.73 -29.99 l
73.72 -102.08 l
73.73 33.57 l
o
np
103.58 419.86 m
73.73 -2.12 l
73.72 0.68 l
73.73 16.32 l
73.72 -1.23 l
73.73 12.04 l
73.72 -83.11 l
73.73 -36.83 l
73.72 39.59 l
73.73 38.24 l
o
np
103.58 412.41 m
73.73 -2.24 l
73.72 -1.36 l
73.73 -5.03 l
73.72 -15.38 l
73.73 6.21 l
73.72 30.09 l
73.73 -28.80 l
73.72 -24.10 l
73.73 52.00 l
o
np
103.58 406.81 m
73.73 -0.04 l
73.72 -5.45 l
73.73 4.56 l
73.72 -25.65 l
73.73 20.93 l
73.72 -4.94 l
73.73 -53.12 l
73.72 51.29 l
73.73 -30.73 l
o
np
103.58 411.82 m
73.73 0.12 l
73.72 -7.35 l
73.73 -3.96 l
73.72 21.20 l
73.73 -16.54 l
73.72 -11.72 l
73.73 -48.13 l
73.72 -11.25 l
73.73 16.26 l
o
np
103.58 419.35 m
73.73 3.56 l
73.72 -1.09 l
73.73 -6.35 l
73.72 9.77 l
73.73 -1.37 l
73.72 -38.22 l
73.73 -1.74 l
73.72 86.48 l
73.73 -125.12 l
o
np
103.58 417.16 m
73.73 -3.93 l
73.72 6.51 l
73.73 -16.61 l
73.72 12.41 l
73.73 61.45 l
73.72 -83.94 l
73.73 51.94 l
73.72 -90.41 l
73.73 7.72 l
o
np
103.58 407.12 m
73.73 0.62 l
73.72 -13.74 l
73.73 -6.34 l
73.72 6.89 l
73.73 -18.81 l
73.72 45.07 l
73.73 -49.89 l
73.72 -24.23 l
73.73 30.25 l
o
np
103.58 421.91 m
73.73 -6.55 l
73.72 6.07 l
73.73 -14.93 l
73.72 26.74 l
73.73 23.09 l
73.72 -97.34 l
73.73 143.44 l
73.72 -107.76 l
73.73 36.90 l
o
0 0 1 srgb
0.75 setlinewidth
[ 2.25 3.75] 0 setdash
np
103.58 384.43 m
73.73 -25.47 l
73.72 -26.85 l
73.73 -33.57 l
73.72 -14.36 l
73.73 -28.00 l
73.72 -47.78 l
73.73 -1.63 l
73.72 -30.15 l
73.73 -61.35 l
o
np
103.58 390.28 m
73.73 -21.79 l
73.72 -28.34 l
73.73 -27.22 l
73.72 -28.00 l
73.73 -18.87 l
73.72 -60.76 l
73.73 -37.39 l
73.72 -12.91 l
73.73 16.01 l
o
np
103.58 392.15 m
73.73 -26.29 l
73.72 -28.40 l
73.73 -31.69 l
73.72 -22.25 l
73.73 -31.53 l
73.72 -22.32 l
73.73 -66.45 l
73.72 -20.02 l
73.73 21.28 l
o
np
103.58 384.30 m
73.73 -21.90 l
73.72 -26.35 l
73.73 -22.56 l
73.72 -29.91 l
73.73 -20.51 l
73.72 -13.62 l
73.73 -51.30 l
73.72 -20.50 l
73.73 -40.85 l
o
np
103.58 378.17 m
73.73 -22.62 l
73.72 -23.59 l
73.73 -30.70 l
73.72 -26.40 l
73.73 -32.00 l
73.72 -36.04 l
73.73 -21.41 l
73.72 -0.79 l
73.73 -62.78 l
o
np
103.58 383.60 m
73.73 -23.14 l
73.72 -29.10 l
73.73 -23.54 l
73.72 -33.62 l
73.73 -24.79 l
73.72 -34.90 l
73.73 -39.82 l
73.72 0.50 l
73.73 -34.08 l
o
np
103.58 392.99 m
73.73 -22.30 l
73.72 -25.71 l
73.73 -22.92 l
73.72 -25.71 l
73.73 -31.86 l
73.72 -29.99 l
73.73 -32.50 l
73.72 -29.46 l
73.73 26.37 l
o
np
103.58 389.83 m
73.73 -23.96 l
73.72 -28.47 l
73.73 -29.86 l
73.72 -26.44 l
73.73 -26.36 l
73.72 -50.32 l
73.73 -7.78 l
73.72 -25.48 l
73.73 -40.01 l
o
np
103.58 378.91 m
73.73 -26.30 l
73.72 -28.50 l
73.73 -29.46 l
73.72 -34.70 l
73.73 -27.28 l
73.72 -39.09 l
73.73 -25.07 l
73.72 -32.72 l
73.73 -28.54 l
o
np
103.58 392.90 m
73.73 -26.58 l
73.72 -22.54 l
73.73 -29.59 l
73.72 -41.60 l
73.73 -15.03 l
73.72 -38.82 l
73.73 -12.24 l
73.72 -42.20 l
73.73 6.09 l
o
np
103.58 418.43 m
73.73 -2.19 l
73.72 0.33 l
73.73 -0.30 l
73.72 -2.65 l
73.73 10.29 l
73.72 -3.68 l
73.73 13.82 l
73.72 3.74 l
73.73 26.37 l
o
np
103.58 422.11 m
73.73 -3.48 l
73.72 -1.24 l
73.73 0.01 l
73.72 -1.22 l
73.73 14.08 l
73.72 -13.75 l
73.73 -0.98 l
73.72 5.20 l
73.73 31.14 l
o
np
103.58 423.80 m
73.73 -1.11 l
73.72 -2.95 l
73.73 0.29 l
73.72 3.16 l
73.73 0.83 l
73.72 14.16 l
73.73 -45.04 l
73.72 53.13 l
73.73 -8.96 l
o
np
103.58 414.79 m
73.73 -3.03 l
73.72 1.57 l
73.73 -1.58 l
73.72 0.31 l
73.73 -4.53 l
73.72 26.35 l
73.73 -18.18 l
73.72 11.35 l
73.73 19.62 l
o
np
103.58 409.52 m
73.73 -1.35 l
73.72 -4.27 l
73.73 0.09 l
73.72 -1.30 l
73.73 -5.19 l
73.72 10.56 l
73.73 10.80 l
73.72 -6.39 l
73.73 -21.12 l
o
np
103.58 414.68 m
73.73 -2.81 l
73.72 0.86 l
73.73 -2.01 l
73.72 3.38 l
73.73 -4.96 l
73.72 5.88 l
73.73 -12.04 l
73.72 -14.54 l
73.73 33.84 l
o
np
103.58 422.32 m
73.73 -2.94 l
73.72 0.42 l
73.73 -0.18 l
73.72 11.99 l
73.73 -9.97 l
73.72 -13.57 l
73.73 4.72 l
73.72 23.63 l
73.73 2.35 l
o
np
103.58 420.92 m
73.73 -2.39 l
73.72 0.82 l
73.73 -6.40 l
73.72 9.48 l
73.73 5.23 l
73.72 3.22 l
73.73 7.18 l
73.72 -23.14 l
73.73 -23.79 l
o
np
103.58 411.97 m
73.73 -3.66 l
73.72 2.32 l
73.73 -0.24 l
73.72 -1.03 l
73.73 9.33 l
73.72 -9.66 l
73.73 -15.13 l
73.72 -8.68 l
73.73 -0.67 l
o
np
103.58 424.85 m
73.73 -5.25 l
73.72 4.39 l
73.73 -4.49 l
73.72 3.97 l
73.73 15.19 l
73.72 -5.19 l
73.73 -18.35 l
73.72 23.01 l
73.73 -5.47 l
o
ep
%%Trailer
%%Pages: 1
%%EOF
