%!PS-Adobe-3.0
%%DocumentNeededResources: font Helvetica
%%+ font Helvetica-Bold
%%+ font Helvetica-Oblique
%%+ font Helvetica-BoldOblique
%%+ font Symbol
%%DocumentMedia: a4 595 841 0 () ()
%%Title: R Graphics Output
%%Creator: R Software
%%Pages: (atend)
%%Orientation: Landscape
%%BoundingBox: 18 18 577 824
%%EndComments
%%BeginProlog
/bp  { gs sRGB 595.00 0 translate 90 rotate gs } def
% begin .ps.prolog
/gs  { gsave } bind def
/gr  { grestore } bind def
/ep  { showpage gr gr } bind def
/m   { moveto } bind def
/l  { rlineto } bind def
/np  { newpath } bind def
/cp  { closepath } bind def
/f   { fill } bind def
/o   { stroke } bind def
/c   { newpath 0 360 arc } bind def
/r   { 4 2 roll moveto 1 copy 3 -1 roll exch 0 exch rlineto 0 rlineto -1 mul 0 exch rlineto closepath } bind def
/p1  { stroke } bind def
/p2  { gsave bg fill grestore newpath } bind def
/p3  { gsave bg fill grestore stroke } bind def
/p6  { gsave bg eofill grestore newpath } bind def
/p7  { gsave bg eofill grestore stroke } bind def
/t   { 5 -2 roll moveto gsave rotate
       1 index stringwidth pop
       mul neg 0 rmoveto show grestore } bind def
/ta  { 4 -2 roll moveto gsave rotate show } bind def
/tb  { 2 -1 roll 0 rmoveto show } bind def
/cl  { grestore gsave newpath 3 index 3 index moveto 1 index
       4 -1 roll lineto  exch 1 index lineto lineto
       closepath clip newpath } bind def
/rgb { setrgbcolor } bind def
/s   { scalefont setfont } bind def
% end   .ps.prolog
/sRGB { [ /CIEBasedABC
          << /DecodeLMN
               [ { dup 0.03928 le
                        {12.92321 div}
                        {0.055 add 1.055 div 2.4 exp }
                     ifelse
                 } bind dup dup
               ]
             /MatrixLMN [0.412457 0.212673 0.019334
                         0.357576 0.715152 0.119192
                         0.180437 0.072175 0.950301]
             /WhitePoint [0.9505 1.0 1.0890]
           >>
         ] setcolorspace } bind def
/srgb { setcolor } bind def
%%IncludeResource: font Helvetica
/Helvetica findfont
dup length dict begin
  {1 index /FID ne {def} {pop pop} ifelse} forall
  /Encoding ISOLatin1Encoding def
  currentdict
  end
/Font1 exch definefont pop
%%IncludeResource: font Helvetica-Bold
/Helvetica-Bold findfont
dup length dict begin
  {1 index /FID ne {def} {pop pop} ifelse} forall
  /Encoding ISOLatin1Encoding def
  currentdict
  end
/Font2 exch definefont pop
%%IncludeResource: font Helvetica-Oblique
/Helvetica-Oblique findfont
dup length dict begin
  {1 index /FID ne {def} {pop pop} ifelse} forall
  /Encoding ISOLatin1Encoding def
  currentdict
  end
/Font3 exch definefont pop
%%IncludeResource: font Helvetica-BoldOblique
/Helvetica-BoldOblique findfont
dup length dict begin
  {1 index /FID ne {def} {pop pop} ifelse} forall
  /Encoding ISOLatin1Encoding def
  currentdict
  end
/Font4 exch definefont pop
%%IncludeResource: font Symbol
/Symbol findfont
dup length dict begin
  {1 index /FID ne {def} {pop pop} ifelse} forall
  currentdict
  end
/Font5 exch definefont pop
%%EndProlog
%%Page: 1 1
bp
77.04 91.44 793.65 518.24 cl
1 0 0 srgb
0.75 setlinewidth
[] 0 setdash
1 setlinecap
1 setlinejoin
10.00 setmiterlimit
np
103.58 395.97 m
73.73 -22.72 l
73.72 -29.09 l
73.73 -55.61 l
73.72 7.13 l
73.73 -54.24 l
73.72 -28.77 l
73.73 -19.80 l
73.72 12.61 l
73.73 -30.38 l
o
18.00 18.00 823.89 577.28 cl
0 0 0 srgb
0.75 setlinewidth
[] 0 setdash
1 setlinecap
1 setlinejoin
10.00 setmiterlimit
np
243.27 91.44 m
523.84 0 l
o
np
243.27 91.44 m
0 -7.20 l
o
np
417.88 91.44 m
0 -7.20 l
o
np
592.50 91.44 m
0 -7.20 l
o
np
767.11 91.44 m
0 -7.20 l
o
/Font1 findfont 12 s
243.27 65.52 (0.5) .5 0 t
417.88 65.52 (1.0) .5 0 t
592.50 65.52 (1.5) .5 0 t
767.11 65.52 (2.0) .5 0 t
np
77.04 92.21 m
0 386.11 l
o
np
77.04 92.21 m
-7.20 0 l
o
np
77.04 156.56 m
-7.20 0 l
o
np
77.04 220.91 m
-7.20 0 l
o
np
77.04 285.27 m
-7.20 0 l
o
np
77.04 349.62 m
-7.20 0 l
o
np
77.04 413.97 m
-7.20 0 l
o
np
77.04 478.32 m
-7.20 0 l
o
59.76 92.21 (-0.5) .5 90 t
59.76 156.56 (0.0) .5 90 t
59.76 220.91 (0.5) .5 90 t
59.76 285.27 (1.0) .5 90 t
59.76 349.62 (1.5) .5 90 t
59.76 413.97 (2.0) .5 90 t
59.76 478.32 (2.5) .5 90 t
np
77.04 91.44 m
716.61 0 l
0 426.80 l
-716.61 0 l
0 -426.80 l
o
18.00 18.00 823.89 577.28 cl
/Font5 findfont 12 s
0 0 0 srgb
432.38 36.95 (d) 0 0 t
28.28 299.32 (b) 0 90 t
/Font1 findfont 8 s
30.48 305.91 (2) 0 90 t
77.04 91.44 793.65 518.24 cl
1 0 0 srgb
0.75 setlinewidth
[] 0 setdash
1 setlinecap
1 setlinejoin
10.00 setmiterlimit
np
103.58 401.45 m
73.73 -27.84 l
73.72 -20.32 l
73.73 -36.54 l
73.72 -51.13 l
73.73 -10.22 l
73.72 -11.60 l
73.73 -45.18 l
73.72 -22.80 l
73.73 1.04 l
o
np
103.58 402.39 m
73.73 -27.87 l
73.72 -19.95 l
73.73 -33.88 l
73.72 -8.88 l
73.73 -13.67 l
73.72 -72.61 l
73.73 30.50 l
73.72 -53.89 l
73.73 -49.63 l
o
np
103.58 395.10 m
73.73 -24.63 l
73.72 -19.36 l
73.73 -40.42 l
73.72 -34.43 l
73.73 -26.99 l
73.72 -33.91 l
73.73 21.31 l
73.72 -83.91 l
73.73 71.18 l
o
np
103.58 387.37 m
73.73 -22.81 l
73.72 -36.39 l
73.73 -31.05 l
73.72 -54.90 l
73.73 45.11 l
73.72 -21.77 l
73.73 -42.26 l
73.72 -2.48 l
73.73 -11.76 l
o
np
103.58 392.73 m
73.73 -20.31 l
73.72 -23.38 l
73.73 -32.80 l
73.72 -7.53 l
73.73 -57.40 l
73.72 -4.39 l
73.73 -32.35 l
73.72 -81.16 l
73.73 91.20 l
o
np
103.58 403.38 m
73.73 -23.80 l
73.72 -19.09 l
73.73 -32.39 l
73.72 -63.91 l
73.73 13.50 l
73.72 -29.15 l
73.73 19.11 l
73.72 24.67 l
73.73 -138.75 l
o
np
103.58 399.89 m
73.73 -25.72 l
73.72 -32.11 l
73.73 -21.25 l
73.72 -16.32 l
73.73 -1.40 l
73.72 -5.68 l
73.73 -16.18 l
73.72 -61.55 l
73.73 -88.19 l
o
np
103.58 388.32 m
73.73 -24.60 l
73.72 -25.21 l
73.73 -44.58 l
73.72 -35.00 l
73.73 -25.74 l
73.72 -47.87 l
73.73 12.66 l
73.72 -12.21 l
73.73 60.73 l
o
np
103.58 403.37 m
73.73 -28.99 l
73.72 -30.15 l
73.73 -16.69 l
73.72 -34.77 l
73.73 -27.16 l
73.72 -55.34 l
73.73 105.02 l
73.72 -87.92 l
73.73 -34.77 l
o
np
103.58 424.67 m
73.73 -0.85 l
73.72 -9.05 l
73.73 -0.14 l
73.72 15.75 l
73.73 -29.63 l
73.72 -25.53 l
73.73 -28.66 l
73.72 118.38 l
73.73 -156.69 l
o
np
103.58 428.81 m
73.73 3.01 l
73.72 -1.18 l
73.73 -18.78 l
73.72 -23.27 l
73.73 26.10 l
73.72 -9.79 l
73.73 -51.63 l
73.72 -65.51 l
73.73 0.31 l
o
np
103.58 432.11 m
73.73 -10.44 l
73.72 17.74 l
73.73 -3.45 l
73.72 -5.48 l
73.73 47.46 l
73.72 -46.69 l
73.73 -29.41 l
73.72 10.43 l
73.73 -3.66 l
o
np
103.58 422.22 m
73.73 -5.36 l
73.72 1.87 l
73.73 -19.83 l
73.72 -10.87 l
73.73 43.90 l
73.72 -10.12 l
73.73 11.31 l
73.72 -51.79 l
73.73 73.61 l
o
np
103.58 416.56 m
73.73 -3.61 l
73.72 1.19 l
73.73 10.87 l
73.72 -45.18 l
73.73 59.76 l
73.72 -29.41 l
73.73 16.92 l
73.72 -43.53 l
73.73 -6.02 l
o
np
103.58 420.13 m
73.73 7.23 l
73.72 -15.34 l
73.73 -9.28 l
73.72 46.10 l
73.73 -25.87 l
73.72 -1.00 l
73.73 -29.24 l
73.72 -49.06 l
73.73 55.65 l
o
np
103.58 430.16 m
73.73 -3.36 l
73.72 9.56 l
73.73 -12.58 l
73.72 9.09 l
73.73 2.60 l
73.72 -42.31 l
73.73 42.16 l
73.72 67.11 l
73.73 -176.32 l
o
np
103.58 426.98 m
73.73 -5.68 l
73.72 2.40 l
73.73 2.54 l
73.72 -1.57 l
73.73 46.12 l
73.72 -23.41 l
73.73 -42.27 l
73.72 -21.47 l
73.73 87.12 l
o
np
103.58 417.72 m
73.73 -5.42 l
73.72 1.64 l
73.73 -16.43 l
73.72 -11.76 l
73.73 -16.62 l
73.72 33.17 l
73.73 -37.77 l
73.72 -8.01 l
73.73 102.64 l
o
np
103.58 432.69 m
73.73 -4.33 l
73.72 0.60 l
73.73 17.28 l
73.72 -21.73 l
73.73 5.33 l
73.72 -40.62 l
73.73 53.77 l
73.72 5.68 l
73.73 -107.41 l
o
0 0 1 srgb
0.75 setlinewidth
[ 2.25 3.75] 0 setdash
np
103.58 393.12 m
73.73 -26.25 l
73.72 -27.66 l
73.73 -34.61 l
73.72 -14.81 l
73.73 -28.90 l
73.72 -49.38 l
73.73 -1.54 l
73.72 -31.16 l
73.73 -63.29 l
o
np
103.58 399.14 m
73.73 -22.45 l
73.72 -29.21 l
73.73 -28.07 l
73.72 -28.85 l
73.73 -19.49 l
73.72 -62.56 l
73.73 -38.61 l
73.72 -13.35 l
73.73 16.33 l
o
np
103.58 401.06 m
73.73 -27.08 l
73.72 -29.28 l
73.73 -32.64 l
73.72 -22.97 l
73.73 -32.47 l
73.72 -23.11 l
73.73 -68.61 l
73.72 -20.53 l
73.73 21.83 l
o
np
103.58 392.98 m
73.73 -22.56 l
73.72 -27.15 l
73.73 -23.25 l
73.72 -30.84 l
73.73 -21.13 l
73.72 -14.12 l
73.73 -53.00 l
73.72 -21.21 l
73.73 -42.03 l
o
np
103.58 386.67 m
73.73 -23.31 l
73.72 -24.31 l
73.73 -31.65 l
73.72 -27.22 l
73.73 -33.04 l
73.72 -37.18 l
73.73 -22.09 l
73.72 -0.74 l
73.73 -64.75 l
o
np
103.58 392.26 m
73.73 -23.84 l
73.72 -29.99 l
73.73 -24.28 l
73.72 -34.61 l
73.73 -25.63 l
73.72 -35.90 l
73.73 -41.18 l
73.72 0.51 l
73.73 -35.28 l
o
np
103.58 401.93 m
73.73 -22.98 l
73.72 -26.49 l
73.73 -23.62 l
73.72 -26.52 l
73.73 -32.94 l
73.72 -30.83 l
73.73 -33.71 l
73.72 -30.26 l
73.73 27.30 l
o
np
103.58 398.68 m
73.73 -24.69 l
73.72 -29.35 l
73.73 -30.77 l
73.72 -27.26 l
73.73 -27.25 l
73.72 -51.77 l
73.73 -8.13 l
73.72 -26.21 l
73.73 -41.31 l
o
np
103.58 387.43 m
73.73 -27.10 l
73.72 -29.38 l
73.73 -30.35 l
73.72 -35.76 l
73.73 -28.18 l
73.72 -40.29 l
73.73 -25.94 l
73.72 -33.77 l
73.73 -29.41 l
o
np
103.58 401.83 m
73.73 -27.37 l
73.72 -23.24 l
73.73 -30.48 l
73.72 -42.87 l
73.73 -15.50 l
73.72 -40.10 l
73.73 -12.76 l
73.72 -43.44 l
73.73 6.24 l
o
np
103.58 428.12 m
73.73 -2.26 l
73.72 0.33 l
73.73 -0.36 l
73.72 -2.74 l
73.73 10.54 l
73.72 -3.82 l
73.73 14.10 l
73.72 3.84 l
73.73 26.81 l
o
np
103.58 431.92 m
73.73 -3.59 l
73.72 -1.30 l
73.73 -0.01 l
73.72 -1.33 l
73.73 14.44 l
73.72 -14.12 l
73.73 -1.05 l
73.72 4.99 l
73.73 32.09 l
o
np
103.58 433.66 m
73.73 -1.15 l
73.72 -3.08 l
73.73 0.30 l
73.72 3.21 l
73.73 0.79 l
73.72 14.49 l
73.73 -46.69 l
73.72 55.00 l
73.73 -9.34 l
o
np
103.58 424.38 m
73.73 -3.12 l
73.72 1.60 l
73.73 -1.65 l
73.72 0.25 l
73.73 -4.70 l
73.72 27.06 l
73.73 -18.65 l
73.72 11.68 l
73.73 19.89 l
o
np
103.58 418.95 m
73.73 -1.39 l
73.72 -4.42 l
73.73 0.05 l
73.72 -1.38 l
73.73 -5.36 l
73.72 10.82 l
73.73 11.05 l
73.72 -6.53 l
73.73 -21.74 l
o
np
103.58 424.27 m
73.73 -2.91 l
73.72 0.85 l
73.73 -2.07 l
73.72 3.47 l
73.73 -5.21 l
73.72 6.09 l
73.73 -12.63 l
73.72 -14.90 l
73.73 34.46 l
o
np
103.58 432.14 m
73.73 -3.04 l
73.72 0.41 l
73.73 -0.22 l
73.72 12.31 l
73.73 -10.27 l
73.72 -14.01 l
73.73 4.64 l
73.72 24.41 l
73.73 2.27 l
o
np
103.58 430.70 m
73.73 -2.48 l
73.72 0.83 l
73.73 -6.63 l
73.72 9.73 l
73.73 5.40 l
73.72 3.19 l
73.73 7.39 l
73.72 -23.88 l
73.73 -24.55 l
o
np
103.58 421.48 m
73.73 -3.79 l
73.72 2.37 l
73.73 -0.28 l
73.72 -1.06 l
73.73 9.52 l
73.72 -9.97 l
73.73 -15.67 l
73.72 -8.87 l
73.73 -0.86 l
o
np
103.58 434.75 m
73.73 -5.43 l
73.72 4.50 l
73.73 -4.65 l
73.72 4.06 l
73.73 15.54 l
73.72 -5.33 l
73.73 -18.83 l
73.72 23.39 l
73.73 -5.77 l
o
ep
%%Trailer
%%Pages: 1
%%EOF
