%!PS-Adobe-3.0
%%DocumentNeededResources: font Helvetica
%%+ font Helvetica-Bold
%%+ font Helvetica-Oblique
%%+ font Helvetica-BoldOblique
%%+ font Symbol
%%DocumentMedia: a4 595 841 0 () ()
%%Title: R Graphics Output
%%Creator: R Software
%%Pages: (atend)
%%Orientation: Landscape
%%BoundingBox: 18 18 577 824
%%EndComments
%%BeginProlog
/bp  { gs sRGB 595.00 0 translate 90 rotate gs } def
% begin .ps.prolog
/gs  { gsave } bind def
/gr  { grestore } bind def
/ep  { showpage gr gr } bind def
/m   { moveto } bind def
/l  { rlineto } bind def
/np  { newpath } bind def
/cp  { closepath } bind def
/f   { fill } bind def
/o   { stroke } bind def
/c   { newpath 0 360 arc } bind def
/r   { 4 2 roll moveto 1 copy 3 -1 roll exch 0 exch rlineto 0 rlineto -1 mul 0 exch rlineto closepath } bind def
/p1  { stroke } bind def
/p2  { gsave bg fill grestore newpath } bind def
/p3  { gsave bg fill grestore stroke } bind def
/p6  { gsave bg eofill grestore newpath } bind def
/p7  { gsave bg eofill grestore stroke } bind def
/t   { 5 -2 roll moveto gsave rotate
       1 index stringwidth pop
       mul neg 0 rmoveto show grestore } bind def
/ta  { 4 -2 roll moveto gsave rotate show } bind def
/tb  { 2 -1 roll 0 rmoveto show } bind def
/cl  { grestore gsave newpath 3 index 3 index moveto 1 index
       4 -1 roll lineto  exch 1 index lineto lineto
       closepath clip newpath } bind def
/rgb { setrgbcolor } bind def
/s   { scalefont setfont } bind def
% end   .ps.prolog
/sRGB { [ /CIEBasedABC
          << /DecodeLMN
               [ { dup 0.03928 le
                        {12.92321 div}
                        {0.055 add 1.055 div 2.4 exp }
                     ifelse
                 } bind dup dup
               ]
             /MatrixLMN [0.412457 0.212673 0.019334
                         0.357576 0.715152 0.119192
                         0.180437 0.072175 0.950301]
             /WhitePoint [0.9505 1.0 1.0890]
           >>
         ] setcolorspace } bind def
/srgb { setcolor } bind def
%%IncludeResource: font Helvetica
/Helvetica findfont
dup length dict begin
  {1 index /FID ne {def} {pop pop} ifelse} forall
  /Encoding ISOLatin1Encoding def
  currentdict
  end
/Font1 exch definefont pop
%%IncludeResource: font Helvetica-Bold
/Helvetica-Bold findfont
dup length dict begin
  {1 index /FID ne {def} {pop pop} ifelse} forall
  /Encoding ISOLatin1Encoding def
  currentdict
  end
/Font2 exch definefont pop
%%IncludeResource: font Helvetica-Oblique
/Helvetica-Oblique findfont
dup length dict begin
  {1 index /FID ne {def} {pop pop} ifelse} forall
  /Encoding ISOLatin1Encoding def
  currentdict
  end
/Font3 exch definefont pop
%%IncludeResource: font Helvetica-BoldOblique
/Helvetica-BoldOblique findfont
dup length dict begin
  {1 index /FID ne {def} {pop pop} ifelse} forall
  /Encoding ISOLatin1Encoding def
  currentdict
  end
/Font4 exch definefont pop
%%IncludeResource: font Symbol
/Symbol findfont
dup length dict begin
  {1 index /FID ne {def} {pop pop} ifelse} forall
  currentdict
  end
/Font5 exch definefont pop
%%EndProlog
%%Page: 1 1
bp
77.04 91.44 793.65 518.24 cl
1 0 0 srgb
0.75 setlinewidth
[] 0 setdash
1 setlinecap
1 setlinejoin
10.00 setmiterlimit
np
103.58 387.54 m
73.73 -25.72 l
73.72 -27.60 l
73.73 -59.31 l
73.72 12.30 l
73.73 -36.94 l
73.72 -8.14 l
73.73 -59.81 l
73.72 13.54 l
73.73 8.39 l
o
18.00 18.00 823.89 577.28 cl
0 0 0 srgb
0.75 setlinewidth
[] 0 setdash
1 setlinecap
1 setlinejoin
10.00 setmiterlimit
np
243.27 91.44 m
523.84 0 l
o
np
243.27 91.44 m
0 -7.20 l
o
np
417.88 91.44 m
0 -7.20 l
o
np
592.50 91.44 m
0 -7.20 l
o
np
767.11 91.44 m
0 -7.20 l
o
/Font1 findfont 12 s
243.27 65.52 (0.5) .5 0 t
417.88 65.52 (1.0) .5 0 t
592.50 65.52 (1.5) .5 0 t
767.11 65.52 (2.0) .5 0 t
np
77.04 153.40 m
0 314.05 l
o
np
77.04 153.40 m
-7.20 0 l
o
np
77.04 216.21 m
-7.20 0 l
o
np
77.04 279.02 m
-7.20 0 l
o
np
77.04 341.83 m
-7.20 0 l
o
np
77.04 404.64 m
-7.20 0 l
o
np
77.04 467.45 m
-7.20 0 l
o
59.76 153.40 (0.0) .5 90 t
59.76 216.21 (0.5) .5 90 t
59.76 279.02 (1.0) .5 90 t
59.76 341.83 (1.5) .5 90 t
59.76 404.64 (2.0) .5 90 t
59.76 467.45 (2.5) .5 90 t
np
77.04 91.44 m
716.61 0 l
0 426.80 l
-716.61 0 l
0 -426.80 l
o
18.00 18.00 823.89 577.28 cl
/Font5 findfont 12 s
0 0 0 srgb
432.38 36.95 (d) 0 0 t
28.28 299.32 (b) 0 90 t
/Font1 findfont 8 s
30.48 305.91 (2) 0 90 t
77.04 91.44 793.65 518.24 cl
1 0 0 srgb
0.75 setlinewidth
[] 0 setdash
1 setlinecap
1 setlinejoin
10.00 setmiterlimit
np
103.58 387.79 m
73.73 -25.59 l
73.72 -19.08 l
73.73 -58.36 l
73.72 5.29 l
73.73 -25.21 l
73.72 -18.14 l
73.73 -53.41 l
73.72 -30.12 l
73.73 -1.94 l
o
np
103.58 388.65 m
73.73 -28.67 l
73.72 -25.37 l
73.73 -37.92 l
73.72 25.71 l
73.73 -45.34 l
73.72 -57.35 l
73.73 36.79 l
73.72 -39.02 l
73.73 -59.68 l
o
np
103.58 384.52 m
73.73 -23.89 l
73.72 -14.33 l
73.73 -37.49 l
73.72 -57.84 l
73.73 14.40 l
73.72 -57.78 l
73.73 -1.18 l
73.72 -50.04 l
73.73 85.48 l
o
np
103.58 382.60 m
73.73 -24.39 l
73.72 -48.24 l
73.73 -18.88 l
73.72 -26.76 l
73.73 10.99 l
73.72 -56.87 l
73.73 27.84 l
73.72 4.65 l
73.73 -63.05 l
o
np
103.58 383.99 m
73.73 -25.03 l
73.72 -21.49 l
73.73 -20.11 l
73.72 -23.23 l
73.73 -23.69 l
73.72 -5.29 l
73.73 -22.84 l
73.72 -104.63 l
73.73 15.73 l
o
np
103.58 387.73 m
73.73 -20.40 l
73.72 -17.09 l
73.73 -25.42 l
73.72 -35.21 l
73.73 -39.17 l
73.72 -31.93 l
73.73 0.09 l
73.72 84.43 l
73.73 -104.90 l
o
np
103.58 387.61 m
73.73 -23.95 l
73.72 -20.01 l
73.73 -36.83 l
73.72 -0.18 l
73.73 5.55 l
73.72 -43.18 l
73.73 -21.33 l
73.72 -27.20 l
73.73 -32.90 l
o
np
103.58 383.06 m
73.73 -27.49 l
73.72 -28.04 l
73.73 -36.91 l
73.72 -19.94 l
73.73 -39.20 l
73.72 -32.83 l
73.73 15.58 l
73.72 -18.69 l
73.73 -6.46 l
o
np
103.58 388.90 m
73.73 -27.02 l
73.72 -33.79 l
73.73 -18.10 l
73.72 3.71 l
73.73 -62.54 l
73.72 12.44 l
73.73 26.73 l
73.72 -37.60 l
73.73 -22.51 l
o
np
103.58 413.96 m
73.73 -1.23 l
73.72 -15.64 l
73.73 -6.70 l
73.72 15.23 l
73.73 -47.26 l
73.72 0.95 l
73.73 -43.45 l
73.72 148.79 l
73.73 -75.64 l
o
np
103.58 414.24 m
73.73 -2.83 l
73.72 -13.09 l
73.73 -3.32 l
73.72 20.65 l
73.73 23.92 l
73.72 -58.38 l
73.73 -16.93 l
73.72 -30.51 l
73.73 8.23 l
o
np
103.58 417.13 m
73.73 -3.29 l
73.72 -2.03 l
73.73 5.67 l
73.72 -10.87 l
73.73 13.24 l
73.72 -20.02 l
73.73 -29.87 l
73.72 51.17 l
73.73 -20.75 l
o
np
103.58 412.29 m
73.73 -6.41 l
73.72 4.80 l
73.73 -7.49 l
73.72 -32.12 l
73.73 23.25 l
73.72 54.35 l
73.73 -71.85 l
73.72 29.83 l
73.73 -1.38 l
o
np
103.58 411.62 m
73.73 -1.66 l
73.72 0.06 l
73.73 16.70 l
73.72 -45.79 l
73.73 16.01 l
73.72 32.26 l
73.73 -3.36 l
73.72 -18.18 l
73.73 -87.36 l
o
np
103.58 411.75 m
73.73 -1.02 l
73.72 -5.25 l
73.73 7.03 l
73.72 32.46 l
73.73 -48.86 l
73.72 2.35 l
73.73 -53.27 l
73.72 5.15 l
73.73 3.07 l
o
np
103.58 411.89 m
73.73 -2.61 l
73.72 5.01 l
73.73 -3.01 l
73.72 -4.63 l
73.73 2.50 l
73.72 -37.71 l
73.73 28.29 l
73.72 58.14 l
73.73 -143.08 l
o
np
103.58 413.61 m
73.73 -6.77 l
73.72 10.76 l
73.73 -0.43 l
73.72 31.48 l
73.73 -9.27 l
73.72 12.63 l
73.73 -18.94 l
73.72 -106.89 l
73.73 37.71 l
o
np
103.58 414.27 m
73.73 -2.71 l
73.72 -7.28 l
73.73 3.56 l
73.72 -34.91 l
73.73 2.78 l
73.72 9.02 l
73.73 -50.88 l
73.72 74.62 l
73.73 8.49 l
o
np
103.58 414.86 m
73.73 -4.39 l
73.72 2.72 l
73.73 -17.05 l
73.72 19.51 l
73.73 -10.77 l
73.72 -19.04 l
73.73 86.96 l
73.72 -94.98 l
73.73 -22.65 l
o
0 0 1 srgb
0.75 setlinewidth
[ 2.25 3.75] 0 setdash
np
103.58 390.83 m
73.73 -29.49 l
73.72 -21.92 l
73.73 -44.49 l
73.72 -5.41 l
73.73 -65.62 l
73.72 -16.34 l
73.73 14.18 l
73.72 17.82 l
73.73 -111.87 l
o
np
103.58 391.88 m
73.73 -25.23 l
73.72 -30.40 l
73.73 -24.91 l
73.72 -30.92 l
73.73 -25.25 l
73.72 -39.14 l
73.73 -18.84 l
73.72 -32.38 l
73.73 -27.87 l
o
np
103.58 393.46 m
73.73 -30.29 l
73.72 -26.22 l
73.73 -21.67 l
73.72 -48.73 l
73.73 3.18 l
73.72 -52.65 l
73.73 -68.88 l
73.72 49.33 l
73.73 27.05 l
o
np
103.58 389.42 m
73.73 -26.27 l
73.72 -24.64 l
73.73 -24.33 l
73.72 -40.32 l
73.73 -16.30 l
73.72 4.67 l
73.73 -25.78 l
73.72 -74.07 l
73.73 -20.17 l
o
np
103.58 388.02 m
73.73 -28.04 l
73.72 -24.30 l
73.73 -22.41 l
73.72 -24.03 l
73.73 -30.27 l
73.72 -50.14 l
73.73 -57.55 l
73.72 45.25 l
73.73 -65.41 l
o
np
103.58 389.36 m
73.73 -24.74 l
73.72 -34.06 l
73.73 -18.52 l
73.72 -41.33 l
73.73 -6.24 l
73.72 -27.64 l
73.73 -55.11 l
73.72 18.35 l
73.73 -78.88 l
o
np
103.58 391.85 m
73.73 -22.14 l
73.72 -23.74 l
73.73 -31.18 l
73.72 -14.93 l
73.73 -38.25 l
73.72 -28.87 l
73.73 -27.01 l
73.72 12.88 l
73.73 -38.55 l
o
np
103.58 392.03 m
73.73 -26.86 l
73.72 -27.62 l
73.73 -41.88 l
73.72 -10.95 l
73.73 -33.43 l
73.72 -23.09 l
73.73 -90.59 l
73.72 77.61 l
73.73 -48.32 l
o
np
103.58 389.48 m
73.73 -32.62 l
73.72 -25.53 l
73.73 -49.32 l
73.72 -16.43 l
73.73 -74.60 l
73.72 -55.70 l
73.73 90.24 l
73.72 -60.11 l
73.73 -58.16 l
o
np
103.58 393.59 m
73.73 -27.77 l
73.72 -24.42 l
73.73 -23.16 l
73.72 -48.63 l
73.73 -38.24 l
73.72 39.20 l
73.73 -28.62 l
73.72 -17.12 l
73.73 -26.50 l
o
np
103.58 409.37 m
73.73 -1.52 l
73.72 4.40 l
73.73 9.48 l
73.72 -15.54 l
73.73 -3.26 l
73.72 -1.51 l
73.73 23.42 l
73.72 50.53 l
73.73 -101.87 l
o
np
103.58 409.44 m
73.73 0.08 l
73.72 0.86 l
73.73 5.18 l
73.72 -7.25 l
73.73 1.85 l
73.72 -8.64 l
73.73 8.67 l
73.72 -19.28 l
73.73 111.52 l
o
np
103.58 410.87 m
73.73 0.47 l
73.72 -0.11 l
73.73 13.05 l
73.72 5.94 l
73.73 -3.06 l
73.72 -1.36 l
73.73 -31.09 l
73.72 62.80 l
73.73 -32.52 l
o
np
103.58 405.83 m
73.73 -0.15 l
73.72 4.98 l
73.73 -5.81 l
73.72 -0.41 l
73.73 14.46 l
73.72 44.69 l
73.73 -53.00 l
73.72 20.13 l
73.73 -6.68 l
o
np
103.58 406.19 m
73.73 4.08 l
73.72 -8.12 l
73.73 1.14 l
73.72 0.03 l
73.73 -17.68 l
73.72 2.58 l
73.73 26.37 l
73.72 -23.83 l
73.73 34.50 l
o
np
103.58 407.07 m
73.73 0.70 l
73.72 0.21 l
73.73 -1.88 l
73.72 -2.12 l
73.73 5.88 l
73.72 -5.14 l
73.73 39.18 l
73.72 -38.69 l
73.73 -10.26 l
o
np
103.58 406.95 m
73.73 1.34 l
73.72 -0.22 l
73.73 -1.98 l
73.72 5.02 l
73.73 -8.03 l
73.72 9.50 l
73.73 -36.82 l
73.72 35.43 l
73.73 -45.84 l
o
np
103.58 409.62 m
73.73 0.83 l
73.72 3.52 l
73.73 -8.52 l
73.72 2.09 l
73.73 5.45 l
73.72 2.52 l
73.73 52.20 l
73.72 -65.09 l
73.73 10.57 l
o
np
103.58 409.67 m
73.73 -4.91 l
73.72 10.66 l
73.73 6.89 l
73.72 -8.09 l
73.73 40.15 l
73.72 -71.01 l
73.73 31.38 l
73.72 -40.81 l
73.73 28.23 l
o
np
103.58 410.18 m
73.73 -2.36 l
73.72 7.87 l
73.73 -8.03 l
73.72 37.08 l
73.73 -25.20 l
73.72 25.75 l
73.73 -27.34 l
73.72 8.93 l
73.73 -12.59 l
o
ep
%%Trailer
%%Pages: 1
%%EOF
