%!PS-Adobe-3.0
%%DocumentNeededResources: font Helvetica
%%+ font Helvetica-Bold
%%+ font Helvetica-Oblique
%%+ font Helvetica-BoldOblique
%%+ font Symbol
%%DocumentMedia: a4 595 841 0 () ()
%%Title: R Graphics Output
%%Creator: R Software
%%Pages: (atend)
%%Orientation: Landscape
%%BoundingBox: 18 18 577 824
%%EndComments
%%BeginProlog
/bp  { gs sRGB 595.00 0 translate 90 rotate gs } def
% begin .ps.prolog
/gs  { gsave } bind def
/gr  { grestore } bind def
/ep  { showpage gr gr } bind def
/m   { moveto } bind def
/l  { rlineto } bind def
/np  { newpath } bind def
/cp  { closepath } bind def
/f   { fill } bind def
/o   { stroke } bind def
/c   { newpath 0 360 arc } bind def
/r   { 4 2 roll moveto 1 copy 3 -1 roll exch 0 exch rlineto 0 rlineto -1 mul 0 exch rlineto closepath } bind def
/p1  { stroke } bind def
/p2  { gsave bg fill grestore newpath } bind def
/p3  { gsave bg fill grestore stroke } bind def
/p6  { gsave bg eofill grestore newpath } bind def
/p7  { gsave bg eofill grestore stroke } bind def
/t   { 5 -2 roll moveto gsave rotate
       1 index stringwidth pop
       mul neg 0 rmoveto show grestore } bind def
/ta  { 4 -2 roll moveto gsave rotate show } bind def
/tb  { 2 -1 roll 0 rmoveto show } bind def
/cl  { grestore gsave newpath 3 index 3 index moveto 1 index
       4 -1 roll lineto  exch 1 index lineto lineto
       closepath clip newpath } bind def
/rgb { setrgbcolor } bind def
/s   { scalefont setfont } bind def
% end   .ps.prolog
/sRGB { [ /CIEBasedABC
          << /DecodeLMN
               [ { dup 0.03928 le
                        {12.92321 div}
                        {0.055 add 1.055 div 2.4 exp }
                     ifelse
                 } bind dup dup
               ]
             /MatrixLMN [0.412457 0.212673 0.019334
                         0.357576 0.715152 0.119192
                         0.180437 0.072175 0.950301]
             /WhitePoint [0.9505 1.0 1.0890]
           >>
         ] setcolorspace } bind def
/srgb { setcolor } bind def
%%IncludeResource: font Helvetica
/Helvetica findfont
dup length dict begin
  {1 index /FID ne {def} {pop pop} ifelse} forall
  /Encoding ISOLatin1Encoding def
  currentdict
  end
/Font1 exch definefont pop
%%IncludeResource: font Helvetica-Bold
/Helvetica-Bold findfont
dup length dict begin
  {1 index /FID ne {def} {pop pop} ifelse} forall
  /Encoding ISOLatin1Encoding def
  currentdict
  end
/Font2 exch definefont pop
%%IncludeResource: font Helvetica-Oblique
/Helvetica-Oblique findfont
dup length dict begin
  {1 index /FID ne {def} {pop pop} ifelse} forall
  /Encoding ISOLatin1Encoding def
  currentdict
  end
/Font3 exch definefont pop
%%IncludeResource: font Helvetica-BoldOblique
/Helvetica-BoldOblique findfont
dup length dict begin
  {1 index /FID ne {def} {pop pop} ifelse} forall
  /Encoding ISOLatin1Encoding def
  currentdict
  end
/Font4 exch definefont pop
%%IncludeResource: font Symbol
/Symbol findfont
dup length dict begin
  {1 index /FID ne {def} {pop pop} ifelse} forall
  currentdict
  end
/Font5 exch definefont pop
%%EndProlog
%%Page: 1 1
bp
77.04 91.44 793.65 518.24 cl
1 0 0 srgb
0.75 setlinewidth
[] 0 setdash
1 setlinecap
1 setlinejoin
10.00 setmiterlimit
np
103.58 385.57 m
73.73 -20.21 l
73.72 -31.53 l
73.73 -44.65 l
73.72 -3.61 l
73.73 -33.82 l
73.72 -37.84 l
73.73 -33.30 l
73.72 -10.54 l
73.73 -23.94 l
o
18.00 18.00 823.89 577.28 cl
0 0 0 srgb
0.75 setlinewidth
[] 0 setdash
1 setlinecap
1 setlinejoin
10.00 setmiterlimit
np
243.27 91.44 m
523.84 0 l
o
np
243.27 91.44 m
0 -7.20 l
o
np
417.88 91.44 m
0 -7.20 l
o
np
592.50 91.44 m
0 -7.20 l
o
np
767.11 91.44 m
0 -7.20 l
o
/Font1 findfont 12 s
243.27 65.52 (0.5) .5 0 t
417.88 65.52 (1.0) .5 0 t
592.50 65.52 (1.5) .5 0 t
767.11 65.52 (2.0) .5 0 t
np
77.04 152.97 m
0 314.02 l
o
np
77.04 152.97 m
-7.20 0 l
o
np
77.04 215.77 m
-7.20 0 l
o
np
77.04 278.58 m
-7.20 0 l
o
np
77.04 341.38 m
-7.20 0 l
o
np
77.04 404.19 m
-7.20 0 l
o
np
77.04 466.99 m
-7.20 0 l
o
59.76 152.97 (-1.0) .5 90 t
59.76 215.77 (-0.5) .5 90 t
59.76 278.58 (0.0) .5 90 t
59.76 341.38 (0.5) .5 90 t
59.76 404.19 (1.0) .5 90 t
59.76 466.99 (1.5) .5 90 t
np
77.04 91.44 m
716.61 0 l
0 426.80 l
-716.61 0 l
0 -426.80 l
o
18.00 18.00 823.89 577.28 cl
/Font5 findfont 12 s
0 0 0 srgb
432.38 36.95 (d) 0 0 t
28.28 299.32 (b) 0 90 t
/Font1 findfont 8 s
30.48 305.91 (2) 0 90 t
77.04 91.44 793.65 518.24 cl
1 0 0 srgb
0.75 setlinewidth
[] 0 setdash
1 setlinecap
1 setlinejoin
10.00 setmiterlimit
np
103.58 387.26 m
73.73 -21.85 l
73.72 -30.00 l
73.73 -18.96 l
73.72 -32.14 l
73.73 -26.36 l
73.72 41.77 l
73.73 -112.46 l
73.72 -8.44 l
73.73 79.42 l
o
np
103.58 386.90 m
73.73 -20.24 l
73.72 -45.49 l
73.73 -20.27 l
73.72 4.24 l
73.73 -30.55 l
73.72 -60.12 l
73.73 2.31 l
73.72 44.66 l
73.73 -104.33 l
o
np
103.58 383.68 m
73.73 -20.35 l
73.72 -20.26 l
73.73 -30.41 l
73.72 -55.53 l
73.73 20.98 l
73.72 -42.82 l
73.73 -35.33 l
73.72 -81.89 l
73.73 164.26 l
o
np
103.58 383.45 m
73.73 -27.13 l
73.72 -52.86 l
73.73 12.86 l
73.72 -85.74 l
73.73 27.90 l
73.72 -70.36 l
73.73 53.55 l
73.72 -16.44 l
73.73 -30.50 l
o
np
103.58 384.09 m
73.73 -20.72 l
73.72 -27.39 l
73.73 -26.95 l
73.72 -11.70 l
73.73 -12.25 l
73.72 20.14 l
73.73 -96.89 l
73.72 -18.08 l
73.73 11.58 l
o
np
103.58 387.34 m
73.73 -21.73 l
73.72 -19.74 l
73.73 -20.86 l
73.72 -43.89 l
73.73 -10.16 l
73.72 -11.75 l
73.73 -64.20 l
73.72 76.33 l
73.73 -54.45 l
o
np
103.58 387.94 m
73.73 -22.48 l
73.72 -29.30 l
73.73 -17.47 l
73.72 -60.41 l
73.73 41.34 l
73.72 -91.07 l
73.73 3.53 l
73.72 -70.24 l
73.73 23.02 l
o
np
103.58 382.66 m
73.73 -24.90 l
73.72 -26.60 l
73.73 -36.29 l
73.72 -35.42 l
73.73 -22.68 l
73.72 -24.19 l
73.73 11.61 l
73.72 -8.36 l
73.73 90.05 l
o
np
103.58 387.46 m
73.73 -27.63 l
73.72 -29.95 l
73.73 -12.93 l
73.72 -33.20 l
73.73 -30.68 l
73.72 -14.50 l
73.73 62.22 l
73.72 -33.16 l
73.73 -25.22 l
o
np
103.58 415.08 m
73.73 -5.24 l
73.72 -9.06 l
73.73 -2.21 l
73.72 23.39 l
73.73 5.81 l
73.72 -89.80 l
73.73 -4.04 l
73.72 27.63 l
73.73 -56.51 l
o
np
103.58 414.27 m
73.73 -2.25 l
73.72 -10.52 l
73.73 8.58 l
73.72 -7.13 l
73.73 22.92 l
73.72 -13.30 l
73.73 -64.61 l
73.72 -9.70 l
73.73 20.50 l
o
np
103.58 415.47 m
73.73 -5.27 l
73.72 -0.13 l
73.73 -4.01 l
73.72 51.54 l
73.73 -20.73 l
73.72 -13.38 l
73.73 -38.23 l
73.72 -12.94 l
73.73 91.63 l
o
np
103.58 409.48 m
73.73 -3.47 l
73.72 3.19 l
73.73 -16.33 l
73.72 -1.15 l
73.73 23.75 l
73.72 22.61 l
73.73 -18.22 l
73.72 -10.47 l
73.73 8.09 l
o
np
103.58 410.64 m
73.73 0.01 l
73.72 -1.36 l
73.73 19.39 l
73.72 -44.88 l
73.73 42.72 l
73.72 -58.30 l
73.73 15.68 l
73.72 8.70 l
73.73 -37.50 l
o
np
103.58 410.84 m
73.73 2.27 l
73.72 -11.45 l
73.73 -12.67 l
73.72 38.79 l
73.73 -41.54 l
73.72 30.52 l
73.73 -64.31 l
73.72 62.96 l
73.73 -20.99 l
o
np
103.58 410.33 m
73.73 -0.06 l
73.72 4.23 l
73.73 -8.01 l
73.72 -4.41 l
73.73 -0.35 l
73.72 -31.39 l
73.73 20.15 l
73.72 37.36 l
73.73 -57.03 l
o
np
103.58 413.37 m
73.73 -6.87 l
73.72 12.44 l
73.73 -18.31 l
73.72 7.13 l
73.73 57.06 l
73.72 -68.67 l
73.73 -18.85 l
73.72 -1.40 l
73.73 36.19 l
o
np
103.58 413.33 m
73.73 0.59 l
73.72 3.19 l
73.73 -12.50 l
73.72 -25.84 l
73.73 -9.40 l
73.72 65.62 l
73.73 -78.38 l
73.72 40.29 l
73.73 38.14 l
o
np
103.58 413.34 m
73.73 -5.65 l
73.72 8.88 l
73.73 -15.91 l
73.72 8.15 l
73.73 -5.95 l
73.72 -33.51 l
73.73 117.90 l
73.72 -86.27 l
73.73 -35.84 l
o
0 0 1 srgb
0.75 setlinewidth
[ 2.25 3.75] 0 setdash
np
103.58 390.38 m
73.73 -29.47 l
73.72 -21.90 l
73.73 -44.45 l
73.72 -5.40 l
73.73 -65.53 l
73.72 -16.30 l
73.73 14.56 l
73.72 17.64 l
73.73 -111.85 l
o
np
103.58 391.43 m
73.73 -25.22 l
73.72 -30.37 l
73.73 -24.88 l
73.72 -30.87 l
73.73 -25.22 l
73.72 -39.09 l
73.73 -18.73 l
73.72 -32.36 l
73.73 -27.81 l
o
np
103.58 393.01 m
73.73 -30.27 l
73.72 -26.22 l
73.73 -21.63 l
73.72 -48.65 l
73.73 3.16 l
73.72 -52.45 l
73.73 -68.94 l
73.72 49.38 l
73.73 27.09 l
o
np
103.58 388.97 m
73.73 -26.27 l
73.72 -24.54 l
73.73 -24.36 l
73.72 -40.31 l
73.73 -16.24 l
73.72 5.20 l
73.73 -26.21 l
73.72 -73.85 l
73.73 -20.23 l
o
np
103.58 387.57 m
73.73 -28.03 l
73.72 -24.28 l
73.73 -22.39 l
73.72 -23.96 l
73.73 -30.21 l
73.72 -50.13 l
73.73 -57.42 l
73.72 45.33 l
73.73 -65.27 l
o
np
103.58 388.91 m
73.73 -24.73 l
73.72 -34.05 l
73.73 -18.49 l
73.72 -41.32 l
73.73 -6.12 l
73.72 -27.58 l
73.73 -55.04 l
73.72 18.34 l
73.73 -78.71 l
o
np
103.58 391.40 m
73.73 -22.13 l
73.72 -23.72 l
73.73 -31.14 l
73.72 -14.94 l
73.73 -38.10 l
73.72 -28.91 l
73.73 -26.99 l
73.72 13.21 l
73.73 -38.55 l
o
np
103.58 391.58 m
73.73 -26.84 l
73.72 -27.62 l
73.73 -41.84 l
73.72 -10.91 l
73.73 -33.38 l
73.72 -23.05 l
73.73 -90.51 l
73.72 77.72 l
73.73 -48.22 l
o
np
103.58 389.03 m
73.73 -32.61 l
73.72 -25.45 l
73.73 -49.34 l
73.72 -16.36 l
73.73 -74.60 l
73.72 -55.57 l
73.73 90.17 l
73.72 -59.93 l
73.73 -58.09 l
o
np
103.58 393.14 m
73.73 -27.76 l
73.72 -24.40 l
73.73 -23.11 l
73.72 -48.62 l
73.73 -38.16 l
73.72 39.15 l
73.73 -28.54 l
73.72 -17.09 l
73.73 -26.47 l
o
np
103.58 408.91 m
73.73 -1.50 l
73.72 4.41 l
73.73 9.51 l
73.72 -15.46 l
73.73 -3.29 l
73.72 -1.48 l
73.73 23.71 l
73.72 50.43 l
73.73 -101.32 l
o
np
103.58 408.98 m
73.73 0.10 l
73.72 0.87 l
73.73 5.18 l
73.72 -7.23 l
73.73 1.89 l
73.72 -8.60 l
73.73 8.59 l
73.72 -18.61 l
73.73 111.26 l
o
np
103.58 410.41 m
73.73 0.50 l
73.72 -0.11 l
73.73 13.07 l
73.72 5.97 l
73.73 -3.09 l
73.72 -1.17 l
73.73 -30.99 l
73.72 62.72 l
73.73 -31.95 l
o
np
103.58 405.37 m
73.73 -0.13 l
73.72 5.00 l
73.73 -5.78 l
73.72 -0.42 l
73.73 14.56 l
73.72 44.62 l
73.73 -53.02 l
73.72 20.14 l
73.73 -6.02 l
o
np
103.58 405.74 m
73.73 4.09 l
73.72 -8.11 l
73.73 1.14 l
73.72 0.06 l
73.73 -17.41 l
73.72 2.53 l
73.73 26.26 l
73.72 -23.35 l
73.73 34.13 l
o
np
103.58 406.62 m
73.73 0.71 l
73.72 0.23 l
73.73 -1.80 l
73.72 -2.14 l
73.73 5.87 l
73.72 -4.96 l
73.73 39.00 l
73.72 -38.47 l
73.73 -10.45 l
o
np
103.58 406.49 m
73.73 1.35 l
73.72 -0.20 l
73.73 -1.98 l
73.72 5.10 l
73.73 -7.97 l
73.72 9.42 l
73.73 -36.73 l
73.72 35.30 l
73.73 -45.49 l
o
np
103.58 409.17 m
73.73 0.83 l
73.72 3.53 l
73.73 -8.52 l
73.72 2.13 l
73.73 5.50 l
73.72 2.52 l
73.73 52.28 l
73.72 -64.85 l
73.73 10.19 l
o
np
103.58 409.21 m
73.73 -4.89 l
73.72 10.67 l
73.73 6.96 l
73.72 -8.12 l
73.73 40.25 l
73.72 -71.04 l
73.73 31.46 l
73.72 -40.87 l
73.73 28.16 l
o
np
103.58 409.72 m
73.73 -2.34 l
73.72 7.87 l
73.73 -7.99 l
73.72 37.09 l
73.73 -25.11 l
73.72 25.73 l
73.73 -27.36 l
73.72 8.95 l
73.73 -12.69 l
o
ep
%%Trailer
%%Pages: 1
%%EOF
