%!PS-Adobe-3.0
%%DocumentNeededResources: font Helvetica
%%+ font Helvetica-Bold
%%+ font Helvetica-Oblique
%%+ font Helvetica-BoldOblique
%%+ font Symbol
%%DocumentMedia: a4 595 841 0 () ()
%%Title: R Graphics Output
%%Creator: R Software
%%Pages: (atend)
%%Orientation: Landscape
%%BoundingBox: 18 18 577 824
%%EndComments
%%BeginProlog
/bp  { gs sRGB 595.00 0 translate 90 rotate gs } def
% begin .ps.prolog
/gs  { gsave } bind def
/gr  { grestore } bind def
/ep  { showpage gr gr } bind def
/m   { moveto } bind def
/l  { rlineto } bind def
/np  { newpath } bind def
/cp  { closepath } bind def
/f   { fill } bind def
/o   { stroke } bind def
/c   { newpath 0 360 arc } bind def
/r   { 4 2 roll moveto 1 copy 3 -1 roll exch 0 exch rlineto 0 rlineto -1 mul 0 exch rlineto closepath } bind def
/p1  { stroke } bind def
/p2  { gsave bg fill grestore newpath } bind def
/p3  { gsave bg fill grestore stroke } bind def
/p6  { gsave bg eofill grestore newpath } bind def
/p7  { gsave bg eofill grestore stroke } bind def
/t   { 5 -2 roll moveto gsave rotate
       1 index stringwidth pop
       mul neg 0 rmoveto show grestore } bind def
/ta  { 4 -2 roll moveto gsave rotate show } bind def
/tb  { 2 -1 roll 0 rmoveto show } bind def
/cl  { grestore gsave newpath 3 index 3 index moveto 1 index
       4 -1 roll lineto  exch 1 index lineto lineto
       closepath clip newpath } bind def
/rgb { setrgbcolor } bind def
/s   { scalefont setfont } bind def
% end   .ps.prolog
/sRGB { [ /CIEBasedABC
          << /DecodeLMN
               [ { dup 0.03928 le
                        {12.92321 div}
                        {0.055 add 1.055 div 2.4 exp }
                     ifelse
                 } bind dup dup
               ]
             /MatrixLMN [0.412457 0.212673 0.019334
                         0.357576 0.715152 0.119192
                         0.180437 0.072175 0.950301]
             /WhitePoint [0.9505 1.0 1.0890]
           >>
         ] setcolorspace } bind def
/srgb { setcolor } bind def
%%IncludeResource: font Helvetica
/Helvetica findfont
dup length dict begin
  {1 index /FID ne {def} {pop pop} ifelse} forall
  /Encoding ISOLatin1Encoding def
  currentdict
  end
/Font1 exch definefont pop
%%IncludeResource: font Helvetica-Bold
/Helvetica-Bold findfont
dup length dict begin
  {1 index /FID ne {def} {pop pop} ifelse} forall
  /Encoding ISOLatin1Encoding def
  currentdict
  end
/Font2 exch definefont pop
%%IncludeResource: font Helvetica-Oblique
/Helvetica-Oblique findfont
dup length dict begin
  {1 index /FID ne {def} {pop pop} ifelse} forall
  /Encoding ISOLatin1Encoding def
  currentdict
  end
/Font3 exch definefont pop
%%IncludeResource: font Helvetica-BoldOblique
/Helvetica-BoldOblique findfont
dup length dict begin
  {1 index /FID ne {def} {pop pop} ifelse} forall
  /Encoding ISOLatin1Encoding def
  currentdict
  end
/Font4 exch definefont pop
%%IncludeResource: font Symbol
/Symbol findfont
dup length dict begin
  {1 index /FID ne {def} {pop pop} ifelse} forall
  currentdict
  end
/Font5 exch definefont pop
%%EndProlog
%%Page: 1 1
bp
77.04 91.44 793.65 518.24 cl
1 0 0 srgb
0.75 setlinewidth
[] 0 setdash
1 setlinecap
1 setlinejoin
10.00 setmiterlimit
np
103.58 305.59 m
73.73 -35.90 l
73.72 4.84 l
73.73 6.46 l
73.72 19.14 l
73.73 -23.84 l
73.72 22.92 l
73.73 -22.60 l
73.72 22.42 l
73.73 28.33 l
o
18.00 18.00 823.89 577.28 cl
0 0 0 srgb
0.75 setlinewidth
[] 0 setdash
1 setlinecap
1 setlinejoin
10.00 setmiterlimit
np
243.27 91.44 m
523.84 0 l
o
np
243.27 91.44 m
0 -7.20 l
o
np
417.88 91.44 m
0 -7.20 l
o
np
592.50 91.44 m
0 -7.20 l
o
np
767.11 91.44 m
0 -7.20 l
o
/Font1 findfont 12 s
243.27 65.52 (0.5) .5 0 t
417.88 65.52 (1.0) .5 0 t
592.50 65.52 (1.5) .5 0 t
767.11 65.52 (2.0) .5 0 t
np
77.04 94.56 m
0 384.66 l
o
np
77.04 94.56 m
-7.20 0 l
o
np
77.04 190.72 m
-7.20 0 l
o
np
77.04 286.89 m
-7.20 0 l
o
np
77.04 383.05 m
-7.20 0 l
o
np
77.04 479.22 m
-7.20 0 l
o
59.76 94.56 (-4) .5 90 t
59.76 190.72 (-2) .5 90 t
59.76 286.89 (0) .5 90 t
59.76 383.05 (2) .5 90 t
59.76 479.22 (4) .5 90 t
np
77.04 91.44 m
716.61 0 l
0 426.80 l
-716.61 0 l
0 -426.80 l
o
18.00 18.00 823.89 577.28 cl
/Font5 findfont 12 s
0 0 0 srgb
432.38 36.95 (d) 0 0 t
28.28 299.32 (b) 0 90 t
/Font1 findfont 8 s
30.48 305.91 (2) 0 90 t
77.04 91.44 793.65 518.24 cl
1 0 0 srgb
0.75 setlinewidth
[] 0 setdash
1 setlinecap
1 setlinejoin
10.00 setmiterlimit
np
103.58 303.43 m
73.73 -28.11 l
73.72 -10.61 l
73.73 26.82 l
73.72 -15.73 l
73.73 65.50 l
73.72 -77.19 l
73.73 -14.24 l
73.72 60.88 l
73.73 17.35 l
o
np
103.58 285.02 m
73.73 -24.30 l
73.72 14.19 l
73.73 -26.15 l
73.72 18.98 l
73.73 24.66 l
73.72 43.69 l
73.73 -55.56 l
73.72 65.94 l
73.73 -26.84 l
o
np
103.58 291.91 m
73.73 -13.58 l
73.72 -33.15 l
73.73 78.82 l
73.72 -10.76 l
73.73 -8.52 l
73.72 -2.63 l
73.73 -23.74 l
73.72 -5.92 l
73.73 11.11 l
o
np
103.58 289.97 m
73.73 -14.57 l
73.72 -1.77 l
73.73 59.87 l
73.72 -60.58 l
73.73 40.20 l
73.72 1.24 l
73.73 -73.35 l
73.72 48.03 l
73.73 34.07 l
o
np
103.58 304.66 m
73.73 -17.52 l
73.72 16.75 l
73.73 -13.12 l
73.72 -14.52 l
73.73 20.87 l
73.72 -15.56 l
73.73 68.64 l
73.72 -9.76 l
73.73 -59.23 l
o
np
103.58 300.08 m
73.73 -19.93 l
73.72 -12.53 l
73.73 17.29 l
73.72 17.49 l
73.73 56.12 l
73.72 -67.53 l
73.73 61.88 l
73.72 -86.28 l
73.73 45.50 l
o
np
103.58 304.53 m
73.73 -13.62 l
73.72 -9.67 l
73.73 -5.31 l
73.72 22.76 l
73.73 -36.75 l
73.72 66.54 l
73.73 0.96 l
73.72 -42.44 l
73.73 -20.72 l
o
np
103.58 295.12 m
73.73 -23.75 l
73.72 -13.11 l
73.73 33.04 l
73.72 -51.00 l
73.73 -2.49 l
73.72 76.76 l
73.73 -29.49 l
73.72 -31.53 l
73.73 58.64 l
o
np
103.58 284.39 m
73.73 -4.47 l
73.72 -19.05 l
73.73 26.55 l
73.72 18.01 l
73.73 -0.94 l
73.72 -68.03 l
73.73 84.79 l
73.72 -70.95 l
73.73 0.98 l
o
np
103.58 326.58 m
73.73 -23.89 l
73.72 13.35 l
73.73 -19.36 l
73.72 12.45 l
73.73 -14.14 l
73.72 14.59 l
73.73 -10.66 l
73.72 12.10 l
73.73 26.00 l
o
np
103.58 323.95 m
73.73 -6.67 l
73.72 -26.36 l
73.73 16.42 l
73.72 -20.67 l
73.73 64.75 l
73.72 -74.66 l
73.73 -15.87 l
73.72 58.34 l
73.73 15.69 l
o
np
103.58 323.68 m
73.73 -28.63 l
73.72 0.32 l
73.73 -35.51 l
73.72 24.40 l
73.73 24.21 l
73.72 37.74 l
73.73 -56.31 l
73.72 64.72 l
73.73 -23.78 l
o
np
103.58 318.74 m
73.73 -11.67 l
73.72 -32.53 l
73.73 65.52 l
73.72 -18.28 l
73.73 3.27 l
73.72 -12.91 l
73.73 -25.77 l
73.72 -6.45 l
73.73 12.86 l
o
np
103.58 316.49 m
73.73 -2.76 l
73.72 -6.98 l
73.73 50.44 l
73.72 -70.65 l
73.73 34.67 l
73.72 -0.26 l
73.73 -70.20 l
73.72 46.57 l
73.73 35.46 l
o
np
103.58 340.49 m
73.73 -6.44 l
73.72 -12.99 l
73.73 -14.80 l
73.72 -9.78 l
73.73 9.51 l
73.72 -13.34 l
73.73 65.36 l
73.72 -5.90 l
73.73 -57.11 l
o
np
103.58 319.63 m
73.73 -10.99 l
73.72 -17.62 l
73.73 7.14 l
73.72 18.65 l
73.73 49.06 l
73.72 -65.49 l
73.73 58.86 l
73.72 -82.75 l
73.73 45.90 l
o
np
103.58 328.24 m
73.73 -15.72 l
73.72 -12.67 l
73.73 -7.23 l
73.72 18.11 l
73.73 -39.23 l
73.72 66.59 l
73.73 7.36 l
73.72 -50.35 l
73.73 -10.68 l
o
np
103.58 316.86 m
73.73 -6.87 l
73.72 -34.88 l
73.73 30.46 l
73.72 -35.02 l
73.73 -22.03 l
73.72 75.37 l
73.73 -29.84 l
73.72 -32.18 l
73.73 65.56 l
o
np
103.58 315.51 m
73.73 -8.83 l
73.72 -33.87 l
73.73 24.97 l
73.72 25.61 l
73.73 -8.20 l
73.72 -70.54 l
73.73 85.94 l
73.72 -72.56 l
73.73 2.15 l
o
0 0 1 srgb
0.75 setlinewidth
[ 2.25 3.75] 0 setdash
np
103.58 392.05 m
73.73 -9.98 l
73.72 -26.27 l
73.73 -27.78 l
73.72 -40.80 l
73.73 17.48 l
73.72 39.60 l
73.73 -210.19 l
73.72 28.42 l
73.73 -55.28 l
o
np
103.58 419.19 m
73.73 -21.63 l
73.72 -52.71 l
73.73 -44.27 l
73.72 21.73 l
73.73 -13.34 l
73.72 -23.23 l
73.73 0.39 l
73.72 -49.40 l
73.73 -71.81 l
o
np
103.58 414.97 m
73.73 -24.92 l
73.72 -59.46 l
73.73 19.79 l
73.72 -15.79 l
73.73 -46.20 l
73.72 -35.55 l
73.73 26.07 l
73.72 -50.77 l
73.73 61.63 l
o
np
103.58 377.33 m
73.73 -22.83 l
73.72 -34.76 l
73.73 3.47 l
73.72 -28.48 l
73.73 -20.81 l
73.72 -9.66 l
73.73 -45.91 l
73.72 16.84 l
73.73 -19.82 l
o
np
103.58 402.21 m
73.73 -5.16 l
73.72 -26.98 l
73.73 -28.12 l
73.72 -91.95 l
73.73 42.76 l
73.72 26.71 l
73.73 -50.24 l
73.72 59.00 l
73.73 -97.49 l
o
np
103.58 403.00 m
73.73 -27.95 l
73.72 -10.61 l
73.73 -34.49 l
73.72 -61.43 l
73.73 11.03 l
73.72 -19.28 l
73.73 -5.85 l
73.72 -20.13 l
73.73 -38.04 l
o
np
103.58 385.33 m
73.73 -5.73 l
73.72 -27.47 l
73.73 -36.87 l
73.72 1.72 l
73.73 -31.79 l
73.72 -23.51 l
73.73 -7.93 l
73.72 -23.85 l
73.73 15.29 l
o
np
103.58 402.87 m
73.73 -44.08 l
73.72 -29.14 l
73.73 -37.71 l
73.72 -20.83 l
73.73 -10.01 l
73.72 28.66 l
73.73 -20.15 l
73.72 -23.34 l
73.73 34.43 l
o
np
103.58 379.99 m
73.73 -27.82 l
73.72 -44.86 l
73.73 -12.04 l
73.72 -21.46 l
73.73 36.57 l
73.72 -31.22 l
73.73 -119.70 l
73.72 148.43 l
73.73 -69.87 l
o
np
103.58 409.88 m
73.73 -44.09 l
73.72 -32.51 l
73.73 -3.72 l
73.72 -15.01 l
73.73 -11.82 l
73.72 -72.76 l
73.73 32.95 l
73.72 -96.39 l
73.73 97.96 l
o
np
103.58 474.70 m
73.73 -8.91 l
73.72 14.40 l
73.73 -57.61 l
73.72 21.09 l
73.73 -49.54 l
73.72 65.16 l
73.73 -187.33 l
73.72 54.12 l
73.73 -28.93 l
o
np
103.58 488.97 m
73.73 4.20 l
73.72 -53.43 l
73.73 -40.69 l
73.72 -16.14 l
73.73 91.19 l
73.72 -79.15 l
73.73 -15.54 l
73.72 -1.83 l
73.73 -84.99 l
o
np
103.58 492.60 m
73.73 -32.46 l
73.72 -32.90 l
73.73 17.89 l
73.72 3.89 l
73.73 -30.19 l
73.72 -85.10 l
73.73 24.11 l
73.72 39.39 l
73.73 -13.62 l
o
np
103.58 452.32 m
73.73 -22.17 l
73.72 -11.08 l
73.73 -36.23 l
73.72 25.89 l
73.73 -74.87 l
73.72 5.14 l
73.73 -29.84 l
73.72 27.29 l
73.73 -37.60 l
o
np
103.58 449.04 m
73.73 15.75 l
73.72 11.33 l
73.73 -26.60 l
73.72 -51.07 l
73.73 -8.64 l
73.72 33.48 l
73.73 -94.23 l
73.72 105.57 l
73.73 -123.38 l
o
np
103.58 456.90 m
73.73 -26.66 l
73.72 26.83 l
73.73 5.55 l
73.72 -80.34 l
73.73 -53.56 l
73.72 16.56 l
73.73 6.31 l
73.72 -21.59 l
73.73 -24.12 l
o
np
103.58 446.00 m
73.73 56.43 l
73.72 -77.27 l
73.73 -3.65 l
73.72 -34.89 l
73.73 -12.44 l
73.72 -42.59 l
73.73 31.65 l
73.72 -69.54 l
73.73 62.23 l
o
np
103.58 466.97 m
73.73 -34.71 l
73.72 -36.76 l
73.73 21.44 l
73.72 -11.15 l
73.73 -50.20 l
73.72 41.81 l
73.73 -30.94 l
73.72 -23.30 l
73.73 6.79 l
o
np
103.58 463.83 m
73.73 -58.77 l
73.72 -1.69 l
73.73 -32.84 l
73.72 31.50 l
73.73 27.37 l
73.72 -63.19 l
73.73 -58.44 l
73.72 63.85 l
73.73 -30.89 l
o
np
103.58 483.84 m
73.73 0.60 l
73.72 -73.53 l
73.73 28.96 l
73.72 -55.76 l
73.73 22.25 l
73.72 -129.61 l
73.73 47.56 l
73.72 -75.36 l
73.73 82.14 l
o
ep
%%Trailer
%%Pages: 1
%%EOF
