%!PS-Adobe-3.0
%%DocumentNeededResources: font Helvetica
%%+ font Helvetica-Bold
%%+ font Helvetica-Oblique
%%+ font Helvetica-BoldOblique
%%+ font Symbol
%%DocumentMedia: a4 595 841 0 () ()
%%Title: R Graphics Output
%%Creator: R Software
%%Pages: (atend)
%%Orientation: Landscape
%%BoundingBox: 18 18 577 824
%%EndComments
%%BeginProlog
/bp  { gs sRGB 595.00 0 translate 90 rotate gs } def
% begin .ps.prolog
/gs  { gsave } bind def
/gr  { grestore } bind def
/ep  { showpage gr gr } bind def
/m   { moveto } bind def
/l  { rlineto } bind def
/np  { newpath } bind def
/cp  { closepath } bind def
/f   { fill } bind def
/o   { stroke } bind def
/c   { newpath 0 360 arc } bind def
/r   { 4 2 roll moveto 1 copy 3 -1 roll exch 0 exch rlineto 0 rlineto -1 mul 0 exch rlineto closepath } bind def
/p1  { stroke } bind def
/p2  { gsave bg fill grestore newpath } bind def
/p3  { gsave bg fill grestore stroke } bind def
/p6  { gsave bg eofill grestore newpath } bind def
/p7  { gsave bg eofill grestore stroke } bind def
/t   { 5 -2 roll moveto gsave rotate
       1 index stringwidth pop
       mul neg 0 rmoveto show grestore } bind def
/ta  { 4 -2 roll moveto gsave rotate show } bind def
/tb  { 2 -1 roll 0 rmoveto show } bind def
/cl  { grestore gsave newpath 3 index 3 index moveto 1 index
       4 -1 roll lineto  exch 1 index lineto lineto
       closepath clip newpath } bind def
/rgb { setrgbcolor } bind def
/s   { scalefont setfont } bind def
% end   .ps.prolog
/sRGB { [ /CIEBasedABC
          << /DecodeLMN
               [ { dup 0.03928 le
                        {12.92321 div}
                        {0.055 add 1.055 div 2.4 exp }
                     ifelse
                 } bind dup dup
               ]
             /MatrixLMN [0.412457 0.212673 0.019334
                         0.357576 0.715152 0.119192
                         0.180437 0.072175 0.950301]
             /WhitePoint [0.9505 1.0 1.0890]
           >>
         ] setcolorspace } bind def
/srgb { setcolor } bind def
%%IncludeResource: font Helvetica
/Helvetica findfont
dup length dict begin
  {1 index /FID ne {def} {pop pop} ifelse} forall
  /Encoding ISOLatin1Encoding def
  currentdict
  end
/Font1 exch definefont pop
%%IncludeResource: font Helvetica-Bold
/Helvetica-Bold findfont
dup length dict begin
  {1 index /FID ne {def} {pop pop} ifelse} forall
  /Encoding ISOLatin1Encoding def
  currentdict
  end
/Font2 exch definefont pop
%%IncludeResource: font Helvetica-Oblique
/Helvetica-Oblique findfont
dup length dict begin
  {1 index /FID ne {def} {pop pop} ifelse} forall
  /Encoding ISOLatin1Encoding def
  currentdict
  end
/Font3 exch definefont pop
%%IncludeResource: font Helvetica-BoldOblique
/Helvetica-BoldOblique findfont
dup length dict begin
  {1 index /FID ne {def} {pop pop} ifelse} forall
  /Encoding ISOLatin1Encoding def
  currentdict
  end
/Font4 exch definefont pop
%%IncludeResource: font Symbol
/Symbol findfont
dup length dict begin
  {1 index /FID ne {def} {pop pop} ifelse} forall
  currentdict
  end
/Font5 exch definefont pop
%%EndProlog
%%Page: 1 1
bp
77.04 91.44 793.65 518.24 cl
1 0 0 srgb
0.75 setlinewidth
[] 0 setdash
1 setlinecap
1 setlinejoin
10.00 setmiterlimit
np
103.58 297.32 m
73.73 -14.99 l
73.72 -8.73 l
73.73 2.29 l
73.72 22.99 l
73.73 -6.30 l
73.72 14.60 l
73.73 -35.47 l
73.72 45.15 l
73.73 2.86 l
o
18.00 18.00 823.89 577.28 cl
0 0 0 srgb
0.75 setlinewidth
[] 0 setdash
1 setlinecap
1 setlinejoin
10.00 setmiterlimit
np
243.27 91.44 m
523.84 0 l
o
np
243.27 91.44 m
0 -7.20 l
o
np
417.88 91.44 m
0 -7.20 l
o
np
592.50 91.44 m
0 -7.20 l
o
np
767.11 91.44 m
0 -7.20 l
o
/Font1 findfont 12 s
243.27 65.52 (0.5) .5 0 t
417.88 65.52 (1.0) .5 0 t
592.50 65.52 (1.5) .5 0 t
767.11 65.52 (2.0) .5 0 t
np
77.04 102.53 m
0 371.46 l
o
np
77.04 102.53 m
-7.20 0 l
o
np
77.04 195.39 m
-7.20 0 l
o
np
77.04 288.26 m
-7.20 0 l
o
np
77.04 381.13 m
-7.20 0 l
o
np
77.04 473.99 m
-7.20 0 l
o
59.76 102.53 (-4) .5 90 t
59.76 195.39 (-2) .5 90 t
59.76 288.26 (0) .5 90 t
59.76 381.13 (2) .5 90 t
59.76 473.99 (4) .5 90 t
np
77.04 91.44 m
716.61 0 l
0 426.80 l
-716.61 0 l
0 -426.80 l
o
18.00 18.00 823.89 577.28 cl
/Font5 findfont 12 s
0 0 0 srgb
432.38 36.95 (d) 0 0 t
28.28 299.32 (b) 0 90 t
/Font1 findfont 8 s
30.48 305.91 (2) 0 90 t
77.04 91.44 793.65 518.24 cl
1 0 0 srgb
0.75 setlinewidth
[] 0 setdash
1 setlinecap
1 setlinejoin
10.00 setmiterlimit
np
103.58 299.97 m
73.73 -23.61 l
73.72 -8.33 l
73.73 34.65 l
73.72 -11.80 l
73.73 40.16 l
73.72 -67.86 l
73.73 -15.98 l
73.72 69.73 l
73.73 0.61 l
o
np
103.58 291.68 m
73.73 -48.04 l
73.72 17.12 l
73.73 -21.17 l
73.72 22.50 l
73.73 30.68 l
73.72 32.96 l
73.73 -53.34 l
73.72 54.96 l
73.73 12.35 l
o
np
103.58 295.44 m
73.73 -8.77 l
73.72 -23.34 l
73.73 74.89 l
73.72 -28.95 l
73.73 6.23 l
73.72 -6.39 l
73.73 -44.31 l
73.72 33.18 l
73.73 -30.57 l
o
np
103.58 292.64 m
73.73 -16.58 l
73.72 14.27 l
73.73 35.28 l
73.72 -40.63 l
73.73 11.60 l
73.72 3.20 l
73.73 -32.97 l
73.72 30.52 l
73.73 -0.83 l
o
np
103.58 302.83 m
73.73 -11.53 l
73.72 1.90 l
73.73 -10.94 l
73.72 -20.96 l
73.73 46.65 l
73.72 -12.77 l
73.73 53.42 l
73.72 -10.73 l
73.73 -49.67 l
o
np
103.58 297.25 m
73.73 -14.53 l
73.72 -23.28 l
73.73 17.97 l
73.72 23.06 l
73.73 46.89 l
73.72 -50.89 l
73.73 73.94 l
73.72 -122.78 l
73.73 45.70 l
o
np
103.58 302.69 m
73.73 -17.27 l
73.72 -30.62 l
73.73 55.97 l
73.72 -16.81 l
73.73 -22.13 l
73.72 57.13 l
73.73 16.80 l
73.72 -56.85 l
73.73 -21.57 l
o
np
103.58 293.82 m
73.73 -26.34 l
73.72 -8.09 l
73.73 29.78 l
73.72 -28.72 l
73.73 -8.88 l
73.72 62.66 l
73.73 -25.47 l
73.72 -22.35 l
73.73 50.30 l
o
np
103.58 286.22 m
73.73 -18.83 l
73.72 -5.10 l
73.73 26.41 l
73.72 17.91 l
73.73 -15.12 l
73.72 -46.00 l
73.73 78.17 l
73.72 -70.98 l
73.73 -6.88 l
o
np
103.58 326.03 m
73.73 -13.63 l
73.72 0.40 l
73.73 -17.44 l
73.72 14.17 l
73.73 -7.71 l
73.72 15.46 l
73.73 -37.40 l
73.72 47.97 l
73.73 -0.83 l
o
np
103.58 325.99 m
73.73 -22.24 l
73.72 -17.04 l
73.73 27.81 l
73.72 -17.19 l
73.73 50.33 l
73.72 -75.56 l
73.73 -16.56 l
73.72 68.50 l
73.73 4.36 l
o
np
103.58 318.56 m
73.73 -25.08 l
73.72 -4.45 l
73.73 -35.72 l
73.72 20.40 l
73.73 32.15 l
73.72 28.27 l
73.73 -52.66 l
73.72 56.92 l
73.73 10.54 l
o
np
103.58 313.41 m
73.73 -8.73 l
73.72 -28.50 l
73.73 79.55 l
73.72 -30.72 l
73.73 2.67 l
73.72 -10.02 l
73.73 -44.54 l
73.72 32.75 l
73.73 -20.25 l
o
np
103.58 315.71 m
73.73 -11.52 l
73.72 -2.83 l
73.73 59.14 l
73.72 -64.85 l
73.73 10.69 l
73.72 1.39 l
73.73 -34.01 l
73.72 32.22 l
73.73 1.60 l
o
np
103.58 335.23 m
73.73 -15.05 l
73.72 -0.03 l
73.73 -18.07 l
73.72 -31.11 l
73.73 46.74 l
73.72 -12.15 l
73.73 52.34 l
73.72 -6.46 l
73.73 -52.07 l
o
np
103.58 317.02 m
73.73 -1.66 l
73.72 -35.74 l
73.73 16.98 l
73.72 22.46 l
73.73 42.81 l
73.72 -52.63 l
73.73 68.56 l
73.72 -119.86 l
73.73 44.17 l
o
np
103.58 329.56 m
73.73 -26.39 l
73.72 -19.70 l
73.73 36.18 l
73.72 -7.17 l
73.73 -31.52 l
73.72 57.28 l
73.73 30.27 l
73.72 -68.72 l
73.73 -19.68 l
o
np
103.58 320.93 m
73.73 -24.00 l
73.72 -21.45 l
73.73 24.02 l
73.72 -29.84 l
73.73 -7.95 l
73.72 60.44 l
73.73 -26.13 l
73.72 -22.20 l
73.73 52.51 l
o
np
103.58 310.01 m
73.73 -9.47 l
73.72 -14.00 l
73.73 24.48 l
73.72 8.60 l
73.73 -17.48 l
73.72 -47.69 l
73.73 77.35 l
73.72 -69.07 l
73.73 -8.48 l
o
0 0 1 srgb
0.75 setlinewidth
[ 2.25 3.75] 0 setdash
np
103.58 386.96 m
73.73 -8.78 l
73.72 -26.39 l
73.73 -28.33 l
73.72 -40.82 l
73.73 16.07 l
73.72 40.83 l
73.73 -202.51 l
73.72 22.73 l
73.73 -52.51 l
o
np
103.58 412.93 m
73.73 -19.33 l
73.72 -49.71 l
73.73 -48.48 l
73.72 20.85 l
73.73 -13.59 l
73.72 -22.80 l
73.73 0.06 l
73.72 -49.83 l
73.73 -72.13 l
o
np
103.58 412.05 m
73.73 -23.66 l
73.72 -54.82 l
73.73 15.83 l
73.72 -19.52 l
73.73 -48.83 l
73.72 -24.54 l
73.73 16.45 l
73.72 -49.68 l
73.73 58.84 l
o
np
103.58 370.24 m
73.73 -21.50 l
73.72 -32.69 l
73.73 7.04 l
73.72 -34.49 l
73.73 -15.60 l
73.72 -13.41 l
73.73 -40.55 l
73.72 14.13 l
73.73 -19.75 l
o
np
103.58 401.69 m
73.73 -5.82 l
73.72 -26.70 l
73.73 -32.07 l
73.72 -90.33 l
73.73 39.12 l
73.72 26.90 l
73.73 -51.09 l
73.72 59.99 l
73.73 -98.66 l
o
np
103.58 398.83 m
73.73 -26.49 l
73.72 -10.98 l
73.73 -34.75 l
73.72 -58.41 l
73.73 6.58 l
73.72 -19.46 l
73.73 -6.84 l
73.72 -15.93 l
73.73 -41.61 l
o
np
103.58 382.31 m
73.73 -3.32 l
73.72 -29.16 l
73.73 -33.86 l
73.72 -0.55 l
73.73 -33.51 l
73.72 -23.59 l
73.73 -9.23 l
73.72 -19.79 l
73.73 11.75 l
o
np
103.58 395.95 m
73.73 -42.46 l
73.72 -24.96 l
73.73 -39.68 l
73.72 -20.96 l
73.73 -11.89 l
73.72 26.85 l
73.73 -21.41 l
73.72 -22.49 l
73.73 33.23 l
o
np
103.58 374.98 m
73.73 -26.84 l
73.72 -42.69 l
73.73 -13.51 l
73.72 -21.72 l
73.73 35.34 l
73.72 -31.76 l
73.73 -112.42 l
73.72 140.51 l
73.73 -60.19 l
o
np
103.58 404.00 m
73.73 -42.21 l
73.72 -32.55 l
73.73 -6.67 l
73.72 -12.45 l
73.73 -3.63 l
73.72 -78.49 l
73.73 30.23 l
73.72 -92.92 l
73.73 94.30 l
o
np
103.58 471.36 m
73.73 -9.15 l
73.72 17.81 l
73.73 -57.43 l
73.72 15.06 l
73.73 -50.81 l
73.72 69.83 l
73.73 -192.38 l
73.72 51.53 l
73.73 -27.73 l
o
np
103.58 482.08 m
73.73 6.51 l
73.72 -53.00 l
73.73 -35.88 l
73.72 -19.67 l
73.73 89.78 l
73.72 -79.25 l
73.73 -15.29 l
73.72 5.68 l
73.73 -96.88 l
o
np
103.58 492.73 m
73.73 -34.03 l
73.72 -32.00 l
73.73 19.36 l
73.72 -0.89 l
73.73 -28.05 l
73.72 -87.57 l
73.73 24.06 l
73.72 42.25 l
73.73 -13.70 l
o
np
103.58 441.32 m
73.73 -22.04 l
73.72 -8.78 l
73.73 -33.59 l
73.72 22.02 l
73.73 -69.71 l
73.72 0.34 l
73.73 -24.85 l
73.72 24.46 l
73.73 -36.76 l
o
np
103.58 449.14 m
73.73 18.41 l
73.72 13.68 l
73.73 -29.31 l
73.72 -56.09 l
73.73 -8.98 l
73.72 31.19 l
73.73 -94.83 l
73.72 108.13 l
73.73 -126.74 l
o
np
103.58 455.11 m
73.73 -27.22 l
73.72 28.47 l
73.73 3.18 l
73.72 -80.21 l
73.73 -55.56 l
73.72 25.45 l
73.73 -3.32 l
73.72 -18.13 l
73.73 -27.87 l
o
np
103.58 443.68 m
73.73 58.75 l
73.72 -78.44 l
73.73 -4.82 l
73.72 -38.02 l
73.73 -12.39 l
73.72 -42.41 l
73.73 30.06 l
73.72 -67.24 l
73.73 59.94 l
o
np
103.58 458.85 m
73.73 -32.37 l
73.72 -33.70 l
73.73 17.05 l
73.72 -8.77 l
73.73 -36.54 l
73.72 26.30 l
73.73 -32.76 l
73.72 -22.49 l
73.73 5.04 l
o
np
103.58 457.37 m
73.73 -56.87 l
73.72 -0.58 l
73.73 -32.58 l
73.72 36.09 l
73.73 20.12 l
73.72 -63.54 l
73.73 -57.42 l
73.72 62.05 l
73.73 -24.61 l
o
np
103.58 481.09 m
73.73 2.75 l
73.72 -75.43 l
73.73 24.71 l
73.72 -51.47 l
73.73 18.25 l
73.72 -124.41 l
73.73 41.22 l
73.72 -73.79 l
73.73 80.98 l
o
ep
%%Trailer
%%Pages: 1
%%EOF
