%!PS-Adobe-3.0
%%DocumentNeededResources: font Helvetica
%%+ font Helvetica-Bold
%%+ font Helvetica-Oblique
%%+ font Helvetica-BoldOblique
%%+ font Symbol
%%DocumentMedia: a4 595 841 0 () ()
%%Title: R Graphics Output
%%Creator: R Software
%%Pages: (atend)
%%Orientation: Landscape
%%BoundingBox: 18 18 577 824
%%EndComments
%%BeginProlog
/bp  { gs sRGB 595.00 0 translate 90 rotate gs } def
% begin .ps.prolog
/gs  { gsave } bind def
/gr  { grestore } bind def
/ep  { showpage gr gr } bind def
/m   { moveto } bind def
/l  { rlineto } bind def
/np  { newpath } bind def
/cp  { closepath } bind def
/f   { fill } bind def
/o   { stroke } bind def
/c   { newpath 0 360 arc } bind def
/r   { 4 2 roll moveto 1 copy 3 -1 roll exch 0 exch rlineto 0 rlineto -1 mul 0 exch rlineto closepath } bind def
/p1  { stroke } bind def
/p2  { gsave bg fill grestore newpath } bind def
/p3  { gsave bg fill grestore stroke } bind def
/p6  { gsave bg eofill grestore newpath } bind def
/p7  { gsave bg eofill grestore stroke } bind def
/t   { 5 -2 roll moveto gsave rotate
       1 index stringwidth pop
       mul neg 0 rmoveto show grestore } bind def
/ta  { 4 -2 roll moveto gsave rotate show } bind def
/tb  { 2 -1 roll 0 rmoveto show } bind def
/cl  { grestore gsave newpath 3 index 3 index moveto 1 index
       4 -1 roll lineto  exch 1 index lineto lineto
       closepath clip newpath } bind def
/rgb { setrgbcolor } bind def
/s   { scalefont setfont } bind def
% end   .ps.prolog
/sRGB { [ /CIEBasedABC
          << /DecodeLMN
               [ { dup 0.03928 le
                        {12.92321 div}
                        {0.055 add 1.055 div 2.4 exp }
                     ifelse
                 } bind dup dup
               ]
             /MatrixLMN [0.412457 0.212673 0.019334
                         0.357576 0.715152 0.119192
                         0.180437 0.072175 0.950301]
             /WhitePoint [0.9505 1.0 1.0890]
           >>
         ] setcolorspace } bind def
/srgb { setcolor } bind def
%%IncludeResource: font Helvetica
/Helvetica findfont
dup length dict begin
  {1 index /FID ne {def} {pop pop} ifelse} forall
  /Encoding ISOLatin1Encoding def
  currentdict
  end
/Font1 exch definefont pop
%%IncludeResource: font Helvetica-Bold
/Helvetica-Bold findfont
dup length dict begin
  {1 index /FID ne {def} {pop pop} ifelse} forall
  /Encoding ISOLatin1Encoding def
  currentdict
  end
/Font2 exch definefont pop
%%IncludeResource: font Helvetica-Oblique
/Helvetica-Oblique findfont
dup length dict begin
  {1 index /FID ne {def} {pop pop} ifelse} forall
  /Encoding ISOLatin1Encoding def
  currentdict
  end
/Font3 exch definefont pop
%%IncludeResource: font Helvetica-BoldOblique
/Helvetica-BoldOblique findfont
dup length dict begin
  {1 index /FID ne {def} {pop pop} ifelse} forall
  /Encoding ISOLatin1Encoding def
  currentdict
  end
/Font4 exch definefont pop
%%IncludeResource: font Symbol
/Symbol findfont
dup length dict begin
  {1 index /FID ne {def} {pop pop} ifelse} forall
  currentdict
  end
/Font5 exch definefont pop
%%EndProlog
%%Page: 1 1
bp
77.04 91.44 793.65 518.24 cl
1 0 0 srgb
0.75 setlinewidth
[] 0 setdash
1 setlinecap
1 setlinejoin
10.00 setmiterlimit
np
103.58 295.05 m
73.73 -10.86 l
73.72 -3.62 l
73.73 -27.66 l
73.72 18.24 l
73.73 22.25 l
73.72 -27.13 l
73.73 -10.95 l
73.72 46.05 l
73.73 12.83 l
o
18.00 18.00 823.89 577.28 cl
0 0 0 srgb
0.75 setlinewidth
[] 0 setdash
1 setlinecap
1 setlinejoin
10.00 setmiterlimit
np
243.27 91.44 m
523.84 0 l
o
np
243.27 91.44 m
0 -7.20 l
o
np
417.88 91.44 m
0 -7.20 l
o
np
592.50 91.44 m
0 -7.20 l
o
np
767.11 91.44 m
0 -7.20 l
o
/Font1 findfont 12 s
243.27 65.52 (0.5) .5 0 t
417.88 65.52 (1.0) .5 0 t
592.50 65.52 (1.5) .5 0 t
767.11 65.52 (2.0) .5 0 t
np
77.04 149.47 m
0 278.41 l
o
np
77.04 149.47 m
-7.20 0 l
o
np
77.04 242.27 m
-7.20 0 l
o
np
77.04 335.08 m
-7.20 0 l
o
np
77.04 427.88 m
-7.20 0 l
o
59.76 149.47 (-2) .5 90 t
59.76 242.27 (0) .5 90 t
59.76 335.08 (2) .5 90 t
59.76 427.88 (4) .5 90 t
np
77.04 91.44 m
716.61 0 l
0 426.80 l
-716.61 0 l
0 -426.80 l
o
18.00 18.00 823.89 577.28 cl
/Font5 findfont 12 s
0 0 0 srgb
432.38 36.95 (d) 0 0 t
28.28 299.32 (b) 0 90 t
/Font1 findfont 8 s
30.48 305.91 (2) 0 90 t
77.04 91.44 793.65 518.24 cl
1 0 0 srgb
0.75 setlinewidth
[] 0 setdash
1 setlinecap
1 setlinejoin
10.00 setmiterlimit
np
103.58 302.57 m
73.73 -23.38 l
73.72 -10.33 l
73.73 17.99 l
73.72 12.89 l
73.73 11.10 l
73.72 -51.60 l
73.73 -7.69 l
73.72 21.97 l
73.73 23.25 l
o
np
103.58 292.41 m
73.73 -26.45 l
73.72 2.69 l
73.73 -28.54 l
73.72 43.88 l
73.73 -18.28 l
73.72 10.91 l
73.73 -2.08 l
73.72 19.06 l
73.73 8.48 l
o
np
103.58 289.53 m
73.73 -5.08 l
73.72 -27.63 l
73.73 66.95 l
73.72 -35.79 l
73.73 16.95 l
73.72 4.44 l
73.73 -54.35 l
73.72 -17.41 l
73.73 36.26 l
o
np
103.58 292.80 m
73.73 -14.91 l
73.72 5.53 l
73.73 10.94 l
73.72 -25.53 l
73.73 36.64 l
73.72 -18.03 l
73.73 -72.51 l
73.72 72.10 l
73.73 16.25 l
o
np
103.58 305.55 m
73.73 -11.65 l
73.72 -6.20 l
73.73 -26.64 l
73.72 19.64 l
73.73 -12.17 l
73.72 11.02 l
73.73 38.05 l
73.72 37.61 l
73.73 -72.29 l
o
np
103.58 299.57 m
73.73 -9.77 l
73.72 -46.47 l
73.73 33.58 l
73.72 11.07 l
73.73 53.91 l
73.72 -73.64 l
73.73 52.20 l
73.72 -95.18 l
73.73 62.61 l
o
np
103.58 304.82 m
73.73 -24.53 l
73.72 -14.27 l
73.73 18.49 l
73.72 -21.82 l
73.73 11.25 l
73.72 28.17 l
73.73 39.61 l
73.72 -80.53 l
73.73 -31.14 l
o
np
103.58 294.22 m
73.73 -22.66 l
73.72 -14.41 l
73.73 22.96 l
73.72 -16.43 l
73.73 -0.10 l
73.72 46.68 l
73.73 -18.39 l
73.72 -48.87 l
73.73 55.58 l
o
np
103.58 285.54 m
73.73 -9.25 l
73.72 -13.88 l
73.73 -10.21 l
73.72 55.91 l
73.73 -2.82 l
73.72 -75.26 l
73.73 87.55 l
73.72 -57.16 l
73.73 -11.18 l
o
np
103.58 320.99 m
73.73 -8.29 l
73.72 -1.31 l
73.73 -45.52 l
73.72 17.78 l
73.73 20.32 l
73.72 -29.41 l
73.73 -11.06 l
73.72 48.27 l
73.73 11.17 l
o
np
103.58 320.08 m
73.73 -6.35 l
73.72 -27.93 l
73.73 14.90 l
73.72 6.90 l
73.73 13.61 l
73.72 -51.86 l
73.73 -11.04 l
73.72 23.46 l
73.73 24.09 l
o
np
103.58 318.15 m
73.73 -11.38 l
73.72 -10.95 l
73.73 -33.96 l
73.72 31.79 l
73.73 -15.74 l
73.72 9.30 l
73.73 -2.88 l
73.72 20.82 l
73.73 7.39 l
o
np
103.58 313.26 m
73.73 -0.38 l
73.72 -39.21 l
73.73 73.35 l
73.72 -48.93 l
73.73 15.10 l
73.72 5.61 l
73.73 -50.67 l
73.72 -21.31 l
73.73 35.49 l
o
np
103.58 314.80 m
73.73 -11.84 l
73.72 0.71 l
73.73 12.42 l
73.72 -30.30 l
73.73 25.03 l
73.72 -16.06 l
73.73 -69.98 l
73.72 72.69 l
73.73 13.11 l
o
np
103.58 335.34 m
73.73 -10.98 l
73.72 -17.05 l
73.73 -30.90 l
73.72 14.23 l
73.73 -4.23 l
73.72 1.48 l
73.73 46.47 l
73.72 35.12 l
73.73 -77.16 l
o
np
103.58 321.06 m
73.73 -6.91 l
73.72 -17.59 l
73.73 4.84 l
73.72 -3.28 l
73.73 54.97 l
73.72 -76.41 l
73.73 52.04 l
73.72 -93.03 l
73.73 62.16 l
o
np
103.58 323.69 m
73.73 -10.59 l
73.72 -35.54 l
73.73 19.41 l
73.72 -17.94 l
73.73 3.89 l
73.72 30.68 l
73.73 40.28 l
73.72 -85.24 l
73.73 -27.76 l
o
np
103.58 321.62 m
73.73 -22.43 l
73.72 -21.51 l
73.73 13.44 l
73.72 -13.65 l
73.73 -1.79 l
73.72 41.43 l
73.73 -14.86 l
73.72 -47.64 l
73.73 52.93 l
o
np
103.58 310.74 m
73.73 -5.44 l
73.72 -22.73 l
73.73 -14.95 l
73.72 50.20 l
73.73 -3.27 l
73.72 -75.13 l
73.73 86.11 l
73.72 -57.64 l
73.73 -9.58 l
o
0 0 1 srgb
0.75 setlinewidth
[ 2.25 3.75] 0 setdash
np
103.58 387.27 m
73.73 -8.81 l
73.72 -26.37 l
73.73 -28.37 l
73.72 -40.83 l
73.73 16.07 l
73.72 40.59 l
73.73 -202.68 l
73.72 22.98 l
73.73 -52.60 l
o
np
103.58 413.20 m
73.73 -19.36 l
73.72 -49.66 l
73.73 -48.41 l
73.72 20.74 l
73.73 -13.53 l
73.72 -22.95 l
73.73 0.20 l
73.72 -49.91 l
73.73 -72.49 l
o
np
103.58 412.35 m
73.73 -23.71 l
73.72 -54.79 l
73.73 15.70 l
73.72 -19.42 l
73.73 -48.79 l
73.72 -26.93 l
73.73 18.80 l
73.72 -50.00 l
73.73 59.13 l
o
np
103.58 370.57 m
73.73 -21.48 l
73.72 -32.70 l
73.73 6.93 l
73.72 -34.36 l
73.73 -15.71 l
73.72 -13.40 l
73.73 -40.77 l
73.72 14.31 l
73.73 -19.78 l
o
np
103.58 401.95 m
73.73 -5.79 l
73.72 -26.74 l
73.73 -31.98 l
73.72 -90.41 l
73.73 38.98 l
73.72 26.95 l
73.73 -50.93 l
73.72 59.89 l
73.73 -98.56 l
o
np
103.58 399.14 m
73.73 -26.49 l
73.72 -10.98 l
73.73 -34.75 l
73.72 -58.53 l
73.73 6.73 l
73.72 -19.49 l
73.73 -6.80 l
73.72 -16.32 l
73.73 -41.29 l
o
np
103.58 382.64 m
73.73 -3.34 l
73.72 -29.16 l
73.73 -33.96 l
73.72 -0.50 l
73.73 -33.51 l
73.72 -23.70 l
73.73 -9.06 l
73.72 -20.20 l
73.73 12.14 l
o
np
103.58 396.23 m
73.73 -42.42 l
73.72 -24.94 l
73.73 -39.69 l
73.72 -20.95 l
73.73 -11.98 l
73.72 26.92 l
73.73 -21.35 l
73.72 -22.61 l
73.73 33.11 l
o
np
103.58 375.31 m
73.73 -26.82 l
73.72 -42.67 l
73.73 -13.54 l
73.72 -21.72 l
73.73 35.28 l
73.72 -31.70 l
73.73 -112.58 l
73.72 140.51 l
73.73 -60.61 l
o
np
103.58 404.31 m
73.73 -42.19 l
73.72 -32.58 l
73.73 -6.65 l
73.72 -12.65 l
73.73 -4.05 l
73.72 -78.06 l
73.73 30.35 l
73.72 -93.22 l
73.73 94.52 l
o
np
103.58 471.55 m
73.73 -9.21 l
73.72 17.66 l
73.73 -57.39 l
73.72 15.04 l
73.73 -50.73 l
73.72 69.34 l
73.73 -191.64 l
73.72 51.52 l
73.73 -27.71 l
o
np
103.58 482.19 m
73.73 6.51 l
73.72 -52.96 l
73.73 -36.03 l
73.72 -19.52 l
73.73 89.50 l
73.72 -79.20 l
73.73 -15.42 l
73.72 5.06 l
73.73 -95.83 l
o
np
103.58 492.78 m
73.73 -33.88 l
73.72 -32.05 l
73.73 19.23 l
73.72 -0.89 l
73.73 -28.10 l
73.72 -87.43 l
73.73 23.93 l
73.72 42.06 l
73.73 -14.81 l
o
np
103.58 441.54 m
73.73 -22.04 l
73.72 -8.73 l
73.73 -33.66 l
73.72 21.91 l
73.73 -69.66 l
73.72 0.53 l
73.73 -25.04 l
73.72 24.49 l
73.73 -36.67 l
o
np
103.58 449.37 m
73.73 18.30 l
73.72 13.58 l
73.73 -29.35 l
73.72 -55.95 l
73.73 -9.08 l
73.72 31.21 l
73.73 -94.87 l
73.72 107.91 l
73.73 -126.25 l
o
np
103.58 455.30 m
73.73 -27.17 l
73.72 28.28 l
73.73 3.16 l
73.72 -80.11 l
73.73 -55.53 l
73.72 24.45 l
73.73 -2.31 l
73.72 -18.41 l
73.73 -27.62 l
o
np
103.58 443.92 m
73.73 58.51 l
73.72 -78.24 l
73.73 -4.86 l
73.72 -37.93 l
73.73 -12.45 l
73.72 -42.36 l
73.73 30.00 l
73.72 -67.27 l
73.73 59.99 l
o
np
103.58 459.04 m
73.73 -32.31 l
73.72 -33.72 l
73.73 17.01 l
73.72 -8.92 l
73.73 -36.89 l
73.72 26.73 l
73.73 -32.72 l
73.72 -22.43 l
73.73 5.09 l
o
np
103.58 457.51 m
73.73 -56.73 l
73.72 -0.64 l
73.73 -32.56 l
73.72 35.74 l
73.73 20.21 l
73.72 -63.36 l
73.73 -57.40 l
73.72 61.82 l
73.73 -24.88 l
o
np
103.58 481.21 m
73.73 2.69 l
73.72 -75.32 l
73.73 24.64 l
73.72 -51.57 l
73.73 18.25 l
73.72 -124.51 l
73.73 41.55 l
73.72 -73.75 l
73.73 80.86 l
o
ep
%%Trailer
%%Pages: 1
%%EOF
