%!PS-Adobe-3.0
%%DocumentNeededResources: font Helvetica
%%+ font Helvetica-Bold
%%+ font Helvetica-Oblique
%%+ font Helvetica-BoldOblique
%%+ font Symbol
%%DocumentMedia: a4 595 841 0 () ()
%%Title: R Graphics Output
%%Creator: R Software
%%Pages: (atend)
%%Orientation: Landscape
%%BoundingBox: 18 18 577 824
%%EndComments
%%BeginProlog
/bp  { gs sRGB 595.00 0 translate 90 rotate gs } def
% begin .ps.prolog
/gs  { gsave } bind def
/gr  { grestore } bind def
/ep  { showpage gr gr } bind def
/m   { moveto } bind def
/l  { rlineto } bind def
/np  { newpath } bind def
/cp  { closepath } bind def
/f   { fill } bind def
/o   { stroke } bind def
/c   { newpath 0 360 arc } bind def
/r   { 4 2 roll moveto 1 copy 3 -1 roll exch 0 exch rlineto 0 rlineto -1 mul 0 exch rlineto closepath } bind def
/p1  { stroke } bind def
/p2  { gsave bg fill grestore newpath } bind def
/p3  { gsave bg fill grestore stroke } bind def
/p6  { gsave bg eofill grestore newpath } bind def
/p7  { gsave bg eofill grestore stroke } bind def
/t   { 5 -2 roll moveto gsave rotate
       1 index stringwidth pop
       mul neg 0 rmoveto show grestore } bind def
/ta  { 4 -2 roll moveto gsave rotate show } bind def
/tb  { 2 -1 roll 0 rmoveto show } bind def
/cl  { grestore gsave newpath 3 index 3 index moveto 1 index
       4 -1 roll lineto  exch 1 index lineto lineto
       closepath clip newpath } bind def
/rgb { setrgbcolor } bind def
/s   { scalefont setfont } bind def
% end   .ps.prolog
/sRGB { [ /CIEBasedABC
          << /DecodeLMN
               [ { dup 0.03928 le
                        {12.92321 div}
                        {0.055 add 1.055 div 2.4 exp }
                     ifelse
                 } bind dup dup
               ]
             /MatrixLMN [0.412457 0.212673 0.019334
                         0.357576 0.715152 0.119192
                         0.180437 0.072175 0.950301]
             /WhitePoint [0.9505 1.0 1.0890]
           >>
         ] setcolorspace } bind def
/srgb { setcolor } bind def
%%IncludeResource: font Helvetica
/Helvetica findfont
dup length dict begin
  {1 index /FID ne {def} {pop pop} ifelse} forall
  /Encoding ISOLatin1Encoding def
  currentdict
  end
/Font1 exch definefont pop
%%IncludeResource: font Helvetica-Bold
/Helvetica-Bold findfont
dup length dict begin
  {1 index /FID ne {def} {pop pop} ifelse} forall
  /Encoding ISOLatin1Encoding def
  currentdict
  end
/Font2 exch definefont pop
%%IncludeResource: font Helvetica-Oblique
/Helvetica-Oblique findfont
dup length dict begin
  {1 index /FID ne {def} {pop pop} ifelse} forall
  /Encoding ISOLatin1Encoding def
  currentdict
  end
/Font3 exch definefont pop
%%IncludeResource: font Helvetica-BoldOblique
/Helvetica-BoldOblique findfont
dup length dict begin
  {1 index /FID ne {def} {pop pop} ifelse} forall
  /Encoding ISOLatin1Encoding def
  currentdict
  end
/Font4 exch definefont pop
%%IncludeResource: font Symbol
/Symbol findfont
dup length dict begin
  {1 index /FID ne {def} {pop pop} ifelse} forall
  currentdict
  end
/Font5 exch definefont pop
%%EndProlog
%%Page: 1 1
bp
77.04 91.44 793.65 518.24 cl
1 0 0 srgb
0.75 setlinewidth
[] 0 setdash
1 setlinecap
1 setlinejoin
10.00 setmiterlimit
np
103.58 221.82 m
73.73 -45.79 l
73.72 1.44 l
73.73 -0.85 l
73.72 -16.62 l
73.73 33.00 l
73.72 -7.61 l
73.73 -29.33 l
73.72 54.26 l
73.73 4.49 l
o
18.00 18.00 823.89 577.28 cl
0 0 0 srgb
0.75 setlinewidth
[] 0 setdash
1 setlinecap
1 setlinejoin
10.00 setmiterlimit
np
243.27 91.44 m
523.84 0 l
o
np
243.27 91.44 m
0 -7.20 l
o
np
417.88 91.44 m
0 -7.20 l
o
np
592.50 91.44 m
0 -7.20 l
o
np
767.11 91.44 m
0 -7.20 l
o
/Font1 findfont 12 s
243.27 65.52 (0.5) .5 0 t
417.88 65.52 (1.0) .5 0 t
592.50 65.52 (1.5) .5 0 t
767.11 65.52 (2.0) .5 0 t
np
77.04 118.61 m
0 370.99 l
o
np
77.04 118.61 m
-7.20 0 l
o
np
77.04 192.81 m
-7.20 0 l
o
np
77.04 267.01 m
-7.20 0 l
o
np
77.04 341.21 m
-7.20 0 l
o
np
77.04 415.40 m
-7.20 0 l
o
np
77.04 489.60 m
-7.20 0 l
o
59.76 118.61 (0) .5 90 t
59.76 192.81 (1) .5 90 t
59.76 267.01 (2) .5 90 t
59.76 341.21 (3) .5 90 t
59.76 415.40 (4) .5 90 t
59.76 489.60 (5) .5 90 t
np
77.04 91.44 m
716.61 0 l
0 426.80 l
-716.61 0 l
0 -426.80 l
o
18.00 18.00 823.89 577.28 cl
/Font5 findfont 12 s
0 0 0 srgb
432.38 36.95 (d) 0 0 t
28.28 299.32 (b) 0 90 t
/Font1 findfont 8 s
30.48 305.91 (2) 0 90 t
77.04 91.44 793.65 518.24 cl
1 0 0 srgb
0.75 setlinewidth
[] 0 setdash
1 setlinecap
1 setlinejoin
10.00 setmiterlimit
np
103.58 221.43 m
73.73 -43.39 l
73.72 7.47 l
73.73 13.94 l
73.72 5.24 l
73.73 38.25 l
73.72 -102.89 l
73.73 -30.25 l
73.72 48.81 l
73.73 73.24 l
o
np
103.58 202.69 m
73.73 -46.73 l
73.72 3.49 l
73.73 -30.09 l
73.72 -4.44 l
73.73 48.41 l
73.72 34.43 l
73.73 -91.67 l
73.72 127.02 l
73.73 -15.11 l
o
np
103.58 199.81 m
73.73 -37.04 l
73.72 -43.62 l
73.73 112.81 l
73.72 -28.28 l
73.73 12.55 l
73.72 -5.08 l
73.73 -82.64 l
73.72 2.08 l
73.73 92.31 l
o
np
103.58 195.29 m
73.73 -14.50 l
73.72 14.75 l
73.73 19.48 l
73.72 -72.53 l
73.73 25.89 l
73.72 -11.99 l
73.73 -34.06 l
73.72 71.07 l
73.73 25.84 l
o
np
103.58 218.93 m
73.73 -36.65 l
73.72 31.70 l
73.73 -59.55 l
73.72 4.53 l
73.73 31.45 l
73.72 -48.33 l
73.73 67.31 l
73.72 57.31 l
73.73 -92.46 l
o
np
103.58 205.51 m
73.73 -14.52 l
73.72 -42.59 l
73.73 27.42 l
73.72 10.62 l
73.73 69.76 l
73.72 -109.83 l
73.73 139.52 l
73.72 -166.81 l
73.73 70.93 l
o
np
103.58 218.48 m
73.73 -36.31 l
73.72 -11.25 l
73.73 -8.75 l
73.72 -13.76 l
73.73 3.74 l
73.72 101.21 l
73.73 2.37 l
73.72 -133.23 l
73.73 -15.25 l
o
np
103.58 197.52 m
73.73 -17.39 l
73.72 -13.32 l
73.73 36.77 l
73.72 -24.96 l
73.73 -45.96 l
73.72 87.34 l
73.73 -26.54 l
73.72 -83.39 l
73.73 98.94 l
o
np
103.58 210.73 m
73.73 -27.03 l
73.72 0.78 l
73.73 3.34 l
73.72 31.08 l
73.73 13.92 l
73.72 -108.53 l
73.73 108.28 l
73.72 -90.45 l
73.73 24.13 l
o
np
103.58 268.22 m
73.73 -44.34 l
73.72 23.59 l
73.73 -41.94 l
73.72 -24.76 l
73.73 28.61 l
73.72 -6.55 l
73.73 -34.29 l
73.72 69.14 l
73.73 -7.91 l
o
np
103.58 248.85 m
73.73 -24.29 l
73.72 5.85 l
73.73 -12.52 l
73.72 1.28 l
73.73 43.46 l
73.72 -105.43 l
73.73 -36.82 l
73.72 70.50 l
73.73 56.31 l
o
np
103.58 248.49 m
73.73 -30.24 l
73.72 -25.42 l
73.73 -41.18 l
73.72 -8.10 l
73.73 56.47 l
73.72 24.80 l
73.73 -90.44 l
73.72 125.31 l
73.73 -17.50 l
o
np
103.58 229.06 m
73.73 4.15 l
73.72 -85.58 l
73.73 111.96 l
73.72 -40.18 l
73.73 12.83 l
73.72 -8.52 l
73.73 -78.71 l
73.72 0.20 l
73.73 99.07 l
o
np
103.58 243.64 m
73.73 -24.89 l
73.72 -3.58 l
73.73 53.39 l
73.72 -110.76 l
73.73 38.69 l
73.72 -13.54 l
73.73 -46.67 l
73.72 71.18 l
73.73 24.92 l
o
np
103.58 265.68 m
73.73 -32.27 l
73.72 7.55 l
73.73 -71.07 l
73.72 5.69 l
73.73 25.53 l
73.72 -45.74 l
73.73 70.31 l
73.72 72.20 l
73.73 -95.70 l
o
np
103.58 246.77 m
73.73 -15.16 l
73.72 -58.57 l
73.73 23.44 l
73.72 13.41 l
73.73 77.02 l
73.72 -123.81 l
73.73 133.46 l
73.72 -136.14 l
73.73 45.68 l
o
np
103.58 251.96 m
73.73 -25.84 l
73.72 -17.55 l
73.73 -10.34 l
73.72 -24.92 l
73.73 -5.13 l
73.72 99.18 l
73.73 7.37 l
73.72 -134.20 l
73.73 -18.90 l
o
np
103.58 237.36 m
73.73 -20.40 l
73.72 -25.43 l
73.73 30.04 l
73.72 -17.36 l
73.73 -52.84 l
73.72 88.61 l
73.73 -32.34 l
73.72 -78.99 l
73.73 102.48 l
o
np
103.58 250.47 m
73.73 -8.23 l
73.72 -26.85 l
73.73 8.82 l
73.72 24.10 l
73.73 -2.14 l
73.72 -102.99 l
73.73 100.98 l
73.72 -90.34 l
73.73 26.32 l
o
0 0 1 srgb
0.75 setlinewidth
[ 2.25 3.75] 0 setdash
np
103.58 370.73 m
73.73 -61.23 l
73.72 -36.02 l
73.73 -13.96 l
73.72 -10.35 l
73.73 11.20 l
73.72 35.56 l
73.73 -188.28 l
73.72 57.58 l
73.73 -41.83 l
o
np
103.58 390.19 m
73.73 -81.40 l
73.72 -41.58 l
73.73 -36.39 l
73.72 40.47 l
73.73 -9.51 l
73.72 -13.15 l
73.73 -3.28 l
73.72 -32.56 l
73.73 -49.52 l
o
np
103.58 370.39 m
73.73 -74.27 l
73.72 -60.22 l
73.73 40.90 l
73.72 -1.76 l
73.73 -26.40 l
73.72 -30.63 l
73.73 21.73 l
73.72 -41.37 l
73.73 53.22 l
o
np
103.58 391.05 m
73.73 -107.80 l
73.72 -23.43 l
73.73 -56.71 l
73.72 45.12 l
73.73 -32.26 l
73.72 22.22 l
73.73 -46.11 l
73.72 16.92 l
73.73 -15.87 l
o
np
103.58 369.39 m
73.73 -49.96 l
73.72 -34.79 l
73.73 -7.16 l
73.72 -67.07 l
73.73 38.23 l
73.72 23.89 l
73.73 -40.71 l
73.72 47.24 l
73.73 -68.74 l
o
np
103.58 370.43 m
73.73 -58.08 l
73.72 -21.14 l
73.73 -29.24 l
73.72 -59.51 l
73.73 30.59 l
73.72 -39.25 l
73.73 29.32 l
73.72 -25.07 l
73.73 -18.88 l
o
np
103.58 360.62 m
73.73 -33.60 l
73.72 -46.26 l
73.73 -26.87 l
73.72 -1.66 l
73.73 -12.79 l
73.72 -16.08 l
73.73 -4.60 l
73.72 -36.31 l
73.73 33.86 l
o
np
103.58 393.60 m
73.73 -85.16 l
73.72 -49.12 l
73.73 -20.54 l
73.72 -12.15 l
73.73 -28.53 l
73.72 54.21 l
73.73 -12.00 l
73.72 -14.33 l
73.73 27.06 l
o
np
103.58 367.37 m
73.73 -73.00 l
73.72 -44.23 l
73.73 -40.06 l
73.72 23.11 l
73.73 31.02 l
73.72 -20.67 l
73.73 -119.14 l
73.72 145.11 l
73.73 -61.66 l
o
np
103.58 370.89 m
73.73 -82.64 l
73.72 -23.07 l
73.73 4.36 l
73.72 -19.99 l
73.73 2.75 l
73.72 -74.64 l
73.73 51.24 l
73.72 -92.10 l
73.73 97.30 l
o
np
103.58 435.87 m
73.73 -22.16 l
73.72 -6.18 l
73.73 -92.27 l
73.72 30.57 l
73.73 -25.45 l
73.72 62.86 l
73.73 -137.95 l
73.72 36.75 l
73.73 -17.13 l
o
np
103.58 461.64 m
73.73 -40.40 l
73.72 -66.01 l
73.73 -55.46 l
73.72 7.87 l
73.73 71.21 l
73.72 -56.61 l
73.73 -13.80 l
73.72 -25.61 l
73.73 -24.86 l
o
np
103.58 448.50 m
73.73 -52.48 l
73.72 -52.18 l
73.73 3.30 l
73.72 25.17 l
73.73 -39.57 l
73.72 -58.36 l
73.73 16.54 l
73.72 0.81 l
73.73 24.17 l
o
np
103.58 472.12 m
73.73 -52.40 l
73.72 -60.09 l
73.73 -87.66 l
73.72 90.88 l
73.73 -79.43 l
73.72 9.63 l
73.73 -38.54 l
73.72 29.59 l
73.73 -23.77 l
o
np
103.58 400.95 m
73.73 -3.02 l
73.72 4.67 l
73.73 -31.22 l
73.72 -55.36 l
73.73 3.49 l
73.72 25.59 l
73.73 -69.66 l
73.72 84.90 l
73.73 -96.05 l
o
np
103.58 428.76 m
73.73 -48.66 l
73.72 28.06 l
73.73 -33.16 l
73.72 -105.72 l
73.73 1.77 l
73.72 -1.25 l
73.73 20.04 l
73.72 -16.97 l
73.73 -11.82 l
o
np
103.58 410.94 m
73.73 48.04 l
73.72 -88.35 l
73.73 -25.46 l
73.72 -25.82 l
73.73 -6.63 l
73.72 -38.66 l
73.73 30.85 l
73.72 -56.42 l
73.73 59.22 l
o
np
103.58 458.18 m
73.73 -56.34 l
73.72 -95.63 l
73.73 22.19 l
73.72 9.98 l
73.73 -58.38 l
73.72 41.89 l
73.73 -15.78 l
73.72 -20.37 l
73.73 8.82 l
o
np
103.58 502.43 m
73.73 -111.72 l
73.72 -20.62 l
73.73 -113.38 l
73.72 69.50 l
73.73 40.21 l
73.72 -52.56 l
73.73 -52.40 l
73.72 71.70 l
73.73 -72.57 l
o
np
103.58 436.88 m
73.73 -10.20 l
73.72 -95.18 l
73.73 27.99 l
73.72 -55.08 l
73.73 35.24 l
73.72 -122.80 l
73.73 60.73 l
73.72 -61.29 l
73.73 67.49 l
o
ep
%%Trailer
%%Pages: 1
%%EOF
