%!PS-Adobe-3.0
%%DocumentNeededResources: font Helvetica
%%+ font Helvetica-Bold
%%+ font Helvetica-Oblique
%%+ font Helvetica-BoldOblique
%%+ font Symbol
%%DocumentMedia: a4 595 841 0 () ()
%%Title: R Graphics Output
%%Creator: R Software
%%Pages: (atend)
%%Orientation: Landscape
%%BoundingBox: 18 18 577 824
%%EndComments
%%BeginProlog
/bp  { gs sRGB 595.00 0 translate 90 rotate gs } def
% begin .ps.prolog
/gs  { gsave } bind def
/gr  { grestore } bind def
/ep  { showpage gr gr } bind def
/m   { moveto } bind def
/l  { rlineto } bind def
/np  { newpath } bind def
/cp  { closepath } bind def
/f   { fill } bind def
/o   { stroke } bind def
/c   { newpath 0 360 arc } bind def
/r   { 4 2 roll moveto 1 copy 3 -1 roll exch 0 exch rlineto 0 rlineto -1 mul 0 exch rlineto closepath } bind def
/p1  { stroke } bind def
/p2  { gsave bg fill grestore newpath } bind def
/p3  { gsave bg fill grestore stroke } bind def
/p6  { gsave bg eofill grestore newpath } bind def
/p7  { gsave bg eofill grestore stroke } bind def
/t   { 5 -2 roll moveto gsave rotate
       1 index stringwidth pop
       mul neg 0 rmoveto show grestore } bind def
/ta  { 4 -2 roll moveto gsave rotate show } bind def
/tb  { 2 -1 roll 0 rmoveto show } bind def
/cl  { grestore gsave newpath 3 index 3 index moveto 1 index
       4 -1 roll lineto  exch 1 index lineto lineto
       closepath clip newpath } bind def
/rgb { setrgbcolor } bind def
/s   { scalefont setfont } bind def
% end   .ps.prolog
/sRGB { [ /CIEBasedABC
          << /DecodeLMN
               [ { dup 0.03928 le
                        {12.92321 div}
                        {0.055 add 1.055 div 2.4 exp }
                     ifelse
                 } bind dup dup
               ]
             /MatrixLMN [0.412457 0.212673 0.019334
                         0.357576 0.715152 0.119192
                         0.180437 0.072175 0.950301]
             /WhitePoint [0.9505 1.0 1.0890]
           >>
         ] setcolorspace } bind def
/srgb { setcolor } bind def
%%IncludeResource: font Helvetica
/Helvetica findfont
dup length dict begin
  {1 index /FID ne {def} {pop pop} ifelse} forall
  /Encoding ISOLatin1Encoding def
  currentdict
  end
/Font1 exch definefont pop
%%IncludeResource: font Helvetica-Bold
/Helvetica-Bold findfont
dup length dict begin
  {1 index /FID ne {def} {pop pop} ifelse} forall
  /Encoding ISOLatin1Encoding def
  currentdict
  end
/Font2 exch definefont pop
%%IncludeResource: font Helvetica-Oblique
/Helvetica-Oblique findfont
dup length dict begin
  {1 index /FID ne {def} {pop pop} ifelse} forall
  /Encoding ISOLatin1Encoding def
  currentdict
  end
/Font3 exch definefont pop
%%IncludeResource: font Helvetica-BoldOblique
/Helvetica-BoldOblique findfont
dup length dict begin
  {1 index /FID ne {def} {pop pop} ifelse} forall
  /Encoding ISOLatin1Encoding def
  currentdict
  end
/Font4 exch definefont pop
%%IncludeResource: font Symbol
/Symbol findfont
dup length dict begin
  {1 index /FID ne {def} {pop pop} ifelse} forall
  currentdict
  end
/Font5 exch definefont pop
%%EndProlog
%%Page: 1 1
bp
77.04 91.44 793.65 518.24 cl
1 0 0 srgb
0.75 setlinewidth
[] 0 setdash
1 setlinecap
1 setlinejoin
10.00 setmiterlimit
np
103.58 303.78 m
73.73 -26.08 l
73.72 -5.71 l
73.73 -5.00 l
73.72 26.60 l
73.73 -20.51 l
73.72 -4.95 l
73.73 -18.99 l
73.72 26.57 l
73.73 50.49 l
o
18.00 18.00 823.89 577.28 cl
0 0 0 srgb
0.75 setlinewidth
[] 0 setdash
1 setlinecap
1 setlinejoin
10.00 setmiterlimit
np
243.27 91.44 m
523.84 0 l
o
np
243.27 91.44 m
0 -7.20 l
o
np
417.88 91.44 m
0 -7.20 l
o
np
592.50 91.44 m
0 -7.20 l
o
np
767.11 91.44 m
0 -7.20 l
o
/Font1 findfont 12 s
243.27 65.52 (0.5) .5 0 t
417.88 65.52 (1.0) .5 0 t
592.50 65.52 (1.5) .5 0 t
767.11 65.52 (2.0) .5 0 t
np
77.04 143.15 m
0 288.24 l
o
np
77.04 143.15 m
-7.20 0 l
o
np
77.04 239.23 m
-7.20 0 l
o
np
77.04 335.31 m
-7.20 0 l
o
np
77.04 431.39 m
-7.20 0 l
o
59.76 143.15 (-2) .5 90 t
59.76 239.23 (0) .5 90 t
59.76 335.31 (2) .5 90 t
59.76 431.39 (4) .5 90 t
np
77.04 91.44 m
716.61 0 l
0 426.80 l
-716.61 0 l
0 -426.80 l
o
18.00 18.00 823.89 577.28 cl
/Font5 findfont 12 s
0 0 0 srgb
432.38 36.95 (d) 0 0 t
28.28 299.32 (b) 0 90 t
/Font1 findfont 8 s
30.48 305.91 (2) 0 90 t
77.04 91.44 793.65 518.24 cl
1 0 0 srgb
0.75 setlinewidth
[] 0 setdash
1 setlinecap
1 setlinejoin
10.00 setmiterlimit
np
103.58 302.69 m
73.73 -32.15 l
73.72 3.59 l
73.73 15.06 l
73.72 -10.50 l
73.73 39.41 l
73.72 -86.77 l
73.73 2.18 l
73.72 63.02 l
73.73 -7.19 l
o
np
103.58 290.43 m
73.73 -32.87 l
73.72 23.02 l
73.73 -46.66 l
73.72 21.23 l
73.73 28.27 l
73.72 6.64 l
73.73 -33.44 l
73.72 46.47 l
73.73 -9.45 l
o
np
103.58 290.18 m
73.73 -14.58 l
73.72 -12.71 l
73.73 63.88 l
73.72 -10.49 l
73.73 -12.94 l
73.72 -1.11 l
73.73 -53.26 l
73.72 19.32 l
73.73 -3.04 l
o
np
103.58 292.81 m
73.73 -15.63 l
73.72 17.36 l
73.73 12.63 l
73.72 -60.76 l
73.73 54.97 l
73.72 -17.72 l
73.73 -44.90 l
73.72 55.48 l
73.73 13.38 l
o
np
103.58 303.19 m
73.73 -7.81 l
73.72 -8.45 l
73.73 -16.14 l
73.72 5.79 l
73.73 23.82 l
73.72 -11.86 l
73.73 28.32 l
73.72 27.54 l
73.73 -52.68 l
o
np
103.58 296.52 m
73.73 -12.56 l
73.72 -20.18 l
73.73 8.56 l
73.72 2.20 l
73.73 59.41 l
73.72 -64.91 l
73.73 79.50 l
73.72 -125.09 l
73.73 55.64 l
o
np
103.58 300.14 m
73.73 -17.93 l
73.72 -26.63 l
73.73 34.96 l
73.72 -14.15 l
73.73 -15.56 l
73.72 56.45 l
73.73 14.53 l
73.72 -70.36 l
73.73 -14.53 l
o
np
103.58 294.17 m
73.73 -22.32 l
73.72 -26.65 l
73.73 40.17 l
73.72 -1.30 l
73.73 -36.16 l
73.72 53.71 l
73.73 -23.68 l
73.72 -46.65 l
73.73 70.56 l
o
np
103.58 290.44 m
73.73 -23.17 l
73.72 -1.23 l
73.73 -10.47 l
73.72 36.62 l
73.73 12.26 l
73.72 -55.40 l
73.73 68.78 l
73.72 -66.12 l
73.73 0.54 l
o
np
103.58 325.26 m
73.73 -8.35 l
73.72 0.52 l
73.73 -42.11 l
73.72 26.51 l
73.73 -8.81 l
73.72 -12.39 l
73.73 -22.24 l
73.72 30.11 l
73.73 45.12 l
o
np
103.58 324.39 m
73.73 -31.11 l
73.72 -1.32 l
73.73 12.74 l
73.72 -18.05 l
73.73 42.02 l
73.72 -87.89 l
73.73 5.97 l
73.72 59.96 l
73.73 -9.28 l
o
np
103.58 322.23 m
73.73 -19.20 l
73.72 -8.16 l
73.73 -48.83 l
73.72 24.90 l
73.73 29.64 l
73.72 1.94 l
73.73 -32.24 l
73.72 42.12 l
73.73 -3.78 l
o
np
103.58 313.59 m
73.73 -4.00 l
73.72 -32.88 l
73.73 62.04 l
73.72 -15.01 l
73.73 -8.51 l
73.72 0.98 l
73.73 -46.82 l
73.72 6.45 l
73.73 4.27 l
o
np
103.58 320.54 m
73.73 -12.21 l
73.72 7.82 l
73.73 16.48 l
73.72 -75.04 l
73.73 57.19 l
73.72 -23.19 l
73.73 -44.76 l
73.72 54.94 l
73.73 15.18 l
o
np
103.58 330.21 m
73.73 -10.75 l
73.72 5.23 l
73.73 -41.15 l
73.72 6.14 l
73.73 22.32 l
73.72 -13.64 l
73.73 27.01 l
73.72 28.98 l
73.73 -52.44 l
o
np
103.58 320.68 m
73.73 -1.00 l
73.72 -36.35 l
73.73 7.61 l
73.72 -7.62 l
73.73 61.07 l
73.72 -64.30 l
73.73 77.60 l
73.72 -120.93 l
73.73 50.83 l
o
np
103.58 326.64 m
73.73 -13.90 l
73.72 -26.78 l
73.73 17.02 l
73.72 -16.73 l
73.73 -9.03 l
73.72 48.94 l
73.73 15.68 l
73.72 -70.66 l
73.73 -14.73 l
o
np
103.58 316.76 m
73.73 -16.79 l
73.72 -30.16 l
73.73 27.73 l
73.72 -6.41 l
73.73 -26.01 l
73.72 43.72 l
73.73 -21.24 l
73.72 -45.24 l
73.73 69.35 l
o
np
103.58 316.91 m
73.73 -15.52 l
73.72 -8.43 l
73.73 -18.82 l
73.72 28.52 l
73.73 9.69 l
73.72 -45.40 l
73.73 59.46 l
73.72 -65.42 l
73.73 0.30 l
o
0 0 1 srgb
0.75 setlinewidth
[ 2.25 3.75] 0 setdash
np
103.58 392.31 m
73.73 -9.98 l
73.72 -26.30 l
73.73 -27.82 l
73.72 -40.76 l
73.73 17.44 l
73.72 39.48 l
73.73 -210.43 l
73.72 28.66 l
73.73 -55.35 l
o
np
103.58 419.39 m
73.73 -21.70 l
73.72 -52.59 l
73.73 -44.23 l
73.72 21.66 l
73.73 -13.26 l
73.72 -23.38 l
73.73 0.51 l
73.72 -49.48 l
73.73 -72.14 l
o
np
103.58 415.20 m
73.73 -24.92 l
73.72 -59.45 l
73.73 19.70 l
73.72 -15.74 l
73.73 -46.14 l
73.72 -35.81 l
73.73 26.27 l
73.72 -51.00 l
73.73 61.95 l
o
np
103.58 377.60 m
73.73 -22.82 l
73.72 -34.76 l
73.73 3.36 l
73.72 -28.34 l
73.73 -20.94 l
73.72 -9.61 l
73.73 -46.12 l
73.72 16.97 l
73.73 -19.80 l
o
np
103.58 402.44 m
73.73 -5.19 l
73.72 -26.97 l
73.73 -28.05 l
73.72 -91.96 l
73.73 42.57 l
73.72 26.79 l
73.73 -50.11 l
73.72 58.84 l
73.73 -97.31 l
o
np
103.58 403.24 m
73.73 -27.94 l
73.72 -10.61 l
73.73 -34.47 l
73.72 -61.46 l
73.73 11.04 l
73.72 -19.24 l
73.73 -5.82 l
73.72 -20.37 l
73.73 -37.86 l
o
np
103.58 385.59 m
73.73 -5.83 l
73.72 -27.37 l
73.73 -36.93 l
73.72 1.52 l
73.73 -31.57 l
73.72 -23.47 l
73.73 -7.89 l
73.72 -24.28 l
73.73 15.61 l
o
np
103.58 403.06 m
73.73 -44.02 l
73.72 -29.14 l
73.73 -37.66 l
73.72 -20.85 l
73.73 -11.04 l
73.72 29.67 l
73.73 -20.07 l
73.72 -23.45 l
73.73 34.34 l
o
np
103.58 380.27 m
73.73 -27.81 l
73.72 -44.82 l
73.73 -12.04 l
73.72 -21.48 l
73.73 36.45 l
73.72 -31.11 l
73.73 -119.83 l
73.72 148.39 l
73.73 -70.18 l
o
np
103.58 410.12 m
73.73 -44.06 l
73.72 -32.52 l
73.73 -3.71 l
73.72 -15.13 l
73.73 -12.49 l
73.72 -72.03 l
73.73 32.95 l
73.72 -96.66 l
73.73 98.14 l
o
np
103.58 474.81 m
73.73 -8.95 l
73.72 14.23 l
73.73 -57.58 l
73.72 21.06 l
73.73 -49.47 l
73.72 64.62 l
73.73 -186.48 l
73.72 54.09 l
73.73 -28.91 l
o
np
103.58 489.00 m
73.73 4.21 l
73.72 -53.39 l
73.73 -40.88 l
73.72 -15.94 l
73.73 90.90 l
73.72 -79.09 l
73.73 -15.73 l
73.72 -2.58 l
73.73 -83.73 l
o
np
103.58 492.59 m
73.73 -32.33 l
73.72 -32.92 l
73.73 17.75 l
73.72 3.88 l
73.73 -30.18 l
73.72 -84.90 l
73.73 23.86 l
73.72 38.91 l
73.73 -14.33 l
o
np
103.58 452.45 m
73.73 -22.16 l
73.72 -11.07 l
73.73 -36.26 l
73.72 25.72 l
73.73 -74.67 l
73.72 5.24 l
73.73 -29.97 l
73.72 27.26 l
73.73 -37.50 l
o
np
103.58 449.20 m
73.73 15.70 l
73.72 11.18 l
73.73 -26.61 l
73.72 -50.95 l
73.73 -8.67 l
73.72 33.42 l
73.73 -94.19 l
73.72 105.29 l
73.73 -122.90 l
o
np
103.58 457.03 m
73.73 -26.61 l
73.72 26.65 l
73.73 5.51 l
73.72 -80.19 l
73.73 -53.54 l
73.72 16.26 l
73.73 6.60 l
73.72 -21.86 l
73.73 -23.79 l
o
np
103.58 446.17 m
73.73 56.26 l
73.72 -77.14 l
73.73 -3.70 l
73.72 -34.80 l
73.73 -12.48 l
73.72 -42.52 l
73.73 31.56 l
73.72 -69.70 l
73.73 62.40 l
o
np
103.58 467.07 m
73.73 -34.65 l
73.72 -36.77 l
73.73 21.42 l
73.72 -11.32 l
73.73 -50.20 l
73.72 41.86 l
73.73 -30.80 l
73.72 -23.30 l
73.73 6.85 l
o
np
103.58 463.90 m
73.73 -58.63 l
73.72 -1.75 l
73.73 -32.81 l
73.72 31.17 l
73.73 27.41 l
73.72 -62.97 l
73.73 -58.42 l
73.72 63.54 l
73.73 -31.34 l
o
np
103.58 483.89 m
73.73 0.54 l
73.72 -73.42 l
73.73 28.88 l
73.72 -55.90 l
73.73 22.28 l
73.72 -129.58 l
73.73 47.80 l
73.72 -75.32 l
73.73 82.00 l
o
ep
%%Trailer
%%Pages: 1
%%EOF
