%!PS-Adobe-3.0
%%DocumentNeededResources: font Helvetica
%%+ font Helvetica-Bold
%%+ font Helvetica-Oblique
%%+ font Helvetica-BoldOblique
%%+ font Symbol
%%DocumentMedia: a4 595 841 0 () ()
%%Title: R Graphics Output
%%Creator: R Software
%%Pages: (atend)
%%Orientation: Landscape
%%BoundingBox: 18 18 577 824
%%EndComments
%%BeginProlog
/bp  { gs sRGB 595.00 0 translate 90 rotate gs } def
% begin .ps.prolog
/gs  { gsave } bind def
/gr  { grestore } bind def
/ep  { showpage gr gr } bind def
/m   { moveto } bind def
/l  { rlineto } bind def
/np  { newpath } bind def
/cp  { closepath } bind def
/f   { fill } bind def
/o   { stroke } bind def
/c   { newpath 0 360 arc } bind def
/r   { 4 2 roll moveto 1 copy 3 -1 roll exch 0 exch rlineto 0 rlineto -1 mul 0 exch rlineto closepath } bind def
/p1  { stroke } bind def
/p2  { gsave bg fill grestore newpath } bind def
/p3  { gsave bg fill grestore stroke } bind def
/p6  { gsave bg eofill grestore newpath } bind def
/p7  { gsave bg eofill grestore stroke } bind def
/t   { 5 -2 roll moveto gsave rotate
       1 index stringwidth pop
       mul neg 0 rmoveto show grestore } bind def
/ta  { 4 -2 roll moveto gsave rotate show } bind def
/tb  { 2 -1 roll 0 rmoveto show } bind def
/cl  { grestore gsave newpath 3 index 3 index moveto 1 index
       4 -1 roll lineto  exch 1 index lineto lineto
       closepath clip newpath } bind def
/rgb { setrgbcolor } bind def
/s   { scalefont setfont } bind def
% end   .ps.prolog
/sRGB { [ /CIEBasedABC
          << /DecodeLMN
               [ { dup 0.03928 le
                        {12.92321 div}
                        {0.055 add 1.055 div 2.4 exp }
                     ifelse
                 } bind dup dup
               ]
             /MatrixLMN [0.412457 0.212673 0.019334
                         0.357576 0.715152 0.119192
                         0.180437 0.072175 0.950301]
             /WhitePoint [0.9505 1.0 1.0890]
           >>
         ] setcolorspace } bind def
/srgb { setcolor } bind def
%%IncludeResource: font Helvetica
/Helvetica findfont
dup length dict begin
  {1 index /FID ne {def} {pop pop} ifelse} forall
  /Encoding ISOLatin1Encoding def
  currentdict
  end
/Font1 exch definefont pop
%%IncludeResource: font Helvetica-Bold
/Helvetica-Bold findfont
dup length dict begin
  {1 index /FID ne {def} {pop pop} ifelse} forall
  /Encoding ISOLatin1Encoding def
  currentdict
  end
/Font2 exch definefont pop
%%IncludeResource: font Helvetica-Oblique
/Helvetica-Oblique findfont
dup length dict begin
  {1 index /FID ne {def} {pop pop} ifelse} forall
  /Encoding ISOLatin1Encoding def
  currentdict
  end
/Font3 exch definefont pop
%%IncludeResource: font Helvetica-BoldOblique
/Helvetica-BoldOblique findfont
dup length dict begin
  {1 index /FID ne {def} {pop pop} ifelse} forall
  /Encoding ISOLatin1Encoding def
  currentdict
  end
/Font4 exch definefont pop
%%IncludeResource: font Symbol
/Symbol findfont
dup length dict begin
  {1 index /FID ne {def} {pop pop} ifelse} forall
  currentdict
  end
/Font5 exch definefont pop
%%EndProlog
%%Page: 1 1
bp
77.04 91.44 793.65 518.24 cl
1 0 0 srgb
0.75 setlinewidth
[] 0 setdash
1 setlinecap
1 setlinejoin
10.00 setmiterlimit
np
103.58 229.48 m
73.73 -54.23 l
73.72 10.48 l
73.73 16.34 l
73.72 -17.53 l
73.73 -12.47 l
73.72 89.19 l
73.73 -68.30 l
73.72 73.90 l
73.73 -7.11 l
o
18.00 18.00 823.89 577.28 cl
0 0 0 srgb
0.75 setlinewidth
[] 0 setdash
1 setlinecap
1 setlinejoin
10.00 setmiterlimit
np
243.27 91.44 m
523.84 0 l
o
np
243.27 91.44 m
0 -7.20 l
o
np
417.88 91.44 m
0 -7.20 l
o
np
592.50 91.44 m
0 -7.20 l
o
np
767.11 91.44 m
0 -7.20 l
o
/Font1 findfont 12 s
243.27 65.52 (0.5) .5 0 t
417.88 65.52 (1.0) .5 0 t
592.50 65.52 (1.5) .5 0 t
767.11 65.52 (2.0) .5 0 t
np
77.04 127.55 m
0 362.19 l
o
np
77.04 127.55 m
-7.20 0 l
o
np
77.04 199.99 m
-7.20 0 l
o
np
77.04 272.43 m
-7.20 0 l
o
np
77.04 344.87 m
-7.20 0 l
o
np
77.04 417.30 m
-7.20 0 l
o
np
77.04 489.74 m
-7.20 0 l
o
59.76 127.55 (-1) .5 90 t
59.76 199.99 (0) .5 90 t
59.76 272.43 (1) .5 90 t
59.76 344.87 (2) .5 90 t
59.76 417.30 (3) .5 90 t
59.76 489.74 (4) .5 90 t
np
77.04 91.44 m
716.61 0 l
0 426.80 l
-716.61 0 l
0 -426.80 l
o
18.00 18.00 823.89 577.28 cl
/Font5 findfont 12 s
0 0 0 srgb
432.38 36.95 (d) 0 0 t
28.28 299.32 (b) 0 90 t
/Font1 findfont 8 s
30.48 305.91 (2) 0 90 t
77.04 91.44 793.65 518.24 cl
1 0 0 srgb
0.75 setlinewidth
[] 0 setdash
1 setlinecap
1 setlinejoin
10.00 setmiterlimit
np
103.58 228.35 m
73.73 -39.70 l
73.72 -7.57 l
73.73 -7.46 l
73.72 54.08 l
73.73 23.20 l
73.72 -66.67 l
73.73 -48.55 l
73.72 85.52 l
73.73 29.89 l
o
np
103.58 209.23 m
73.73 -58.16 l
73.72 18.21 l
73.73 -28.37 l
73.72 -4.15 l
73.73 85.21 l
73.72 63.92 l
73.73 -178.64 l
73.72 180.83 l
73.73 13.57 l
o
np
103.58 210.61 m
73.73 -19.17 l
73.72 -24.10 l
73.73 113.44 l
73.72 -51.66 l
73.73 12.82 l
73.72 -15.41 l
73.73 -55.37 l
73.72 11.57 l
73.73 22.67 l
o
np
103.58 204.21 m
73.73 -16.46 l
73.72 0.85 l
73.73 43.39 l
73.72 -55.12 l
73.73 55.28 l
73.72 -35.72 l
73.73 -29.49 l
73.72 95.16 l
73.73 -18.27 l
o
np
103.58 226.80 m
73.73 -18.54 l
73.72 1.78 l
73.73 -30.52 l
73.72 14.84 l
73.73 19.13 l
73.72 -24.36 l
73.73 115.38 l
73.72 -34.65 l
73.73 -69.74 l
o
np
103.58 220.33 m
73.73 -40.51 l
73.72 -16.73 l
73.73 29.69 l
73.72 -22.53 l
73.73 123.96 l
73.72 -99.88 l
73.73 81.50 l
73.72 -126.32 l
73.73 112.95 l
o
np
103.58 213.79 m
73.73 -33.86 l
73.72 -28.56 l
73.73 47.54 l
73.72 -16.48 l
73.73 36.04 l
73.72 48.67 l
73.73 17.35 l
73.72 -81.36 l
73.73 -63.94 l
o
np
103.58 209.57 m
73.73 -25.89 l
73.72 -41.71 l
73.73 44.63 l
73.72 2.20 l
73.73 -36.88 l
73.72 85.06 l
73.73 -42.85 l
73.72 -62.83 l
73.73 91.57 l
o
np
103.58 212.96 m
73.73 -14.20 l
73.72 -25.71 l
73.73 46.27 l
73.72 25.80 l
73.73 -11.26 l
73.72 -84.61 l
73.73 113.51 l
73.72 -126.42 l
73.73 32.26 l
o
np
103.58 263.53 m
73.73 -41.57 l
73.72 20.74 l
73.73 -16.03 l
73.72 -26.43 l
73.73 -4.15 l
73.72 94.67 l
73.73 -85.36 l
73.72 74.89 l
73.73 -3.53 l
o
np
103.58 258.77 m
73.73 -31.21 l
73.72 -25.86 l
73.73 27.52 l
73.72 18.64 l
73.73 19.26 l
73.72 -66.83 l
73.73 -49.48 l
73.72 85.51 l
73.73 26.19 l
o
np
103.58 253.18 m
73.73 -19.44 l
73.72 -32.64 l
73.73 -32.90 l
73.72 -5.52 l
73.73 81.03 l
73.72 59.13 l
73.73 -162.79 l
73.72 160.46 l
73.73 13.30 l
o
np
103.58 242.24 m
73.73 -3.81 l
73.72 -44.27 l
73.73 101.27 l
73.72 -55.19 l
73.73 19.41 l
73.72 -20.77 l
73.73 -55.95 l
73.72 24.47 l
73.73 16.42 l
o
np
103.58 239.27 m
73.73 1.11 l
73.72 -2.84 l
73.73 39.29 l
73.72 -85.90 l
73.73 52.37 l
73.72 -35.64 l
73.73 -28.98 l
73.72 96.96 l
73.73 -20.69 l
o
np
103.58 273.11 m
73.73 -19.41 l
73.72 -12.97 l
73.73 -39.67 l
73.72 23.65 l
73.73 0.23 l
73.72 -7.99 l
73.73 101.75 l
73.72 -35.64 l
73.73 -59.67 l
o
np
103.58 248.90 m
73.73 3.54 l
73.72 -57.63 l
73.73 38.74 l
73.72 -45.89 l
73.73 148.59 l
73.72 -126.32 l
73.73 81.13 l
73.72 -125.11 l
73.73 110.17 l
o
np
103.58 258.23 m
73.73 -29.11 l
73.72 -31.30 l
73.73 36.56 l
73.72 -38.14 l
73.73 34.74 l
73.72 55.21 l
73.73 16.54 l
73.72 -82.72 l
73.73 -64.43 l
o
np
103.58 243.15 m
73.73 -12.12 l
73.72 -52.73 l
73.73 24.19 l
73.72 10.61 l
73.73 -44.42 l
73.72 88.59 l
73.73 -51.30 l
73.72 -52.64 l
73.73 93.03 l
o
np
103.58 254.32 m
73.73 -14.71 l
73.72 4.90 l
73.73 -6.37 l
73.72 37.84 l
73.73 -25.74 l
73.72 -85.02 l
73.73 110.77 l
73.72 -127.96 l
73.73 33.88 l
o
0 0 1 srgb
0.75 setlinewidth
[ 2.25 3.75] 0 setdash
np
103.58 373.72 m
73.73 -59.78 l
73.72 -35.17 l
73.73 -13.45 l
73.72 -10.24 l
73.73 10.91 l
73.72 34.74 l
73.73 -183.69 l
73.72 56.15 l
73.73 -40.75 l
o
np
103.58 392.71 m
73.73 -79.45 l
73.72 -40.61 l
73.73 -35.49 l
73.72 39.49 l
73.73 -9.28 l
73.72 -12.78 l
73.73 -3.27 l
73.72 -31.75 l
73.73 -48.17 l
o
np
103.58 373.38 m
73.73 -72.51 l
73.72 -58.78 l
73.73 40.01 l
73.72 -1.80 l
73.73 -25.77 l
73.72 -29.85 l
73.73 21.16 l
73.72 -39.93 l
73.73 51.51 l
o
np
103.58 393.57 m
73.73 -105.26 l
73.72 -22.84 l
73.73 -55.24 l
73.72 44.08 l
73.73 -31.56 l
73.72 21.63 l
73.73 -44.97 l
73.72 16.49 l
73.73 -15.42 l
o
np
103.58 372.41 m
73.73 -48.78 l
73.72 -33.92 l
73.73 -7.01 l
73.72 -65.50 l
73.73 37.40 l
73.72 23.28 l
73.73 -39.56 l
73.72 45.94 l
73.73 -67.12 l
o
np
103.58 373.41 m
73.73 -56.69 l
73.72 -20.63 l
73.73 -28.53 l
73.72 -57.78 l
73.73 29.58 l
73.72 -38.31 l
73.73 28.56 l
73.72 -24.25 l
73.73 -18.60 l
o
np
103.58 363.85 m
73.73 -32.81 l
73.72 -45.15 l
73.73 -26.20 l
73.72 -1.14 l
73.73 -12.97 l
73.72 -15.73 l
73.73 -4.47 l
73.72 -35.29 l
73.73 32.93 l
o
np
103.58 396.04 m
73.73 -83.14 l
73.72 -47.96 l
73.73 -20.05 l
73.72 -11.83 l
73.73 -27.73 l
73.72 52.79 l
73.73 -11.74 l
73.72 -13.95 l
73.73 26.45 l
o
np
103.58 370.43 m
73.73 -71.26 l
73.72 -43.20 l
73.73 -38.95 l
73.72 22.41 l
73.73 30.30 l
73.72 -20.18 l
73.73 -116.20 l
73.72 141.64 l
73.73 -60.06 l
o
np
103.58 373.86 m
73.73 -80.68 l
73.72 -22.51 l
73.73 4.29 l
73.72 -19.30 l
73.73 2.62 l
73.72 -72.87 l
73.73 49.93 l
73.72 -89.81 l
73.73 94.85 l
o
np
103.58 437.32 m
73.73 -21.61 l
73.72 -5.93 l
73.73 -90.16 l
73.72 30.00 l
73.73 -24.98 l
73.72 61.52 l
73.73 -134.90 l
73.72 35.87 l
73.73 -16.72 l
o
np
103.58 462.52 m
73.73 -39.42 l
73.72 -64.44 l
73.73 -54.20 l
73.72 7.71 l
73.73 69.58 l
73.72 -55.25 l
73.73 -13.23 l
73.72 -24.37 l
73.73 -25.24 l
o
np
103.58 449.69 m
73.73 -51.25 l
73.72 -50.89 l
73.73 3.28 l
73.72 24.52 l
73.73 -38.59 l
73.72 -57.06 l
73.73 16.29 l
73.72 0.61 l
73.73 24.04 l
o
np
103.58 472.74 m
73.73 -51.14 l
73.72 -58.62 l
73.73 -85.61 l
73.72 88.84 l
73.73 -77.72 l
73.72 9.42 l
73.73 -37.66 l
73.72 29.04 l
73.73 -23.31 l
o
np
103.58 403.23 m
73.73 -2.92 l
73.72 4.62 l
73.73 -30.46 l
73.72 -54.12 l
73.73 3.43 l
73.72 24.98 l
73.73 -68.03 l
73.72 82.99 l
73.73 -93.90 l
o
np
103.58 430.40 m
73.73 -47.51 l
73.72 27.46 l
73.73 -32.23 l
73.72 -103.44 l
73.73 1.75 l
73.72 -1.16 l
73.73 19.54 l
73.72 -16.53 l
73.73 -11.64 l
o
np
103.58 412.98 m
73.73 46.97 l
73.72 -86.26 l
73.73 -24.76 l
73.72 -25.32 l
73.73 -6.45 l
73.72 -37.73 l
73.73 30.15 l
73.72 -55.13 l
73.73 57.79 l
o
np
103.58 459.17 m
73.73 -55.04 l
73.72 -93.32 l
73.73 21.70 l
73.72 9.74 l
73.73 -57.05 l
73.72 40.91 l
73.73 -15.45 l
73.72 -19.85 l
73.73 8.54 l
o
np
103.58 502.43 m
73.73 -109.15 l
73.72 -20.06 l
73.73 -110.69 l
73.72 68.07 l
73.73 39.07 l
73.72 -51.42 l
73.73 -51.20 l
73.72 70.18 l
73.73 -70.54 l
o
np
103.58 438.33 m
73.73 -9.92 l
73.72 -92.88 l
73.73 27.39 l
73.72 -53.94 l
73.73 34.50 l
73.72 -119.94 l
73.73 59.28 l
73.72 -59.84 l
73.73 65.88 l
o
ep
%%Trailer
%%Pages: 1
%%EOF
