%!PS-Adobe-3.0
%%DocumentNeededResources: font Helvetica
%%+ font Helvetica-Bold
%%+ font Helvetica-Oblique
%%+ font Helvetica-BoldOblique
%%+ font Symbol
%%DocumentMedia: a4 595 841 0 () ()
%%Title: R Graphics Output
%%Creator: R Software
%%Pages: (atend)
%%Orientation: Landscape
%%BoundingBox: 18 18 577 824
%%EndComments
%%BeginProlog
/bp  { gs sRGB 595.00 0 translate 90 rotate gs } def
% begin .ps.prolog
/gs  { gsave } bind def
/gr  { grestore } bind def
/ep  { showpage gr gr } bind def
/m   { moveto } bind def
/l  { rlineto } bind def
/np  { newpath } bind def
/cp  { closepath } bind def
/f   { fill } bind def
/o   { stroke } bind def
/c   { newpath 0 360 arc } bind def
/r   { 4 2 roll moveto 1 copy 3 -1 roll exch 0 exch rlineto 0 rlineto -1 mul 0 exch rlineto closepath } bind def
/p1  { stroke } bind def
/p2  { gsave bg fill grestore newpath } bind def
/p3  { gsave bg fill grestore stroke } bind def
/p6  { gsave bg eofill grestore newpath } bind def
/p7  { gsave bg eofill grestore stroke } bind def
/t   { 5 -2 roll moveto gsave rotate
       1 index stringwidth pop
       mul neg 0 rmoveto show grestore } bind def
/ta  { 4 -2 roll moveto gsave rotate show } bind def
/tb  { 2 -1 roll 0 rmoveto show } bind def
/cl  { grestore gsave newpath 3 index 3 index moveto 1 index
       4 -1 roll lineto  exch 1 index lineto lineto
       closepath clip newpath } bind def
/rgb { setrgbcolor } bind def
/s   { scalefont setfont } bind def
% end   .ps.prolog
/sRGB { [ /CIEBasedABC
          << /DecodeLMN
               [ { dup 0.03928 le
                        {12.92321 div}
                        {0.055 add 1.055 div 2.4 exp }
                     ifelse
                 } bind dup dup
               ]
             /MatrixLMN [0.412457 0.212673 0.019334
                         0.357576 0.715152 0.119192
                         0.180437 0.072175 0.950301]
             /WhitePoint [0.9505 1.0 1.0890]
           >>
         ] setcolorspace } bind def
/srgb { setcolor } bind def
%%IncludeResource: font Helvetica
/Helvetica findfont
dup length dict begin
  {1 index /FID ne {def} {pop pop} ifelse} forall
  /Encoding ISOLatin1Encoding def
  currentdict
  end
/Font1 exch definefont pop
%%IncludeResource: font Helvetica-Bold
/Helvetica-Bold findfont
dup length dict begin
  {1 index /FID ne {def} {pop pop} ifelse} forall
  /Encoding ISOLatin1Encoding def
  currentdict
  end
/Font2 exch definefont pop
%%IncludeResource: font Helvetica-Oblique
/Helvetica-Oblique findfont
dup length dict begin
  {1 index /FID ne {def} {pop pop} ifelse} forall
  /Encoding ISOLatin1Encoding def
  currentdict
  end
/Font3 exch definefont pop
%%IncludeResource: font Helvetica-BoldOblique
/Helvetica-BoldOblique findfont
dup length dict begin
  {1 index /FID ne {def} {pop pop} ifelse} forall
  /Encoding ISOLatin1Encoding def
  currentdict
  end
/Font4 exch definefont pop
%%IncludeResource: font Symbol
/Symbol findfont
dup length dict begin
  {1 index /FID ne {def} {pop pop} ifelse} forall
  currentdict
  end
/Font5 exch definefont pop
%%EndProlog
%%Page: 1 1
bp
77.04 91.44 793.65 518.24 cl
1 0 0 srgb
0.75 setlinewidth
[] 0 setdash
1 setlinecap
1 setlinejoin
10.00 setmiterlimit
np
103.58 458.36 m
73.73 -20.12 l
73.72 -6.10 l
73.73 -22.90 l
73.72 -15.20 l
73.73 -9.27 l
73.72 -33.60 l
73.73 17.71 l
73.72 -14.94 l
73.73 -13.88 l
o
18.00 18.00 823.89 577.28 cl
0 0 0 srgb
0.75 setlinewidth
[] 0 setdash
1 setlinecap
1 setlinejoin
10.00 setmiterlimit
np
243.27 91.44 m
523.84 0 l
o
np
243.27 91.44 m
0 -7.20 l
o
np
417.88 91.44 m
0 -7.20 l
o
np
592.50 91.44 m
0 -7.20 l
o
np
767.11 91.44 m
0 -7.20 l
o
/Font1 findfont 12 s
243.27 65.52 (0.5) .5 0 t
417.88 65.52 (1.0) .5 0 t
592.50 65.52 (1.5) .5 0 t
767.11 65.52 (2.0) .5 0 t
np
77.04 107.92 m
0 343.67 l
o
np
77.04 107.92 m
-7.20 0 l
o
np
77.04 176.65 m
-7.20 0 l
o
np
77.04 245.39 m
-7.20 0 l
o
np
77.04 314.12 m
-7.20 0 l
o
np
77.04 382.86 m
-7.20 0 l
o
np
77.04 451.59 m
-7.20 0 l
o
59.76 107.92 (-5) .5 90 t
59.76 176.65 (-4) .5 90 t
59.76 245.39 (-3) .5 90 t
59.76 314.12 (-2) .5 90 t
59.76 382.86 (-1) .5 90 t
59.76 451.59 (0) .5 90 t
np
77.04 91.44 m
716.61 0 l
0 426.80 l
-716.61 0 l
0 -426.80 l
o
18.00 18.00 823.89 577.28 cl
/Font5 findfont 12 s
0 0 0 srgb
432.38 36.95 (d) 0 0 t
28.28 299.32 (b) 0 90 t
/Font1 findfont 8 s
30.48 305.91 (2) 0 90 t
77.04 91.44 793.65 518.24 cl
1 0 0 srgb
0.75 setlinewidth
[] 0 setdash
1 setlinecap
1 setlinejoin
10.00 setmiterlimit
np
103.58 455.35 m
73.73 -20.62 l
73.72 -7.61 l
73.73 -17.55 l
73.72 -7.86 l
73.73 -23.53 l
73.72 26.45 l
73.73 -78.81 l
73.72 4.58 l
73.73 15.43 l
o
np
103.58 462.52 m
73.73 -21.49 l
73.72 -12.97 l
73.73 -23.56 l
73.72 -7.84 l
73.73 -40.17 l
73.72 0.56 l
73.73 1.18 l
73.72 0.45 l
73.73 -25.39 l
o
np
103.58 467.18 m
73.73 -19.70 l
73.72 -24.57 l
73.73 -10.33 l
73.72 -16.67 l
73.73 0.13 l
73.72 -45.03 l
73.73 10.08 l
73.72 -24.74 l
73.73 3.88 l
o
np
103.58 449.98 m
73.73 -15.77 l
73.72 -16.65 l
73.73 -14.32 l
73.72 -13.72 l
73.73 1.77 l
73.72 -38.89 l
73.73 -42.03 l
73.72 34.87 l
73.73 -23.23 l
o
np
103.58 465.23 m
73.73 -18.39 l
73.72 -15.26 l
73.73 -5.67 l
73.72 -23.20 l
73.73 -5.34 l
73.72 -8.35 l
73.73 -49.79 l
73.72 -30.23 l
73.73 51.93 l
o
np
103.58 466.10 m
73.73 -22.36 l
73.72 -21.51 l
73.73 -19.04 l
73.72 -16.32 l
73.73 -12.93 l
73.72 -52.40 l
73.73 29.68 l
73.72 -4.59 l
73.73 26.98 l
o
np
103.58 460.00 m
73.73 -14.48 l
73.72 -19.67 l
73.73 -11.32 l
73.72 -15.38 l
73.73 -14.04 l
73.72 -17.35 l
73.73 0.86 l
73.72 -33.45 l
73.73 42.05 l
o
np
103.58 462.72 m
73.73 -22.30 l
73.72 -17.15 l
73.73 -15.24 l
73.72 -38.88 l
73.73 -2.07 l
73.72 4.20 l
73.73 -6.18 l
73.72 -1.53 l
73.73 -91.36 l
o
np
103.58 475.98 m
73.73 -29.52 l
73.72 -9.28 l
73.73 -7.56 l
73.72 -19.00 l
73.73 0.01 l
73.72 -31.00 l
73.73 -11.54 l
73.72 -39.29 l
73.73 -1.16 l
o
np
103.58 485.35 m
73.73 -3.51 l
73.72 -5.59 l
73.73 -10.69 l
73.72 6.22 l
73.73 -20.32 l
73.72 -24.87 l
73.73 10.92 l
73.72 18.05 l
73.73 -28.02 l
o
np
103.58 481.53 m
73.73 -9.44 l
73.72 5.65 l
73.73 0.78 l
73.72 -17.06 l
73.73 -7.84 l
73.72 4.25 l
73.73 -76.50 l
73.72 65.57 l
73.73 -1.51 l
o
np
103.58 488.86 m
73.73 -10.42 l
73.72 -2.56 l
73.73 -11.16 l
73.72 -3.64 l
73.73 -25.60 l
73.72 -8.24 l
73.73 17.50 l
73.72 -28.37 l
73.73 -4.78 l
o
np
103.58 494.61 m
73.73 -8.20 l
73.72 -4.06 l
73.73 -10.97 l
73.72 -15.55 l
73.73 29.20 l
73.72 -44.83 l
73.73 -3.81 l
73.72 -13.12 l
73.73 -2.84 l
o
np
103.58 477.26 m
73.73 -2.33 l
73.72 -12.31 l
73.73 12.22 l
73.72 -24.19 l
73.73 -4.04 l
73.72 -8.31 l
73.73 -1.58 l
73.72 -26.88 l
73.73 21.75 l
o
np
103.58 491.45 m
73.73 -3.50 l
73.72 -16.72 l
73.73 -1.80 l
73.72 -21.40 l
73.73 5.28 l
73.72 -10.67 l
73.73 -10.72 l
73.72 -9.86 l
73.73 57.55 l
o
np
103.58 491.35 m
73.73 -8.23 l
73.72 -15.71 l
73.73 -6.10 l
73.72 -11.49 l
73.73 -26.94 l
73.72 -23.55 l
73.73 33.33 l
73.72 -10.46 l
73.73 14.93 l
o
np
103.58 492.73 m
73.73 -6.26 l
73.72 -13.89 l
73.73 -1.61 l
73.72 -9.08 l
73.73 -24.27 l
73.72 -4.20 l
73.73 5.40 l
73.72 -30.28 l
73.73 53.59 l
o
np
103.58 495.52 m
73.73 -9.95 l
73.72 -12.77 l
73.73 -5.90 l
73.72 -5.78 l
73.73 -35.25 l
73.72 76.56 l
73.73 -69.57 l
73.72 24.12 l
73.73 -13.07 l
o
np
103.58 501.66 m
73.73 -11.44 l
73.72 -9.85 l
73.73 -10.03 l
73.72 19.58 l
73.73 -28.99 l
73.72 -35.81 l
73.73 3.46 l
73.72 -5.57 l
73.73 -7.70 l
o
0 0 1 srgb
0.75 setlinewidth
[ 2.25 3.75] 0 setdash
np
103.58 389.52 m
73.73 -23.05 l
73.72 -13.39 l
73.73 -24.31 l
73.72 -28.15 l
73.73 -11.08 l
73.72 -53.51 l
73.73 34.87 l
73.72 -69.27 l
73.73 -29.15 l
o
np
103.58 374.90 m
73.73 -17.44 l
73.72 -29.10 l
73.73 -26.09 l
73.72 -21.24 l
73.73 -40.07 l
73.72 -37.37 l
73.73 24.39 l
73.72 -15.13 l
73.73 -45.81 l
o
np
103.58 383.54 m
73.73 -20.69 l
73.72 -16.94 l
73.73 -37.52 l
73.72 -32.55 l
73.73 16.23 l
73.72 -36.05 l
73.73 -41.70 l
73.72 -13.26 l
73.73 4.38 l
o
np
103.58 360.85 m
73.73 -21.50 l
73.72 -24.64 l
73.73 -23.05 l
73.72 -21.81 l
73.73 -47.38 l
73.72 -2.30 l
73.73 -72.18 l
73.72 4.12 l
73.73 41.73 l
o
np
103.58 379.95 m
73.73 -20.43 l
73.72 -21.48 l
73.73 -20.83 l
73.72 -47.74 l
73.73 -0.05 l
73.72 -23.74 l
73.73 -22.36 l
73.72 -5.79 l
73.73 -49.74 l
o
np
103.58 387.19 m
73.73 -21.30 l
73.72 -19.57 l
73.73 -18.07 l
73.72 -14.45 l
73.73 -59.31 l
73.72 6.18 l
73.73 -39.62 l
73.72 -11.36 l
73.73 9.13 l
o
np
103.58 383.79 m
73.73 -19.14 l
73.72 -23.34 l
73.73 -25.54 l
73.72 -6.29 l
73.73 -38.25 l
73.72 3.58 l
73.73 -47.15 l
73.72 -45.77 l
73.73 51.76 l
o
np
103.58 381.33 m
73.73 -18.64 l
73.72 -27.16 l
73.73 -20.99 l
73.72 -50.93 l
73.73 12.19 l
73.72 -59.65 l
73.73 41.43 l
73.72 -69.67 l
73.73 -27.95 l
o
np
103.58 328.79 m
73.73 -29.15 l
73.72 -13.43 l
73.73 -35.17 l
73.72 -29.79 l
73.73 -19.71 l
73.72 -42.29 l
73.73 -18.29 l
73.72 -14.13 l
73.73 -19.58 l
o
np
103.58 388.65 m
73.73 -25.65 l
73.72 -11.39 l
73.73 -50.98 l
73.72 -18.10 l
73.73 -16.76 l
73.72 -0.21 l
73.73 -32.16 l
73.72 -51.17 l
73.73 -9.70 l
o
np
103.58 429.83 m
73.73 -5.22 l
73.72 -0.48 l
73.73 7.90 l
73.72 1.96 l
73.73 27.95 l
73.72 -42.68 l
73.73 2.64 l
73.72 20.64 l
73.73 -7.49 l
o
np
103.58 417.72 m
73.73 -3.47 l
73.72 5.51 l
73.73 -12.63 l
73.72 9.21 l
73.73 -3.32 l
73.72 -36.65 l
73.73 29.42 l
73.72 -6.26 l
73.73 44.41 l
o
np
103.58 422.38 m
73.73 -3.89 l
73.72 -2.02 l
73.73 2.89 l
73.72 6.22 l
73.73 -1.20 l
73.72 20.05 l
73.73 4.51 l
73.72 -24.33 l
73.73 9.03 l
o
np
103.58 414.40 m
73.73 -8.23 l
73.72 4.31 l
73.73 -0.69 l
73.72 -9.27 l
73.73 5.94 l
73.72 20.84 l
73.73 -56.18 l
73.72 49.54 l
73.73 -19.12 l
o
np
103.58 420.05 m
73.73 -3.27 l
73.72 -5.57 l
73.73 13.65 l
73.72 -13.66 l
73.73 8.77 l
73.72 3.16 l
73.73 -10.73 l
73.72 21.74 l
73.73 22.87 l
o
np
103.58 426.63 m
73.73 -5.07 l
73.72 1.81 l
73.73 -3.12 l
73.72 8.56 l
73.73 -8.81 l
73.72 26.25 l
73.73 4.48 l
73.72 1.97 l
73.73 -16.67 l
o
np
103.58 422.73 m
73.73 -5.20 l
73.72 -3.71 l
73.73 3.30 l
73.72 8.34 l
73.73 1.98 l
73.72 5.43 l
73.73 -34.79 l
73.72 30.84 l
73.73 -44.89 l
o
np
103.58 421.71 m
73.73 -1.66 l
73.72 -3.56 l
73.73 2.80 l
73.72 -9.70 l
73.73 -8.49 l
73.72 -3.90 l
73.73 51.10 l
73.72 -34.07 l
73.73 16.82 l
o
np
103.58 391.43 m
73.73 -4.47 l
73.72 -2.30 l
73.73 7.18 l
73.72 -24.25 l
73.73 -9.16 l
73.72 44.82 l
73.73 2.58 l
73.72 1.21 l
73.73 -49.58 l
o
np
103.58 428.45 m
73.73 -2.45 l
73.72 -4.62 l
73.73 0.19 l
73.72 -1.99 l
73.73 17.19 l
73.72 1.67 l
73.73 -10.01 l
73.72 26.55 l
73.73 -27.30 l
o
ep
%%Trailer
%%Pages: 1
%%EOF
