%!PS-Adobe-3.0
%%DocumentNeededResources: font Helvetica
%%+ font Helvetica-Bold
%%+ font Helvetica-Oblique
%%+ font Helvetica-BoldOblique
%%+ font Symbol
%%DocumentMedia: a4 595 841 0 () ()
%%Title: R Graphics Output
%%Creator: R Software
%%Pages: (atend)
%%Orientation: Landscape
%%BoundingBox: 18 18 577 824
%%EndComments
%%BeginProlog
/bp  { gs sRGB 595.00 0 translate 90 rotate gs } def
% begin .ps.prolog
/gs  { gsave } bind def
/gr  { grestore } bind def
/ep  { showpage gr gr } bind def
/m   { moveto } bind def
/l  { rlineto } bind def
/np  { newpath } bind def
/cp  { closepath } bind def
/f   { fill } bind def
/o   { stroke } bind def
/c   { newpath 0 360 arc } bind def
/r   { 4 2 roll moveto 1 copy 3 -1 roll exch 0 exch rlineto 0 rlineto -1 mul 0 exch rlineto closepath } bind def
/p1  { stroke } bind def
/p2  { gsave bg fill grestore newpath } bind def
/p3  { gsave bg fill grestore stroke } bind def
/p6  { gsave bg eofill grestore newpath } bind def
/p7  { gsave bg eofill grestore stroke } bind def
/t   { 5 -2 roll moveto gsave rotate
       1 index stringwidth pop
       mul neg 0 rmoveto show grestore } bind def
/ta  { 4 -2 roll moveto gsave rotate show } bind def
/tb  { 2 -1 roll 0 rmoveto show } bind def
/cl  { grestore gsave newpath 3 index 3 index moveto 1 index
       4 -1 roll lineto  exch 1 index lineto lineto
       closepath clip newpath } bind def
/rgb { setrgbcolor } bind def
/s   { scalefont setfont } bind def
% end   .ps.prolog
/sRGB { [ /CIEBasedABC
          << /DecodeLMN
               [ { dup 0.03928 le
                        {12.92321 div}
                        {0.055 add 1.055 div 2.4 exp }
                     ifelse
                 } bind dup dup
               ]
             /MatrixLMN [0.412457 0.212673 0.019334
                         0.357576 0.715152 0.119192
                         0.180437 0.072175 0.950301]
             /WhitePoint [0.9505 1.0 1.0890]
           >>
         ] setcolorspace } bind def
/srgb { setcolor } bind def
%%IncludeResource: font Helvetica
/Helvetica findfont
dup length dict begin
  {1 index /FID ne {def} {pop pop} ifelse} forall
  /Encoding ISOLatin1Encoding def
  currentdict
  end
/Font1 exch definefont pop
%%IncludeResource: font Helvetica-Bold
/Helvetica-Bold findfont
dup length dict begin
  {1 index /FID ne {def} {pop pop} ifelse} forall
  /Encoding ISOLatin1Encoding def
  currentdict
  end
/Font2 exch definefont pop
%%IncludeResource: font Helvetica-Oblique
/Helvetica-Oblique findfont
dup length dict begin
  {1 index /FID ne {def} {pop pop} ifelse} forall
  /Encoding ISOLatin1Encoding def
  currentdict
  end
/Font3 exch definefont pop
%%IncludeResource: font Helvetica-BoldOblique
/Helvetica-BoldOblique findfont
dup length dict begin
  {1 index /FID ne {def} {pop pop} ifelse} forall
  /Encoding ISOLatin1Encoding def
  currentdict
  end
/Font4 exch definefont pop
%%IncludeResource: font Symbol
/Symbol findfont
dup length dict begin
  {1 index /FID ne {def} {pop pop} ifelse} forall
  currentdict
  end
/Font5 exch definefont pop
%%EndProlog
%%Page: 1 1
bp
77.04 91.44 793.65 518.24 cl
1 0 0 srgb
0.75 setlinewidth
[] 0 setdash
1 setlinecap
1 setlinejoin
10.00 setmiterlimit
np
103.58 456.99 m
73.73 -16.42 l
73.72 -11.04 l
73.73 -17.73 l
73.72 -16.27 l
73.73 -13.74 l
73.72 -14.91 l
73.73 23.91 l
73.72 -31.10 l
73.73 -26.03 l
o
18.00 18.00 823.89 577.28 cl
0 0 0 srgb
0.75 setlinewidth
[] 0 setdash
1 setlinecap
1 setlinejoin
10.00 setmiterlimit
np
243.27 91.44 m
523.84 0 l
o
np
243.27 91.44 m
0 -7.20 l
o
np
417.88 91.44 m
0 -7.20 l
o
np
592.50 91.44 m
0 -7.20 l
o
np
767.11 91.44 m
0 -7.20 l
o
/Font1 findfont 12 s
243.27 65.52 (0.5) .5 0 t
417.88 65.52 (1.0) .5 0 t
592.50 65.52 (1.5) .5 0 t
767.11 65.52 (2.0) .5 0 t
np
77.04 106.86 m
0 344.77 l
o
np
77.04 106.86 m
-7.20 0 l
o
np
77.04 175.81 m
-7.20 0 l
o
np
77.04 244.76 m
-7.20 0 l
o
np
77.04 313.72 m
-7.20 0 l
o
np
77.04 382.67 m
-7.20 0 l
o
np
77.04 451.63 m
-7.20 0 l
o
59.76 106.86 (-6) .5 90 t
59.76 175.81 (-5) .5 90 t
59.76 244.76 (-4) .5 90 t
59.76 313.72 (-3) .5 90 t
59.76 382.67 (-2) .5 90 t
59.76 451.63 (-1) .5 90 t
np
77.04 91.44 m
716.61 0 l
0 426.80 l
-716.61 0 l
0 -426.80 l
o
18.00 18.00 823.89 577.28 cl
/Font5 findfont 12 s
0 0 0 srgb
432.38 36.95 (d) 0 0 t
28.28 299.32 (b) 0 90 t
/Font1 findfont 8 s
30.48 305.91 (2) 0 90 t
77.04 91.44 793.65 518.24 cl
1 0 0 srgb
0.75 setlinewidth
[] 0 setdash
1 setlinecap
1 setlinejoin
10.00 setmiterlimit
np
103.58 455.87 m
73.73 -18.64 l
73.72 -12.55 l
73.73 -6.75 l
73.72 -17.84 l
73.73 -6.74 l
73.72 -23.78 l
73.73 -40.90 l
73.72 8.39 l
73.73 -1.64 l
o
np
103.58 460.76 m
73.73 -17.67 l
73.72 -15.84 l
73.73 -17.38 l
73.72 -5.14 l
73.73 -37.83 l
73.72 0.89 l
73.73 -49.54 l
73.72 31.78 l
73.73 -32.83 l
o
np
103.58 466.20 m
73.73 -16.78 l
73.72 -27.20 l
73.73 -12.71 l
73.72 -8.82 l
73.73 -3.52 l
73.72 -11.50 l
73.73 -37.22 l
73.72 20.78 l
73.73 -40.47 l
o
np
103.58 450.85 m
73.73 -19.78 l
73.72 -23.11 l
73.73 1.40 l
73.72 -43.02 l
73.73 10.18 l
73.72 -53.32 l
73.73 41.33 l
73.72 -72.40 l
73.73 69.31 l
o
np
103.58 464.01 m
73.73 -17.33 l
73.72 -11.88 l
73.73 -7.23 l
73.72 -23.05 l
73.73 -6.62 l
73.72 -15.24 l
73.73 13.18 l
73.72 -56.83 l
73.73 0.16 l
o
np
103.58 465.03 m
73.73 -21.30 l
73.72 -20.69 l
73.73 -19.78 l
73.72 -12.36 l
73.73 11.95 l
73.72 -46.19 l
73.73 -15.09 l
73.72 -6.98 l
73.73 17.87 l
o
np
103.58 460.98 m
73.73 -17.03 l
73.72 -11.91 l
73.73 -27.44 l
73.72 -0.50 l
73.73 -17.81 l
73.72 -19.11 l
73.73 -16.72 l
73.72 5.31 l
73.73 -11.95 l
o
np
103.58 462.88 m
73.73 -22.37 l
73.72 -28.40 l
73.73 -7.39 l
73.72 -32.57 l
73.73 -14.97 l
73.72 -12.99 l
73.73 2.63 l
73.72 -40.27 l
73.73 -33.47 l
o
np
103.58 475.65 m
73.73 -25.92 l
73.72 -14.53 l
73.73 -12.96 l
73.72 -19.60 l
73.73 -10.50 l
73.72 -23.41 l
73.73 -14.45 l
73.72 -47.64 l
73.73 21.23 l
o
np
103.58 485.78 m
73.73 -6.44 l
73.72 -2.91 l
73.73 -10.10 l
73.72 -11.08 l
73.73 -6.46 l
73.72 -11.00 l
73.73 13.48 l
73.72 -3.87 l
73.73 -6.08 l
o
np
103.58 482.01 m
73.73 -7.45 l
73.72 -6.47 l
73.73 2.75 l
73.72 -21.17 l
73.73 12.04 l
73.72 -18.26 l
73.73 -6.78 l
73.72 -17.22 l
73.73 0.98 l
o
np
103.58 487.98 m
73.73 -7.47 l
73.72 -3.26 l
73.73 -13.36 l
73.72 6.30 l
73.73 -39.84 l
73.72 7.10 l
73.73 11.30 l
73.72 0.75 l
73.73 -42.72 l
o
np
103.58 496.35 m
73.73 -9.32 l
73.72 -6.84 l
73.73 -18.14 l
73.72 -4.71 l
73.73 -7.30 l
73.72 -15.95 l
73.73 11.98 l
73.72 -25.26 l
73.73 -7.00 l
o
np
103.58 479.26 m
73.73 -5.89 l
73.72 -14.52 l
73.73 2.60 l
73.72 -22.89 l
73.73 -2.57 l
73.72 -17.32 l
73.73 -2.78 l
73.72 -48.80 l
73.73 75.49 l
o
np
103.58 490.98 m
73.73 -4.02 l
73.72 -4.50 l
73.73 -16.56 l
73.72 -16.37 l
73.73 -2.48 l
73.72 -15.60 l
73.73 13.56 l
73.72 -12.14 l
73.73 1.00 l
o
np
103.58 490.84 m
73.73 -9.27 l
73.72 -6.21 l
73.73 -9.53 l
73.72 -17.10 l
73.73 8.61 l
73.72 -20.13 l
73.73 -25.83 l
73.72 18.96 l
73.73 32.21 l
o
np
103.58 491.54 m
73.73 -1.63 l
73.72 -18.04 l
73.73 2.45 l
73.72 6.69 l
73.73 -39.57 l
73.72 18.76 l
73.73 -51.59 l
73.72 40.33 l
73.73 -43.62 l
o
np
103.58 495.99 m
73.73 -9.70 l
73.72 -11.62 l
73.73 -11.52 l
73.72 -21.01 l
73.73 8.87 l
73.72 12.60 l
73.73 -30.87 l
73.72 -27.59 l
73.73 -16.07 l
o
np
103.58 502.43 m
73.73 -9.77 l
73.72 -14.82 l
73.73 9.54 l
73.72 -7.99 l
73.73 -24.95 l
73.72 -27.32 l
73.73 10.27 l
73.72 -22.06 l
73.73 -13.26 l
o
0 0 1 srgb
0.75 setlinewidth
[ 2.25 3.75] 0 setdash
np
103.58 389.37 m
73.73 -23.10 l
73.72 -13.39 l
73.73 -24.33 l
73.72 -28.22 l
73.73 -11.03 l
73.72 -53.57 l
73.73 34.97 l
73.72 -69.29 l
73.73 -29.11 l
o
np
103.58 374.71 m
73.73 -17.48 l
73.72 -29.16 l
73.73 -26.06 l
73.72 -21.30 l
73.73 -40.07 l
73.72 -37.38 l
73.73 24.47 l
73.72 -14.93 l
73.73 -46.04 l
o
np
103.58 383.38 m
73.73 -20.75 l
73.72 -16.96 l
73.73 -37.58 l
73.72 -32.55 l
73.73 16.29 l
73.72 -36.08 l
73.73 -41.70 l
73.72 -13.30 l
73.73 4.59 l
o
np
103.58 360.64 m
73.73 -21.54 l
73.72 -24.70 l
73.73 -23.08 l
73.72 -21.81 l
73.73 -47.35 l
73.72 -2.28 l
73.73 -72.08 l
73.72 4.06 l
73.73 41.97 l
o
np
103.58 379.78 m
73.73 -20.49 l
73.72 -21.50 l
73.73 -20.85 l
73.72 -47.77 l
73.73 -0.07 l
73.72 -23.72 l
73.73 -22.35 l
73.72 -5.66 l
73.73 -49.84 l
o
np
103.58 387.04 m
73.73 -21.35 l
73.72 -19.60 l
73.73 -18.03 l
73.72 -14.47 l
73.73 -59.48 l
73.72 6.30 l
73.73 -39.60 l
73.72 -11.34 l
73.73 9.28 l
o
np
103.58 383.63 m
73.73 -19.19 l
73.72 -23.37 l
73.73 -25.59 l
73.72 -6.24 l
73.73 -38.30 l
73.72 3.68 l
73.73 -47.18 l
73.72 -45.85 l
73.73 52.08 l
o
np
103.58 381.16 m
73.73 -18.67 l
73.72 -27.20 l
73.73 -21.04 l
73.72 -51.00 l
73.73 12.30 l
73.72 -59.73 l
73.73 41.52 l
73.72 -69.60 l
73.73 -28.00 l
o
np
103.58 328.51 m
73.73 -29.21 l
73.72 -13.43 l
73.73 -35.22 l
73.72 -29.68 l
73.73 -19.74 l
73.72 -42.28 l
73.73 -18.16 l
73.72 -14.10 l
73.73 -19.44 l
o
np
103.58 388.52 m
73.73 -25.73 l
73.72 -11.39 l
73.73 -51.04 l
73.72 -18.13 l
73.73 -16.71 l
73.72 -0.18 l
73.73 -32.14 l
73.72 -51.20 l
73.73 -9.53 l
o
np
103.58 429.81 m
73.73 -5.23 l
73.72 -0.46 l
73.73 7.98 l
73.72 2.02 l
73.73 28.10 l
73.72 -42.73 l
73.73 2.62 l
73.72 20.80 l
73.73 -7.06 l
o
np
103.58 417.66 m
73.73 -3.46 l
73.72 5.55 l
73.73 -12.62 l
73.72 9.27 l
73.73 -3.24 l
73.72 -36.65 l
73.73 29.64 l
73.72 -6.24 l
73.73 44.48 l
o
np
103.58 422.33 m
73.73 -3.88 l
73.72 -2.00 l
73.73 2.93 l
73.72 6.24 l
73.73 -1.11 l
73.72 20.16 l
73.73 4.57 l
73.72 -24.22 l
73.73 9.01 l
o
np
103.58 414.33 m
73.73 -8.22 l
73.72 4.34 l
73.73 -0.68 l
73.72 -9.24 l
73.73 6.11 l
73.72 20.90 l
73.73 -56.13 l
73.72 49.76 l
73.73 -19.05 l
o
np
103.58 420.00 m
73.73 -3.27 l
73.72 -5.57 l
73.73 13.74 l
73.72 -13.63 l
73.73 8.81 l
73.72 3.28 l
73.73 -10.70 l
73.72 21.80 l
73.73 23.69 l
o
np
103.58 426.60 m
73.73 -5.08 l
73.72 1.85 l
73.73 -3.11 l
73.72 8.64 l
73.73 -8.82 l
73.72 26.47 l
73.73 4.67 l
73.72 1.81 l
73.73 -16.65 l
o
np
103.58 422.69 m
73.73 -5.21 l
73.72 -3.69 l
73.73 3.33 l
73.72 8.39 l
73.73 2.07 l
73.72 5.48 l
73.73 -34.81 l
73.72 30.95 l
73.73 -44.89 l
o
np
103.58 421.67 m
73.73 -1.66 l
73.72 -3.54 l
73.73 2.85 l
73.72 -9.69 l
73.73 -8.43 l
73.72 -3.80 l
73.73 51.69 l
73.72 -34.40 l
73.73 16.81 l
o
np
103.58 391.29 m
73.73 -4.45 l
73.72 -2.27 l
73.73 7.26 l
73.72 -24.27 l
73.73 -8.93 l
73.72 44.96 l
73.73 3.24 l
73.72 0.66 l
73.73 -49.45 l
o
np
103.58 428.42 m
73.73 -2.44 l
73.72 -4.60 l
73.73 0.25 l
73.72 -1.96 l
73.73 17.28 l
73.72 1.67 l
73.73 -9.82 l
73.72 26.90 l
73.73 -27.36 l
o
ep
%%Trailer
%%Pages: 1
%%EOF
