%!PS-Adobe-3.0
%%DocumentNeededResources: font Helvetica
%%+ font Helvetica-Bold
%%+ font Helvetica-Oblique
%%+ font Helvetica-BoldOblique
%%+ font Symbol
%%DocumentMedia: a4 595 841 0 () ()
%%Title: R Graphics Output
%%Creator: R Software
%%Pages: (atend)
%%Orientation: Landscape
%%BoundingBox: 18 18 577 824
%%EndComments
%%BeginProlog
/bp  { gs sRGB 595.00 0 translate 90 rotate gs } def
% begin .ps.prolog
/gs  { gsave } bind def
/gr  { grestore } bind def
/ep  { showpage gr gr } bind def
/m   { moveto } bind def
/l  { rlineto } bind def
/np  { newpath } bind def
/cp  { closepath } bind def
/f   { fill } bind def
/o   { stroke } bind def
/c   { newpath 0 360 arc } bind def
/r   { 4 2 roll moveto 1 copy 3 -1 roll exch 0 exch rlineto 0 rlineto -1 mul 0 exch rlineto closepath } bind def
/p1  { stroke } bind def
/p2  { gsave bg fill grestore newpath } bind def
/p3  { gsave bg fill grestore stroke } bind def
/p6  { gsave bg eofill grestore newpath } bind def
/p7  { gsave bg eofill grestore stroke } bind def
/t   { 5 -2 roll moveto gsave rotate
       1 index stringwidth pop
       mul neg 0 rmoveto show grestore } bind def
/ta  { 4 -2 roll moveto gsave rotate show } bind def
/tb  { 2 -1 roll 0 rmoveto show } bind def
/cl  { grestore gsave newpath 3 index 3 index moveto 1 index
       4 -1 roll lineto  exch 1 index lineto lineto
       closepath clip newpath } bind def
/rgb { setrgbcolor } bind def
/s   { scalefont setfont } bind def
% end   .ps.prolog
/sRGB { [ /CIEBasedABC
          << /DecodeLMN
               [ { dup 0.03928 le
                        {12.92321 div}
                        {0.055 add 1.055 div 2.4 exp }
                     ifelse
                 } bind dup dup
               ]
             /MatrixLMN [0.412457 0.212673 0.019334
                         0.357576 0.715152 0.119192
                         0.180437 0.072175 0.950301]
             /WhitePoint [0.9505 1.0 1.0890]
           >>
         ] setcolorspace } bind def
/srgb { setcolor } bind def
%%IncludeResource: font Helvetica
/Helvetica findfont
dup length dict begin
  {1 index /FID ne {def} {pop pop} ifelse} forall
  /Encoding ISOLatin1Encoding def
  currentdict
  end
/Font1 exch definefont pop
%%IncludeResource: font Helvetica-Bold
/Helvetica-Bold findfont
dup length dict begin
  {1 index /FID ne {def} {pop pop} ifelse} forall
  /Encoding ISOLatin1Encoding def
  currentdict
  end
/Font2 exch definefont pop
%%IncludeResource: font Helvetica-Oblique
/Helvetica-Oblique findfont
dup length dict begin
  {1 index /FID ne {def} {pop pop} ifelse} forall
  /Encoding ISOLatin1Encoding def
  currentdict
  end
/Font3 exch definefont pop
%%IncludeResource: font Helvetica-BoldOblique
/Helvetica-BoldOblique findfont
dup length dict begin
  {1 index /FID ne {def} {pop pop} ifelse} forall
  /Encoding ISOLatin1Encoding def
  currentdict
  end
/Font4 exch definefont pop
%%IncludeResource: font Symbol
/Symbol findfont
dup length dict begin
  {1 index /FID ne {def} {pop pop} ifelse} forall
  currentdict
  end
/Font5 exch definefont pop
%%EndProlog
%%Page: 1 1
bp
77.04 91.44 793.65 518.24 cl
1 0 0 srgb
0.75 setlinewidth
[] 0 setdash
1 setlinecap
1 setlinejoin
10.00 setmiterlimit
np
103.58 460.10 m
73.73 -17.33 l
73.72 -10.81 l
73.73 -20.49 l
73.72 -8.43 l
73.73 3.39 l
73.72 -55.04 l
73.73 12.39 l
73.72 -5.97 l
73.73 -17.43 l
o
18.00 18.00 823.89 577.28 cl
0 0 0 srgb
0.75 setlinewidth
[] 0 setdash
1 setlinecap
1 setlinejoin
10.00 setmiterlimit
np
243.27 91.44 m
523.84 0 l
o
np
243.27 91.44 m
0 -7.20 l
o
np
417.88 91.44 m
0 -7.20 l
o
np
592.50 91.44 m
0 -7.20 l
o
np
767.11 91.44 m
0 -7.20 l
o
/Font1 findfont 12 s
243.27 65.52 (0.5) .5 0 t
417.88 65.52 (1.0) .5 0 t
592.50 65.52 (1.5) .5 0 t
767.11 65.52 (2.0) .5 0 t
np
77.04 114.90 m
0 338.46 l
o
np
77.04 114.90 m
-7.20 0 l
o
np
77.04 182.59 m
-7.20 0 l
o
np
77.04 250.29 m
-7.20 0 l
o
np
77.04 317.98 m
-7.20 0 l
o
np
77.04 385.67 m
-7.20 0 l
o
np
77.04 453.36 m
-7.20 0 l
o
59.76 114.90 (-5) .5 90 t
59.76 182.59 (-4) .5 90 t
59.76 250.29 (-3) .5 90 t
59.76 317.98 (-2) .5 90 t
59.76 385.67 (-1) .5 90 t
59.76 453.36 (0) .5 90 t
np
77.04 91.44 m
716.61 0 l
0 426.80 l
-716.61 0 l
0 -426.80 l
o
18.00 18.00 823.89 577.28 cl
/Font5 findfont 12 s
0 0 0 srgb
432.38 36.95 (d) 0 0 t
28.28 299.32 (b) 0 90 t
/Font1 findfont 8 s
30.48 305.91 (2) 0 90 t
77.04 91.44 793.65 518.24 cl
1 0 0 srgb
0.75 setlinewidth
[] 0 setdash
1 setlinecap
1 setlinejoin
10.00 setmiterlimit
np
103.58 457.96 m
73.73 -21.00 l
73.72 -12.98 l
73.73 -10.84 l
73.72 -17.38 l
73.73 -15.25 l
73.72 14.39 l
73.73 -84.24 l
73.72 19.85 l
73.73 0.43 l
o
np
103.58 463.75 m
73.73 -23.06 l
73.72 -15.31 l
73.73 -18.62 l
73.72 -6.38 l
73.73 -37.03 l
73.72 -0.70 l
73.73 4.35 l
73.72 -36.02 l
73.73 -22.40 l
o
np
103.58 469.16 m
73.73 -13.61 l
73.72 -16.09 l
73.73 -18.22 l
73.72 -18.09 l
73.73 -5.45 l
73.72 -34.13 l
73.73 -1.77 l
73.72 3.26 l
73.73 -10.06 l
o
np
103.58 456.08 m
73.73 -20.19 l
73.72 -18.42 l
73.73 -8.77 l
73.72 -17.37 l
73.73 -5.53 l
73.72 -30.23 l
73.73 -22.26 l
73.72 53.55 l
73.73 -60.54 l
o
np
103.58 465.64 m
73.73 -17.53 l
73.72 -19.44 l
73.73 -3.22 l
73.72 -23.28 l
73.73 -0.95 l
73.72 -59.65 l
73.73 24.95 l
73.72 -23.92 l
73.73 5.54 l
o
np
103.58 471.11 m
73.73 -26.03 l
73.72 -19.11 l
73.73 -9.32 l
73.72 -12.88 l
73.73 -16.89 l
73.72 -41.69 l
73.73 18.11 l
73.72 -18.57 l
73.73 -15.31 l
o
np
103.58 461.97 m
73.73 -17.33 l
73.72 -19.38 l
73.73 -20.55 l
73.72 0.03 l
73.73 -54.37 l
73.72 16.18 l
73.73 -8.63 l
73.72 -28.82 l
73.73 -3.27 l
o
np
103.58 464.76 m
73.73 -21.91 l
73.72 -19.47 l
73.73 -18.51 l
73.72 -22.76 l
73.73 -11.59 l
73.72 1.02 l
73.73 -54.81 l
73.72 42.04 l
73.73 -65.71 l
o
np
103.58 477.35 m
73.73 -22.48 l
73.72 -12.26 l
73.73 -3.38 l
73.72 -20.76 l
73.73 -17.18 l
73.72 -13.67 l
73.73 -24.12 l
73.72 -35.50 l
73.73 20.50 l
o
np
103.58 487.17 m
73.73 -4.59 l
73.72 3.52 l
73.73 -26.98 l
73.72 -6.00 l
73.73 1.24 l
73.72 -46.21 l
73.73 43.54 l
73.72 -27.55 l
73.73 -21.82 l
o
np
103.58 482.44 m
73.73 -7.57 l
73.72 -7.47 l
73.73 2.63 l
73.72 -3.01 l
73.73 -23.84 l
73.72 1.78 l
73.73 -30.90 l
73.72 -1.82 l
73.73 27.13 l
o
np
103.58 490.07 m
73.73 -10.93 l
73.72 -3.13 l
73.73 1.19 l
73.72 -2.00 l
73.73 -45.52 l
73.72 3.00 l
73.73 38.06 l
73.72 -48.91 l
73.73 -47.28 l
o
np
103.58 496.89 m
73.73 -6.11 l
73.72 -7.96 l
73.73 -14.54 l
73.72 -6.68 l
73.73 18.98 l
73.72 -42.55 l
73.73 9.70 l
73.72 -10.60 l
73.73 -26.19 l
o
np
103.58 481.55 m
73.73 -5.13 l
73.72 -17.12 l
73.73 3.40 l
73.72 -7.52 l
73.73 -8.33 l
73.72 -26.32 l
73.73 15.66 l
73.72 1.70 l
73.73 -33.10 l
o
np
103.58 491.81 m
73.73 -4.01 l
73.72 -14.48 l
73.73 4.67 l
73.72 -32.21 l
73.73 29.36 l
73.72 -68.29 l
73.73 24.95 l
73.72 -8.77 l
73.73 13.19 l
o
np
103.58 496.43 m
73.73 -6.70 l
73.72 -16.62 l
73.73 -7.42 l
73.72 -0.24 l
73.73 -13.23 l
73.72 -1.98 l
73.73 4.74 l
73.72 -29.76 l
73.73 -15.48 l
o
np
103.58 491.03 m
73.73 -4.86 l
73.72 -8.68 l
73.73 2.10 l
73.72 -5.94 l
73.73 -28.35 l
73.72 -9.35 l
73.73 11.59 l
73.72 -30.31 l
73.73 -11.71 l
o
np
103.58 496.41 m
73.73 -8.24 l
73.72 -9.36 l
73.73 -4.71 l
73.72 -24.57 l
73.73 -25.78 l
73.72 33.58 l
73.73 -35.57 l
73.72 -6.45 l
73.73 -9.12 l
o
np
103.58 502.43 m
73.73 -9.33 l
73.72 -16.49 l
73.73 5.61 l
73.72 -3.52 l
73.73 -17.00 l
73.72 -1.19 l
73.73 -25.13 l
73.72 -32.99 l
73.73 16.29 l
o
0 0 1 srgb
0.75 setlinewidth
[ 2.25 3.75] 0 setdash
np
103.58 392.28 m
73.73 -22.46 l
73.72 -12.54 l
73.73 -23.90 l
73.72 -26.67 l
73.73 -11.81 l
73.72 -50.47 l
73.73 33.78 l
73.72 -68.20 l
73.73 -28.46 l
o
np
103.58 374.87 m
73.73 -15.83 l
73.72 -28.98 l
73.73 -28.99 l
73.72 -16.25 l
73.73 -42.13 l
73.72 -36.12 l
73.73 26.55 l
73.72 -16.78 l
73.73 -38.26 l
o
np
103.58 383.58 m
73.73 -20.55 l
73.72 -15.91 l
73.73 -37.48 l
73.72 -34.08 l
73.73 18.53 l
73.72 -34.84 l
73.73 -42.72 l
73.72 -10.03 l
73.73 2.52 l
o
np
103.58 364.32 m
73.73 -21.28 l
73.72 -22.95 l
73.73 -23.10 l
73.72 -19.70 l
73.73 -50.20 l
73.72 1.60 l
73.73 -72.56 l
73.72 7.73 l
73.73 41.47 l
o
np
103.58 379.08 m
73.73 -20.99 l
73.72 -21.38 l
73.73 -20.03 l
73.72 -51.70 l
73.73 4.76 l
73.72 -19.34 l
73.73 -23.93 l
73.72 -6.30 l
73.73 -40.92 l
o
np
103.58 388.84 m
73.73 -21.13 l
73.72 -18.46 l
73.73 -17.87 l
73.72 -14.51 l
73.73 -56.12 l
73.72 6.03 l
73.73 -40.67 l
73.72 -9.06 l
73.73 7.98 l
o
np
103.58 383.32 m
73.73 -17.88 l
73.72 -22.99 l
73.73 -25.67 l
73.72 -6.17 l
73.73 -38.12 l
73.72 3.37 l
73.73 -47.67 l
73.72 -42.94 l
73.73 51.58 l
o
np
103.58 383.61 m
73.73 -17.48 l
73.72 -26.28 l
73.73 -20.28 l
73.72 -49.65 l
73.73 12.11 l
73.72 -58.10 l
73.73 40.72 l
73.72 -69.04 l
73.73 -26.52 l
o
np
103.58 324.98 m
73.73 -30.48 l
73.72 -10.54 l
73.73 -36.87 l
73.72 -31.26 l
73.73 -17.78 l
73.72 -40.87 l
73.73 -18.78 l
73.72 -13.73 l
73.73 -17.42 l
o
np
103.58 393.51 m
73.73 -24.79 l
73.72 -10.27 l
73.73 -48.92 l
73.72 -16.11 l
73.73 -17.13 l
73.72 1.70 l
73.73 -33.73 l
73.72 -47.10 l
73.73 -7.76 l
o
np
103.58 434.14 m
73.73 -5.52 l
73.72 -0.61 l
73.73 8.93 l
73.72 0.17 l
73.73 26.28 l
73.72 -41.48 l
73.73 4.12 l
73.72 19.16 l
73.73 -9.77 l
o
np
103.58 420.82 m
73.73 -3.76 l
73.72 4.83 l
73.73 -12.46 l
73.72 11.18 l
73.73 -5.88 l
73.72 -37.71 l
73.73 33.60 l
73.72 -10.31 l
73.73 47.22 l
o
np
103.58 425.49 m
73.73 -4.68 l
73.72 -2.68 l
73.73 3.70 l
73.72 5.45 l
73.73 -1.25 l
73.72 20.86 l
73.73 3.51 l
73.72 -24.96 l
73.73 13.63 l
o
np
103.58 419.29 m
73.73 -8.80 l
73.72 4.02 l
73.73 0.83 l
73.72 -9.84 l
73.73 4.48 l
73.72 23.79 l
73.73 -56.91 l
73.72 50.13 l
73.73 -20.03 l
o
np
103.58 422.36 m
73.73 -3.08 l
73.72 -6.27 l
73.73 13.62 l
73.72 -14.47 l
73.73 8.89 l
73.72 1.20 l
73.73 -7.52 l
73.72 27.09 l
73.73 17.21 l
o
np
103.58 430.62 m
73.73 -5.23 l
73.72 1.25 l
73.73 -3.10 l
73.72 9.23 l
73.73 -8.79 l
73.72 26.02 l
73.73 1.16 l
73.72 7.84 l
73.73 -18.25 l
o
np
103.58 425.12 m
73.73 -5.30 l
73.72 -4.60 l
73.73 3.41 l
73.72 9.62 l
73.73 1.00 l
73.72 3.76 l
73.73 -32.87 l
73.72 30.99 l
73.73 -46.36 l
o
np
103.58 425.80 m
73.73 -1.74 l
73.72 -4.38 l
73.73 2.95 l
73.72 -9.25 l
73.73 -7.46 l
73.72 -5.26 l
73.73 44.64 l
73.72 -29.05 l
73.73 19.85 l
o
np
103.58 393.38 m
73.73 -5.38 l
73.72 -2.53 l
73.73 5.91 l
73.72 -23.41 l
73.73 -11.72 l
73.72 41.28 l
73.73 -5.25 l
73.72 17.70 l
73.73 -50.54 l
o
np
103.58 434.01 m
73.73 -2.84 l
73.72 -4.00 l
73.73 -0.81 l
73.72 -2.14 l
73.73 16.29 l
73.72 3.88 l
73.73 -12.20 l
73.72 23.46 l
73.73 -22.77 l
o
ep
%%Trailer
%%Pages: 1
%%EOF
