%!PS-Adobe-3.0
%%DocumentNeededResources: font Helvetica
%%+ font Helvetica-Bold
%%+ font Helvetica-Oblique
%%+ font Helvetica-BoldOblique
%%+ font Symbol
%%DocumentMedia: a4 595 841 0 () ()
%%Title: R Graphics Output
%%Creator: R Software
%%Pages: (atend)
%%Orientation: Landscape
%%BoundingBox: 18 18 577 824
%%EndComments
%%BeginProlog
/bp  { gs sRGB 595.00 0 translate 90 rotate gs } def
% begin .ps.prolog
/gs  { gsave } bind def
/gr  { grestore } bind def
/ep  { showpage gr gr } bind def
/m   { moveto } bind def
/l  { rlineto } bind def
/np  { newpath } bind def
/cp  { closepath } bind def
/f   { fill } bind def
/o   { stroke } bind def
/c   { newpath 0 360 arc } bind def
/r   { 4 2 roll moveto 1 copy 3 -1 roll exch 0 exch rlineto 0 rlineto -1 mul 0 exch rlineto closepath } bind def
/p1  { stroke } bind def
/p2  { gsave bg fill grestore newpath } bind def
/p3  { gsave bg fill grestore stroke } bind def
/p6  { gsave bg eofill grestore newpath } bind def
/p7  { gsave bg eofill grestore stroke } bind def
/t   { 5 -2 roll moveto gsave rotate
       1 index stringwidth pop
       mul neg 0 rmoveto show grestore } bind def
/ta  { 4 -2 roll moveto gsave rotate show } bind def
/tb  { 2 -1 roll 0 rmoveto show } bind def
/cl  { grestore gsave newpath 3 index 3 index moveto 1 index
       4 -1 roll lineto  exch 1 index lineto lineto
       closepath clip newpath } bind def
/rgb { setrgbcolor } bind def
/s   { scalefont setfont } bind def
% end   .ps.prolog
/sRGB { [ /CIEBasedABC
          << /DecodeLMN
               [ { dup 0.03928 le
                        {12.92321 div}
                        {0.055 add 1.055 div 2.4 exp }
                     ifelse
                 } bind dup dup
               ]
             /MatrixLMN [0.412457 0.212673 0.019334
                         0.357576 0.715152 0.119192
                         0.180437 0.072175 0.950301]
             /WhitePoint [0.9505 1.0 1.0890]
           >>
         ] setcolorspace } bind def
/srgb { setcolor } bind def
%%IncludeResource: font Helvetica
/Helvetica findfont
dup length dict begin
  {1 index /FID ne {def} {pop pop} ifelse} forall
  /Encoding ISOLatin1Encoding def
  currentdict
  end
/Font1 exch definefont pop
%%IncludeResource: font Helvetica-Bold
/Helvetica-Bold findfont
dup length dict begin
  {1 index /FID ne {def} {pop pop} ifelse} forall
  /Encoding ISOLatin1Encoding def
  currentdict
  end
/Font2 exch definefont pop
%%IncludeResource: font Helvetica-Oblique
/Helvetica-Oblique findfont
dup length dict begin
  {1 index /FID ne {def} {pop pop} ifelse} forall
  /Encoding ISOLatin1Encoding def
  currentdict
  end
/Font3 exch definefont pop
%%IncludeResource: font Helvetica-BoldOblique
/Helvetica-BoldOblique findfont
dup length dict begin
  {1 index /FID ne {def} {pop pop} ifelse} forall
  /Encoding ISOLatin1Encoding def
  currentdict
  end
/Font4 exch definefont pop
%%IncludeResource: font Symbol
/Symbol findfont
dup length dict begin
  {1 index /FID ne {def} {pop pop} ifelse} forall
  currentdict
  end
/Font5 exch definefont pop
%%EndProlog
%%Page: 1 1
bp
77.04 91.44 793.65 518.24 cl
1 0 0 srgb
0.75 setlinewidth
[] 0 setdash
1 setlinecap
1 setlinejoin
10.00 setmiterlimit
np
103.58 460.20 m
73.73 -13.79 l
73.72 -14.64 l
73.73 -19.33 l
73.72 -18.95 l
73.73 -0.16 l
73.72 -23.58 l
73.73 2.82 l
73.72 2.72 l
73.73 -76.07 l
o
18.00 18.00 823.89 577.28 cl
0 0 0 srgb
0.75 setlinewidth
[] 0 setdash
1 setlinecap
1 setlinejoin
10.00 setmiterlimit
np
243.27 91.44 m
523.84 0 l
o
np
243.27 91.44 m
0 -7.20 l
o
np
417.88 91.44 m
0 -7.20 l
o
np
592.50 91.44 m
0 -7.20 l
o
np
767.11 91.44 m
0 -7.20 l
o
/Font1 findfont 12 s
243.27 65.52 (0.5) .5 0 t
417.88 65.52 (1.0) .5 0 t
592.50 65.52 (1.5) .5 0 t
767.11 65.52 (2.0) .5 0 t
np
77.04 113.81 m
0 339.20 l
o
np
77.04 113.81 m
-7.20 0 l
o
np
77.04 181.65 m
-7.20 0 l
o
np
77.04 249.49 m
-7.20 0 l
o
np
77.04 317.33 m
-7.20 0 l
o
np
77.04 385.17 m
-7.20 0 l
o
np
77.04 453.01 m
-7.20 0 l
o
59.76 113.81 (-6) .5 90 t
59.76 181.65 (-5) .5 90 t
59.76 249.49 (-4) .5 90 t
59.76 317.33 (-3) .5 90 t
59.76 385.17 (-2) .5 90 t
59.76 453.01 (-1) .5 90 t
np
77.04 91.44 m
716.61 0 l
0 426.80 l
-716.61 0 l
0 -426.80 l
o
18.00 18.00 823.89 577.28 cl
/Font5 findfont 12 s
0 0 0 srgb
432.38 36.95 (d) 0 0 t
28.28 299.32 (b) 0 90 t
/Font1 findfont 8 s
30.48 305.91 (2) 0 90 t
77.04 91.44 793.65 518.24 cl
1 0 0 srgb
0.75 setlinewidth
[] 0 setdash
1 setlinecap
1 setlinejoin
10.00 setmiterlimit
np
103.58 458.75 m
73.73 -22.65 l
73.72 -10.51 l
73.73 -6.63 l
73.72 -25.65 l
73.73 -2.79 l
73.72 -8.51 l
73.73 -49.77 l
73.72 14.15 l
73.73 -10.98 l
o
np
103.58 462.99 m
73.73 -20.13 l
73.72 -13.55 l
73.73 -14.90 l
73.72 -15.41 l
73.73 -19.10 l
73.72 -20.58 l
73.73 37.36 l
73.72 -34.53 l
73.73 -47.93 l
o
np
103.58 468.95 m
73.73 -16.88 l
73.72 -17.26 l
73.73 -27.53 l
73.72 1.89 l
73.73 -26.38 l
73.72 -11.90 l
73.73 22.26 l
73.72 -35.26 l
73.73 7.22 l
o
np
103.58 453.50 m
73.73 -18.51 l
73.72 -17.91 l
73.73 -11.63 l
73.72 -8.69 l
73.73 -8.38 l
73.72 -33.67 l
73.73 -7.65 l
73.72 -12.69 l
73.73 23.36 l
o
np
103.58 465.77 m
73.73 -17.29 l
73.72 -17.35 l
73.73 -5.07 l
73.72 -26.46 l
73.73 -3.67 l
73.72 -2.99 l
73.73 -2.43 l
73.72 -14.73 l
73.73 -48.44 l
o
np
103.58 469.46 m
73.73 -21.77 l
73.72 -17.06 l
73.73 -21.31 l
73.72 -29.29 l
73.73 10.30 l
73.72 -49.83 l
73.73 -7.18 l
73.72 47.77 l
73.73 -0.35 l
o
np
103.58 462.10 m
73.73 -21.34 l
73.72 -7.78 l
73.73 -34.09 l
73.72 0.64 l
73.73 -7.76 l
73.72 -35.26 l
73.73 5.74 l
73.72 -11.22 l
73.73 -12.65 l
o
np
103.58 464.80 m
73.73 -22.63 l
73.72 -12.78 l
73.73 -32.92 l
73.72 -9.23 l
73.73 0.75 l
73.72 -56.69 l
73.73 2.82 l
73.72 -16.42 l
73.73 -19.92 l
o
np
103.58 478.01 m
73.73 -25.58 l
73.72 -18.58 l
73.73 0.21 l
73.72 -28.63 l
73.73 -12.28 l
73.72 1.34 l
73.73 -7.80 l
73.72 -9.48 l
73.73 -26.54 l
o
np
103.58 488.07 m
73.73 -4.85 l
73.72 -6.58 l
73.73 -9.47 l
73.72 -15.03 l
73.73 4.06 l
73.72 -40.91 l
73.73 37.43 l
73.72 35.16 l
73.73 -66.84 l
o
np
103.58 483.49 m
73.73 -4.63 l
73.72 3.93 l
73.73 -7.40 l
73.72 -10.70 l
73.73 -7.38 l
73.72 -12.04 l
73.73 7.94 l
73.72 -16.00 l
73.73 4.34 l
o
np
103.58 489.70 m
73.73 -10.16 l
73.72 -10.60 l
73.73 6.98 l
73.72 -21.85 l
73.73 -13.79 l
73.72 -23.26 l
73.73 42.86 l
73.72 32.02 l
73.73 -107.03 l
o
np
103.58 497.44 m
73.73 -10.26 l
73.72 -0.32 l
73.73 -14.98 l
73.72 0.97 l
73.73 13.41 l
73.72 -64.34 l
73.73 21.97 l
73.72 -14.60 l
73.73 -19.40 l
o
np
103.58 482.40 m
73.73 -7.02 l
73.72 -9.67 l
73.73 -9.56 l
73.72 5.37 l
73.73 -15.54 l
73.72 -19.88 l
73.73 24.93 l
73.72 -45.27 l
73.73 22.46 l
o
np
103.58 491.09 m
73.73 -3.04 l
73.72 -16.60 l
73.73 2.53 l
73.72 -21.22 l
73.73 3.26 l
73.72 -7.58 l
73.73 -8.61 l
73.72 -0.55 l
73.73 1.40 l
o
np
103.58 494.39 m
73.73 -4.71 l
73.72 -13.94 l
73.73 -10.07 l
73.72 -18.98 l
73.73 3.10 l
73.72 -9.53 l
73.73 -39.43 l
73.72 41.58 l
73.73 2.41 l
o
np
103.58 491.31 m
73.73 -1.82 l
73.72 -17.50 l
73.73 0.58 l
73.72 -16.29 l
73.73 -14.76 l
73.72 -2.75 l
73.73 -2.77 l
73.72 7.25 l
73.73 -17.04 l
o
np
103.58 496.50 m
73.73 -11.05 l
73.72 -14.79 l
73.73 -8.06 l
73.72 -0.10 l
73.73 -28.88 l
73.72 63.22 l
73.73 -80.85 l
73.72 25.79 l
73.73 -58.08 l
o
np
103.58 502.43 m
73.73 -8.48 l
73.72 -16.51 l
73.73 0.34 l
73.72 4.67 l
73.73 -26.73 l
73.72 -6.32 l
73.73 31.68 l
73.72 -16.33 l
73.73 -65.24 l
o
0 0 1 srgb
0.75 setlinewidth
[ 2.25 3.75] 0 setdash
np
103.58 391.82 m
73.73 -22.49 l
73.72 -12.54 l
73.73 -23.93 l
73.72 -26.65 l
73.73 -11.77 l
73.72 -50.47 l
73.73 33.79 l
73.72 -68.13 l
73.73 -28.38 l
o
np
103.58 374.39 m
73.73 -15.86 l
73.72 -29.00 l
73.73 -28.92 l
73.72 -16.34 l
73.73 -42.12 l
73.72 -36.04 l
73.73 26.56 l
73.72 -16.65 l
73.73 -38.31 l
o
np
103.58 383.10 m
73.73 -20.57 l
73.72 -15.93 l
73.73 -37.50 l
73.72 -34.08 l
73.73 18.57 l
73.72 -34.84 l
73.73 -42.62 l
73.72 -10.08 l
73.73 2.71 l
o
np
103.58 363.82 m
73.73 -21.30 l
73.72 -22.96 l
73.73 -23.05 l
73.72 -19.72 l
73.73 -50.07 l
73.72 1.48 l
73.73 -72.35 l
73.72 7.76 l
73.73 41.61 l
o
np
103.58 378.60 m
73.73 -21.01 l
73.72 -21.39 l
73.73 -20.03 l
73.72 -51.74 l
73.73 4.84 l
73.72 -19.37 l
73.73 -23.86 l
73.72 -6.15 l
73.73 -40.99 l
o
np
103.58 388.38 m
73.73 -21.16 l
73.72 -18.48 l
73.73 -17.87 l
73.72 -14.50 l
73.73 -56.13 l
73.72 6.08 l
73.73 -40.61 l
73.72 -9.02 l
73.73 8.08 l
o
np
103.58 382.84 m
73.73 -17.91 l
73.72 -23.01 l
73.73 -25.66 l
73.72 -6.18 l
73.73 -38.08 l
73.72 3.39 l
73.73 -47.61 l
73.72 -42.94 l
73.73 51.75 l
o
np
103.58 383.13 m
73.73 -17.49 l
73.72 -26.34 l
73.73 -20.22 l
73.72 -49.65 l
73.73 12.16 l
73.72 -58.11 l
73.73 40.73 l
73.72 -68.97 l
73.73 -26.47 l
o
np
103.58 324.42 m
73.73 -30.44 l
73.72 -10.57 l
73.73 -36.83 l
73.72 -31.11 l
73.73 -17.79 l
73.72 -40.86 l
73.73 -18.65 l
73.72 -13.66 l
73.73 -17.26 l
o
np
103.58 393.05 m
73.73 -24.81 l
73.72 -10.30 l
73.73 -48.95 l
73.72 -16.03 l
73.73 -17.14 l
73.72 1.73 l
73.73 -33.64 l
73.72 -47.10 l
73.73 -7.61 l
o
np
103.58 433.77 m
73.73 -5.53 l
73.72 -0.58 l
73.73 8.96 l
73.72 0.22 l
73.73 26.47 l
73.72 -41.54 l
73.73 4.16 l
73.72 19.38 l
73.73 -9.71 l
o
np
103.58 420.42 m
73.73 -3.76 l
73.72 4.87 l
73.73 -12.42 l
73.72 11.20 l
73.73 -5.75 l
73.72 -37.70 l
73.73 33.69 l
73.72 -10.24 l
73.73 47.39 l
o
np
103.58 425.10 m
73.73 -4.69 l
73.72 -2.64 l
73.73 3.71 l
73.72 5.52 l
73.73 -1.20 l
73.72 21.02 l
73.73 3.73 l
73.72 -25.04 l
73.73 13.53 l
o
np
103.58 418.89 m
73.73 -8.80 l
73.72 4.05 l
73.73 0.88 l
73.72 -9.80 l
73.73 4.61 l
73.72 23.82 l
73.73 -56.87 l
73.72 50.21 l
73.73 -19.89 l
o
np
103.58 421.96 m
73.73 -3.08 l
73.72 -6.25 l
73.73 13.67 l
73.72 -14.43 l
73.73 8.94 l
73.72 1.35 l
73.73 -7.58 l
73.72 27.24 l
73.73 17.48 l
o
np
103.58 430.24 m
73.73 -5.23 l
73.72 1.28 l
73.73 -3.10 l
73.72 9.30 l
73.73 -8.71 l
73.72 26.04 l
73.73 1.38 l
73.72 7.87 l
73.73 -18.16 l
o
np
103.58 424.73 m
73.73 -5.31 l
73.72 -4.58 l
73.73 3.47 l
73.72 9.67 l
73.73 1.08 l
73.72 3.81 l
73.73 -32.89 l
73.72 31.26 l
73.73 -46.33 l
o
np
103.58 425.40 m
73.73 -1.72 l
73.72 -4.37 l
73.73 2.99 l
73.72 -9.23 l
73.73 -7.39 l
73.72 -5.17 l
73.73 45.00 l
73.72 -29.31 l
73.73 19.97 l
o
np
103.58 392.95 m
73.73 -5.39 l
73.72 -2.49 l
73.73 6.00 l
73.72 -23.40 l
73.73 -11.59 l
73.72 41.50 l
73.73 -4.70 l
73.72 17.33 l
73.73 -50.29 l
o
np
103.58 433.63 m
73.73 -2.83 l
73.72 -3.98 l
73.73 -0.79 l
73.72 -2.08 l
73.73 16.43 l
73.72 3.86 l
73.73 -12.07 l
73.72 23.70 l
73.73 -22.71 l
o
ep
%%Trailer
%%Pages: 1
%%EOF
