%!PS-Adobe-3.0
%%DocumentNeededResources: font Helvetica
%%+ font Helvetica-Bold
%%+ font Helvetica-Oblique
%%+ font Helvetica-BoldOblique
%%+ font Symbol
%%DocumentMedia: a4 595 841 0 () ()
%%Title: R Graphics Output
%%Creator: R Software
%%Pages: (atend)
%%Orientation: Landscape
%%BoundingBox: 18 18 577 824
%%EndComments
%%BeginProlog
/bp  { gs sRGB 595.00 0 translate 90 rotate gs } def
% begin .ps.prolog
/gs  { gsave } bind def
/gr  { grestore } bind def
/ep  { showpage gr gr } bind def
/m   { moveto } bind def
/l  { rlineto } bind def
/np  { newpath } bind def
/cp  { closepath } bind def
/f   { fill } bind def
/o   { stroke } bind def
/c   { newpath 0 360 arc } bind def
/r   { 4 2 roll moveto 1 copy 3 -1 roll exch 0 exch rlineto 0 rlineto -1 mul 0 exch rlineto closepath } bind def
/p1  { stroke } bind def
/p2  { gsave bg fill grestore newpath } bind def
/p3  { gsave bg fill grestore stroke } bind def
/p6  { gsave bg eofill grestore newpath } bind def
/p7  { gsave bg eofill grestore stroke } bind def
/t   { 5 -2 roll moveto gsave rotate
       1 index stringwidth pop
       mul neg 0 rmoveto show grestore } bind def
/ta  { 4 -2 roll moveto gsave rotate show } bind def
/tb  { 2 -1 roll 0 rmoveto show } bind def
/cl  { grestore gsave newpath 3 index 3 index moveto 1 index
       4 -1 roll lineto  exch 1 index lineto lineto
       closepath clip newpath } bind def
/rgb { setrgbcolor } bind def
/s   { scalefont setfont } bind def
% end   .ps.prolog
/sRGB { [ /CIEBasedABC
          << /DecodeLMN
               [ { dup 0.03928 le
                        {12.92321 div}
                        {0.055 add 1.055 div 2.4 exp }
                     ifelse
                 } bind dup dup
               ]
             /MatrixLMN [0.412457 0.212673 0.019334
                         0.357576 0.715152 0.119192
                         0.180437 0.072175 0.950301]
             /WhitePoint [0.9505 1.0 1.0890]
           >>
         ] setcolorspace } bind def
/srgb { setcolor } bind def
%%IncludeResource: font Helvetica
/Helvetica findfont
dup length dict begin
  {1 index /FID ne {def} {pop pop} ifelse} forall
  /Encoding ISOLatin1Encoding def
  currentdict
  end
/Font1 exch definefont pop
%%IncludeResource: font Helvetica-Bold
/Helvetica-Bold findfont
dup length dict begin
  {1 index /FID ne {def} {pop pop} ifelse} forall
  /Encoding ISOLatin1Encoding def
  currentdict
  end
/Font2 exch definefont pop
%%IncludeResource: font Helvetica-Oblique
/Helvetica-Oblique findfont
dup length dict begin
  {1 index /FID ne {def} {pop pop} ifelse} forall
  /Encoding ISOLatin1Encoding def
  currentdict
  end
/Font3 exch definefont pop
%%IncludeResource: font Helvetica-BoldOblique
/Helvetica-BoldOblique findfont
dup length dict begin
  {1 index /FID ne {def} {pop pop} ifelse} forall
  /Encoding ISOLatin1Encoding def
  currentdict
  end
/Font4 exch definefont pop
%%IncludeResource: font Symbol
/Symbol findfont
dup length dict begin
  {1 index /FID ne {def} {pop pop} ifelse} forall
  currentdict
  end
/Font5 exch definefont pop
%%EndProlog
%%Page: 1 1
bp
77.04 91.44 793.65 518.24 cl
1 0 0 srgb
0.75 setlinewidth
[] 0 setdash
1 setlinecap
1 setlinejoin
10.00 setmiterlimit
np
103.58 396.70 m
73.73 -15.68 l
73.72 -10.51 l
73.73 -29.41 l
73.72 4.51 l
73.73 -38.79 l
73.72 16.46 l
73.73 -22.59 l
73.72 -4.51 l
73.73 -51.25 l
o
18.00 18.00 823.89 577.28 cl
0 0 0 srgb
0.75 setlinewidth
[] 0 setdash
1 setlinecap
1 setlinejoin
10.00 setmiterlimit
np
243.27 91.44 m
523.84 0 l
o
np
243.27 91.44 m
0 -7.20 l
o
np
417.88 91.44 m
0 -7.20 l
o
np
592.50 91.44 m
0 -7.20 l
o
np
767.11 91.44 m
0 -7.20 l
o
/Font1 findfont 12 s
243.27 65.52 (0.5) .5 0 t
417.88 65.52 (1.0) .5 0 t
592.50 65.52 (1.5) .5 0 t
767.11 65.52 (2.0) .5 0 t
np
77.04 113.99 m
0 341.34 l
o
np
77.04 113.99 m
-7.20 0 l
o
np
77.04 182.26 m
-7.20 0 l
o
np
77.04 250.53 m
-7.20 0 l
o
np
77.04 318.80 m
-7.20 0 l
o
np
77.04 387.07 m
-7.20 0 l
o
np
77.04 455.33 m
-7.20 0 l
o
59.76 113.99 (-4) .5 90 t
59.76 182.26 (-3) .5 90 t
59.76 250.53 (-2) .5 90 t
59.76 318.80 (-1) .5 90 t
59.76 387.07 (0) .5 90 t
59.76 455.33 (1) .5 90 t
np
77.04 91.44 m
716.61 0 l
0 426.80 l
-716.61 0 l
0 -426.80 l
o
18.00 18.00 823.89 577.28 cl
/Font5 findfont 12 s
0 0 0 srgb
432.38 36.95 (d) 0 0 t
28.28 299.32 (b) 0 90 t
/Font1 findfont 8 s
30.48 305.91 (2) 0 90 t
77.04 91.44 793.65 518.24 cl
1 0 0 srgb
0.75 setlinewidth
[] 0 setdash
1 setlinecap
1 setlinejoin
10.00 setmiterlimit
np
103.58 394.74 m
73.73 -23.26 l
73.72 -4.22 l
73.73 -22.78 l
73.72 -3.25 l
73.73 -34.84 l
73.72 -3.65 l
73.73 -44.89 l
73.72 15.77 l
73.73 13.83 l
o
np
103.58 394.35 m
73.73 -20.71 l
73.72 -23.18 l
73.73 -2.13 l
73.72 -42.96 l
73.73 -15.06 l
73.72 -23.98 l
73.73 16.13 l
73.72 11.70 l
73.73 -55.58 l
o
np
103.58 405.84 m
73.73 -18.28 l
73.72 -15.76 l
73.73 -10.14 l
73.72 -30.11 l
73.73 -9.98 l
73.72 -17.08 l
73.73 4.73 l
73.72 -0.37 l
73.73 -8.07 l
o
np
103.58 398.93 m
73.73 -16.95 l
73.72 -13.67 l
73.73 -26.46 l
73.72 -23.81 l
73.73 17.40 l
73.72 -30.69 l
73.73 -12.67 l
73.72 1.93 l
73.73 1.16 l
o
np
103.58 389.30 m
73.73 -21.95 l
73.72 -17.19 l
73.73 -9.05 l
73.72 -10.36 l
73.73 -18.33 l
73.72 -35.33 l
73.73 28.33 l
73.72 -88.55 l
73.73 36.06 l
o
np
103.58 416.83 m
73.73 -17.88 l
73.72 -17.04 l
73.73 -21.32 l
73.72 -27.35 l
73.73 -16.72 l
73.72 2.21 l
73.73 -35.97 l
73.72 45.62 l
73.73 -10.05 l
o
np
103.58 396.21 m
73.73 -22.65 l
73.72 -8.80 l
73.73 -25.23 l
73.72 16.05 l
73.73 -54.80 l
73.72 20.39 l
73.73 -9.35 l
73.72 -52.72 l
73.73 23.40 l
o
np
103.58 399.85 m
73.73 -22.04 l
73.72 -20.34 l
73.73 -24.78 l
73.72 -17.10 l
73.73 -6.26 l
73.72 -12.98 l
73.73 4.15 l
73.72 -13.52 l
73.73 -48.54 l
o
np
103.58 413.52 m
73.73 -24.06 l
73.72 -9.53 l
73.73 -1.92 l
73.72 -37.17 l
73.73 -4.49 l
73.72 -22.83 l
73.73 -37.68 l
73.72 -17.04 l
73.73 20.92 l
o
np
103.58 424.16 m
73.73 -7.86 l
73.72 -5.24 l
73.73 -13.17 l
73.72 8.74 l
73.73 -15.20 l
73.72 -5.99 l
73.73 -4.79 l
73.72 -22.75 l
73.73 -5.05 l
o
np
103.58 422.65 m
73.73 -9.04 l
73.72 -3.35 l
73.73 10.07 l
73.72 -11.87 l
73.73 -8.21 l
73.72 -19.55 l
73.73 -5.81 l
73.72 0.63 l
73.73 40.99 l
o
np
103.58 421.33 m
73.73 -10.71 l
73.72 -3.31 l
73.73 -3.13 l
73.72 -12.82 l
73.73 -51.09 l
73.72 21.77 l
73.73 5.45 l
73.72 36.16 l
73.73 -62.66 l
o
np
103.58 434.73 m
73.73 -10.03 l
73.72 -0.78 l
73.73 -16.17 l
73.72 -15.46 l
73.73 20.38 l
73.72 -29.62 l
73.73 -9.64 l
73.72 -17.77 l
73.73 23.63 l
o
np
103.58 426.70 m
73.73 -4.47 l
73.72 -14.81 l
73.73 1.66 l
73.72 -18.38 l
73.73 5.82 l
73.72 -3.44 l
73.73 -38.04 l
73.72 23.23 l
73.73 14.45 l
o
np
103.58 417.25 m
73.73 -7.19 l
73.72 -11.56 l
73.73 -7.84 l
73.72 -9.71 l
73.73 -3.47 l
73.72 -22.24 l
73.73 1.37 l
73.72 -2.41 l
73.73 -33.59 l
o
np
103.58 441.16 m
73.73 -8.50 l
73.72 -6.93 l
73.73 -3.24 l
73.72 -21.02 l
73.73 -3.76 l
73.72 -24.67 l
73.73 -5.10 l
73.72 17.08 l
73.73 3.46 l
o
np
103.58 425.06 m
73.73 -5.69 l
73.72 -11.07 l
73.73 -3.23 l
73.72 4.28 l
73.73 -22.82 l
73.72 -16.39 l
73.73 -0.75 l
73.72 -25.60 l
73.73 10.65 l
o
np
103.58 431.88 m
73.73 -9.10 l
73.72 -12.98 l
73.73 -12.63 l
73.72 -15.10 l
73.73 -9.05 l
73.72 32.14 l
73.73 -14.87 l
73.72 1.19 l
73.73 -58.71 l
o
np
103.58 439.53 m
73.73 -13.90 l
73.72 -10.06 l
73.73 3.68 l
73.72 14.23 l
73.73 -41.55 l
73.72 10.25 l
73.73 -35.77 l
73.72 13.01 l
73.73 -12.18 l
o
0 0 1 srgb
0.75 setlinewidth
[ 2.25 3.75] 0 setdash
np
103.58 326.62 m
73.73 -26.77 l
73.72 -7.25 l
73.73 -18.94 l
73.72 -16.01 l
73.73 -31.75 l
73.72 -35.85 l
73.73 54.48 l
73.72 -47.24 l
73.73 12.74 l
o
np
103.58 293.74 m
73.73 -13.25 l
73.72 -14.55 l
73.73 -41.69 l
73.72 3.58 l
73.73 13.18 l
73.72 -92.03 l
73.73 34.98 l
73.72 -5.34 l
73.73 80.60 l
o
np
103.58 295.37 m
73.73 -29.35 l
73.72 12.95 l
73.73 -29.45 l
73.72 -34.33 l
73.73 23.22 l
73.72 1.51 l
73.73 -39.22 l
73.72 -30.02 l
73.73 33.63 l
o
np
103.58 313.43 m
73.73 -27.90 l
73.72 -26.88 l
73.73 -16.03 l
73.72 9.23 l
73.73 -117.83 l
73.72 52.11 l
73.73 -45.18 l
73.72 39.01 l
73.73 89.67 l
o
np
103.58 296.26 m
73.73 -25.59 l
73.72 -11.37 l
73.73 -13.29 l
73.72 -51.09 l
73.73 3.37 l
73.72 18.09 l
73.73 -14.97 l
73.72 70.98 l
73.73 -36.35 l
o
np
103.58 315.55 m
73.73 -24.27 l
73.72 -10.00 l
73.73 -32.67 l
73.72 8.44 l
73.73 -56.29 l
73.72 38.48 l
73.73 -73.81 l
73.72 49.87 l
73.73 -4.97 l
o
np
103.58 295.29 m
73.73 -12.60 l
73.72 -27.07 l
73.73 -34.46 l
73.72 20.25 l
73.73 -48.04 l
73.72 15.34 l
73.73 -33.60 l
73.72 -67.86 l
73.73 95.21 l
o
np
103.58 313.94 m
73.73 -11.74 l
73.72 -40.68 l
73.73 -32.95 l
73.72 -19.76 l
73.73 4.30 l
73.72 -102.45 l
73.73 159.97 l
73.72 -68.22 l
73.73 -71.71 l
o
np
103.58 260.40 m
73.73 -47.39 l
73.72 6.91 l
73.73 -40.80 l
73.72 -20.31 l
73.73 -2.87 l
73.72 -12.78 l
73.73 -25.42 l
73.72 8.01 l
73.73 9.95 l
o
np
103.58 328.01 m
73.73 -24.13 l
73.72 0.76 l
73.73 -31.60 l
73.72 -33.97 l
73.73 -13.59 l
73.72 54.49 l
73.73 -46.45 l
73.72 -35.35 l
73.73 -21.02 l
o
np
103.58 371.05 m
73.73 -4.32 l
73.72 -3.59 l
73.73 1.16 l
73.72 -2.50 l
73.73 17.94 l
73.72 -10.87 l
73.73 38.13 l
73.72 -39.88 l
73.73 64.32 l
o
np
103.58 357.18 m
73.73 -11.27 l
73.72 5.27 l
73.73 -18.45 l
73.72 26.58 l
73.73 34.57 l
73.72 -77.50 l
73.73 47.86 l
73.72 63.83 l
73.73 44.59 l
o
np
103.58 361.39 m
73.73 -17.09 l
73.72 1.39 l
73.73 0.09 l
73.72 -6.15 l
73.73 35.64 l
73.72 1.39 l
73.73 -31.60 l
73.72 47.97 l
73.73 69.61 l
o
np
103.58 362.99 m
73.73 -16.50 l
73.72 3.49 l
73.73 9.56 l
73.72 6.73 l
73.73 -13.34 l
73.72 33.36 l
73.73 17.06 l
73.72 16.20 l
73.73 4.68 l
o
np
103.58 346.43 m
73.73 0.37 l
73.72 -17.87 l
73.73 30.48 l
73.72 -16.96 l
73.73 -28.91 l
73.72 41.71 l
73.73 46.26 l
73.72 18.08 l
73.73 65.54 l
o
np
103.58 365.79 m
73.73 -5.52 l
73.72 -0.65 l
73.73 -2.76 l
73.72 25.91 l
73.73 -17.94 l
73.72 84.18 l
73.73 -30.73 l
73.72 13.71 l
73.73 -25.30 l
o
np
103.58 355.14 m
73.73 -7.81 l
73.72 -8.56 l
73.73 -6.50 l
73.72 22.79 l
73.73 8.90 l
73.72 2.62 l
73.73 22.03 l
73.72 8.21 l
73.73 95.17 l
o
np
103.58 364.06 m
73.73 -4.89 l
73.72 -15.86 l
73.73 7.01 l
73.72 0.05 l
73.73 -7.35 l
73.72 -6.56 l
73.73 58.98 l
73.72 -4.25 l
73.73 62.01 l
o
np
103.58 338.48 m
73.73 -23.50 l
73.72 3.80 l
73.73 -8.83 l
73.72 -3.74 l
73.73 -7.64 l
73.72 43.35 l
73.73 -33.30 l
73.72 193.81 l
73.73 -116.75 l
o
np
103.58 376.11 m
73.73 -1.94 l
73.72 0.12 l
73.73 -7.62 l
73.72 10.69 l
73.73 4.44 l
73.72 32.05 l
73.73 -47.51 l
73.72 -20.80 l
73.73 83.59 l
o
ep
%%Trailer
%%Pages: 1
%%EOF
