%!PS-Adobe-3.0
%%DocumentNeededResources: font Helvetica
%%+ font Helvetica-Bold
%%+ font Helvetica-Oblique
%%+ font Helvetica-BoldOblique
%%+ font Symbol
%%DocumentMedia: a4 595 841 0 () ()
%%Title: R Graphics Output
%%Creator: R Software
%%Pages: (atend)
%%Orientation: Landscape
%%BoundingBox: 18 18 577 824
%%EndComments
%%BeginProlog
/bp  { gs sRGB 595.00 0 translate 90 rotate gs } def
% begin .ps.prolog
/gs  { gsave } bind def
/gr  { grestore } bind def
/ep  { showpage gr gr } bind def
/m   { moveto } bind def
/l  { rlineto } bind def
/np  { newpath } bind def
/cp  { closepath } bind def
/f   { fill } bind def
/o   { stroke } bind def
/c   { newpath 0 360 arc } bind def
/r   { 4 2 roll moveto 1 copy 3 -1 roll exch 0 exch rlineto 0 rlineto -1 mul 0 exch rlineto closepath } bind def
/p1  { stroke } bind def
/p2  { gsave bg fill grestore newpath } bind def
/p3  { gsave bg fill grestore stroke } bind def
/p6  { gsave bg eofill grestore newpath } bind def
/p7  { gsave bg eofill grestore stroke } bind def
/t   { 5 -2 roll moveto gsave rotate
       1 index stringwidth pop
       mul neg 0 rmoveto show grestore } bind def
/ta  { 4 -2 roll moveto gsave rotate show } bind def
/tb  { 2 -1 roll 0 rmoveto show } bind def
/cl  { grestore gsave newpath 3 index 3 index moveto 1 index
       4 -1 roll lineto  exch 1 index lineto lineto
       closepath clip newpath } bind def
/rgb { setrgbcolor } bind def
/s   { scalefont setfont } bind def
% end   .ps.prolog
/sRGB { [ /CIEBasedABC
          << /DecodeLMN
               [ { dup 0.03928 le
                        {12.92321 div}
                        {0.055 add 1.055 div 2.4 exp }
                     ifelse
                 } bind dup dup
               ]
             /MatrixLMN [0.412457 0.212673 0.019334
                         0.357576 0.715152 0.119192
                         0.180437 0.072175 0.950301]
             /WhitePoint [0.9505 1.0 1.0890]
           >>
         ] setcolorspace } bind def
/srgb { setcolor } bind def
%%IncludeResource: font Helvetica
/Helvetica findfont
dup length dict begin
  {1 index /FID ne {def} {pop pop} ifelse} forall
  /Encoding ISOLatin1Encoding def
  currentdict
  end
/Font1 exch definefont pop
%%IncludeResource: font Helvetica-Bold
/Helvetica-Bold findfont
dup length dict begin
  {1 index /FID ne {def} {pop pop} ifelse} forall
  /Encoding ISOLatin1Encoding def
  currentdict
  end
/Font2 exch definefont pop
%%IncludeResource: font Helvetica-Oblique
/Helvetica-Oblique findfont
dup length dict begin
  {1 index /FID ne {def} {pop pop} ifelse} forall
  /Encoding ISOLatin1Encoding def
  currentdict
  end
/Font3 exch definefont pop
%%IncludeResource: font Helvetica-BoldOblique
/Helvetica-BoldOblique findfont
dup length dict begin
  {1 index /FID ne {def} {pop pop} ifelse} forall
  /Encoding ISOLatin1Encoding def
  currentdict
  end
/Font4 exch definefont pop
%%IncludeResource: font Symbol
/Symbol findfont
dup length dict begin
  {1 index /FID ne {def} {pop pop} ifelse} forall
  currentdict
  end
/Font5 exch definefont pop
%%EndProlog
%%Page: 1 1
bp
77.04 91.44 793.65 518.24 cl
1 0 0 srgb
0.75 setlinewidth
[] 0 setdash
1 setlinecap
1 setlinejoin
10.00 setmiterlimit
np
103.58 395.77 m
73.73 -13.20 l
73.72 -13.13 l
73.73 -15.76 l
73.72 -17.72 l
73.73 -17.28 l
73.72 -32.41 l
73.73 42.63 l
73.72 2.62 l
73.73 -27.61 l
o
18.00 18.00 823.89 577.28 cl
0 0 0 srgb
0.75 setlinewidth
[] 0 setdash
1 setlinecap
1 setlinejoin
10.00 setmiterlimit
np
243.27 91.44 m
523.84 0 l
o
np
243.27 91.44 m
0 -7.20 l
o
np
417.88 91.44 m
0 -7.20 l
o
np
592.50 91.44 m
0 -7.20 l
o
np
767.11 91.44 m
0 -7.20 l
o
/Font1 findfont 12 s
243.27 65.52 (0.5) .5 0 t
417.88 65.52 (1.0) .5 0 t
592.50 65.52 (1.5) .5 0 t
767.11 65.52 (2.0) .5 0 t
np
77.04 113.46 m
0 341.74 l
o
np
77.04 113.46 m
-7.20 0 l
o
np
77.04 181.81 m
-7.20 0 l
o
np
77.04 250.16 m
-7.20 0 l
o
np
77.04 318.50 m
-7.20 0 l
o
np
77.04 386.85 m
-7.20 0 l
o
np
77.04 455.20 m
-7.20 0 l
o
59.76 113.46 (-5) .5 90 t
59.76 181.81 (-4) .5 90 t
59.76 250.16 (-3) .5 90 t
59.76 318.50 (-2) .5 90 t
59.76 386.85 (-1) .5 90 t
59.76 455.20 (0) .5 90 t
np
77.04 91.44 m
716.61 0 l
0 426.80 l
-716.61 0 l
0 -426.80 l
o
18.00 18.00 823.89 577.28 cl
/Font5 findfont 12 s
0 0 0 srgb
432.38 36.95 (d) 0 0 t
28.28 299.32 (b) 0 90 t
/Font1 findfont 8 s
30.48 305.91 (2) 0 90 t
77.04 91.44 793.65 518.24 cl
1 0 0 srgb
0.75 setlinewidth
[] 0 setdash
1 setlinecap
1 setlinejoin
10.00 setmiterlimit
np
103.58 395.28 m
73.73 -23.99 l
73.72 -6.26 l
73.73 -30.46 l
73.72 5.37 l
73.73 -21.14 l
73.72 -1.52 l
73.73 -37.36 l
73.72 -0.18 l
73.73 9.32 l
o
np
103.58 393.45 m
73.73 -20.53 l
73.72 -15.37 l
73.73 -13.46 l
73.72 -11.89 l
73.73 -35.12 l
73.72 17.28 l
73.73 -46.56 l
73.72 35.59 l
73.73 -69.32 l
o
np
103.58 404.72 m
73.73 -15.89 l
73.72 -13.72 l
73.73 -19.71 l
73.72 -2.76 l
73.73 -33.27 l
73.72 -10.35 l
73.73 14.85 l
73.72 -60.96 l
73.73 13.52 l
o
np
103.58 400.48 m
73.73 -22.12 l
73.72 -19.67 l
73.73 -18.41 l
73.72 -9.97 l
73.73 13.91 l
73.72 -41.68 l
73.73 -7.34 l
73.72 13.08 l
73.73 -29.18 l
o
np
103.58 390.38 m
73.73 -23.17 l
73.72 -21.03 l
73.73 7.72 l
73.72 -31.01 l
73.73 2.08 l
73.72 -37.08 l
73.73 14.86 l
73.72 -127.72 l
73.73 82.16 l
o
np
103.58 416.08 m
73.73 -17.73 l
73.72 -16.56 l
73.73 -32.31 l
73.72 -8.15 l
73.73 5.64 l
73.72 -29.29 l
73.73 4.70 l
73.72 -13.64 l
73.73 -17.82 l
o
np
103.58 394.93 m
73.73 -17.14 l
73.72 -16.18 l
73.73 -18.32 l
73.72 -5.75 l
73.73 -11.20 l
73.72 -8.12 l
73.73 -37.92 l
73.72 -23.41 l
73.73 18.01 l
o
np
103.58 400.38 m
73.73 -22.92 l
73.72 -23.19 l
73.73 -23.50 l
73.72 -25.76 l
73.73 12.15 l
73.72 -1.30 l
73.73 -11.86 l
73.72 -17.06 l
73.73 -38.70 l
o
np
103.58 413.45 m
73.73 -25.93 l
73.72 -16.92 l
73.73 -2.07 l
73.72 -23.09 l
73.73 -17.63 l
73.72 -33.27 l
73.73 23.22 l
73.72 -57.63 l
73.73 44.68 l
o
np
103.58 425.91 m
73.73 -6.80 l
73.72 0.13 l
73.73 -15.81 l
73.72 -14.44 l
73.73 24.55 l
73.72 -56.61 l
73.73 29.17 l
73.72 39.90 l
73.73 -58.46 l
o
np
103.58 420.11 m
73.73 -2.01 l
73.72 2.24 l
73.73 -9.13 l
73.72 -13.95 l
73.73 -10.40 l
73.72 -14.20 l
73.73 5.90 l
73.72 -8.28 l
73.73 -3.88 l
o
np
103.58 421.18 m
73.73 -10.80 l
73.72 -3.98 l
73.73 -18.57 l
73.72 13.21 l
73.73 -37.98 l
73.72 16.41 l
73.73 -15.47 l
73.72 33.92 l
73.73 -85.54 l
o
np
103.58 432.86 m
73.73 -6.01 l
73.72 -8.93 l
73.73 -16.14 l
73.72 9.67 l
73.73 -5.36 l
73.72 -25.65 l
73.73 4.26 l
73.72 -1.96 l
73.73 -31.38 l
o
np
103.58 426.57 m
73.73 -6.51 l
73.72 -9.37 l
73.73 0.27 l
73.72 -19.33 l
73.73 -0.86 l
73.72 -26.51 l
73.73 22.86 l
73.72 -39.42 l
73.73 32.10 l
o
np
103.58 416.37 m
73.73 -3.80 l
73.72 -12.95 l
73.73 -3.75 l
73.72 -18.84 l
73.73 11.13 l
73.72 -21.41 l
73.73 32.02 l
73.72 -60.93 l
73.73 5.43 l
o
np
103.58 440.60 m
73.73 -7.25 l
73.72 -6.74 l
73.73 -14.51 l
73.72 -3.11 l
73.73 -12.67 l
73.72 -29.23 l
73.73 25.09 l
73.72 -25.62 l
73.73 11.28 l
o
np
103.58 422.68 m
73.73 -2.50 l
73.72 -9.32 l
73.73 3.84 l
73.72 -13.80 l
73.73 -26.73 l
73.72 -5.03 l
73.73 -20.54 l
73.72 -22.01 l
73.73 36.17 l
o
np
103.58 430.26 m
73.73 -9.99 l
73.72 -7.19 l
73.73 -24.82 l
73.72 10.31 l
73.73 -30.23 l
73.72 55.88 l
73.73 -59.40 l
73.72 10.42 l
73.73 -28.62 l
o
np
103.58 439.20 m
73.73 -10.53 l
73.72 -14.08 l
73.73 3.72 l
73.72 12.03 l
73.73 -44.12 l
73.72 -3.52 l
73.73 -0.50 l
73.72 -14.97 l
73.73 -16.05 l
o
0 0 1 srgb
0.75 setlinewidth
[ 2.25 3.75] 0 setdash
np
103.58 326.36 m
73.73 -26.77 l
73.72 -7.23 l
73.73 -18.94 l
73.72 -15.98 l
73.73 -31.74 l
73.72 -35.78 l
73.73 54.59 l
73.72 -47.19 l
73.73 12.78 l
o
np
103.58 293.47 m
73.73 -13.25 l
73.72 -14.53 l
73.73 -41.67 l
73.72 3.63 l
73.73 13.25 l
73.72 -91.96 l
73.73 35.06 l
73.72 -5.36 l
73.73 80.88 l
o
np
103.58 295.11 m
73.73 -29.35 l
73.72 12.96 l
73.73 -29.44 l
73.72 -34.30 l
73.73 23.28 l
73.72 1.59 l
73.73 -39.16 l
73.72 -29.89 l
73.73 33.72 l
o
np
103.58 313.19 m
73.73 -27.90 l
73.72 -26.88 l
73.73 -16.03 l
73.72 9.31 l
73.73 -117.79 l
73.72 52.19 l
73.73 -45.10 l
73.72 39.08 l
73.73 89.84 l
o
np
103.58 296.01 m
73.73 -25.62 l
73.72 -11.36 l
73.73 -13.27 l
73.72 -51.04 l
73.73 3.45 l
73.72 18.14 l
73.73 -14.93 l
73.72 71.21 l
73.73 -36.37 l
o
np
103.58 315.30 m
73.73 -24.28 l
73.72 -9.99 l
73.73 -32.66 l
73.72 8.48 l
73.73 -56.21 l
73.72 38.48 l
73.73 -73.77 l
73.72 49.99 l
73.73 -4.87 l
o
np
103.58 295.03 m
73.73 -12.60 l
73.72 -27.06 l
73.73 -34.40 l
73.72 20.24 l
73.73 -47.99 l
73.72 15.43 l
73.73 -33.55 l
73.72 -67.85 l
73.73 95.36 l
o
np
103.58 313.68 m
73.73 -11.74 l
73.72 -40.65 l
73.73 -32.94 l
73.72 -19.73 l
73.73 4.36 l
73.72 -102.37 l
73.73 160.02 l
73.72 -68.16 l
73.73 -71.69 l
o
np
103.58 260.13 m
73.73 -47.39 l
73.72 6.95 l
73.73 -40.71 l
73.72 -20.30 l
73.73 -2.65 l
73.72 -12.79 l
73.73 -25.41 l
73.72 8.19 l
73.73 10.06 l
o
np
103.58 327.75 m
73.73 -24.12 l
73.72 0.76 l
73.73 -31.58 l
73.72 -33.95 l
73.73 -13.54 l
73.72 54.55 l
73.73 -46.41 l
73.72 -35.37 l
73.73 -20.89 l
o
np
103.58 370.84 m
73.73 -4.32 l
73.72 -3.56 l
73.73 1.17 l
73.72 -2.45 l
73.73 18.06 l
73.72 -10.89 l
73.73 38.16 l
73.72 -39.91 l
73.73 64.48 l
o
np
103.58 356.95 m
73.73 -11.26 l
73.72 5.31 l
73.73 -18.43 l
73.72 26.67 l
73.73 34.59 l
73.72 -77.54 l
73.73 47.99 l
73.72 63.86 l
73.73 44.64 l
o
np
103.58 361.17 m
73.73 -17.09 l
73.72 1.41 l
73.73 0.15 l
73.72 -6.06 l
73.73 35.63 l
73.72 1.55 l
73.73 -31.57 l
73.72 48.10 l
73.73 69.57 l
o
np
103.58 362.77 m
73.73 -16.49 l
73.72 3.54 l
73.73 9.57 l
73.72 6.79 l
73.73 -13.35 l
73.72 33.56 l
73.73 16.97 l
73.72 16.35 l
73.73 4.68 l
o
np
103.58 346.20 m
73.73 0.38 l
73.72 -17.83 l
73.73 30.52 l
73.72 -16.95 l
73.73 -28.82 l
73.72 41.67 l
73.73 46.36 l
73.72 18.31 l
73.73 65.59 l
o
np
103.58 365.58 m
73.73 -5.51 l
73.72 -0.63 l
73.73 -2.74 l
73.72 25.98 l
73.73 -17.89 l
73.72 84.27 l
73.73 -30.80 l
73.72 13.80 l
73.73 -25.19 l
o
np
103.58 354.92 m
73.73 -7.80 l
73.72 -8.56 l
73.73 -6.44 l
73.72 22.86 l
73.73 8.97 l
73.72 2.65 l
73.73 22.14 l
73.72 8.19 l
73.73 95.10 l
o
np
103.58 363.84 m
73.73 -4.88 l
73.72 -15.84 l
73.73 7.04 l
73.72 0.07 l
73.73 -7.32 l
73.72 -6.47 l
73.73 59.07 l
73.72 -4.21 l
73.73 61.90 l
o
np
103.58 338.24 m
73.73 -23.48 l
73.72 3.83 l
73.73 -8.79 l
73.72 -3.74 l
73.73 -7.56 l
73.72 43.50 l
73.73 -33.37 l
73.72 193.80 l
73.73 -116.60 l
o
np
103.58 375.90 m
73.73 -1.93 l
73.72 0.13 l
73.73 -7.58 l
73.72 10.72 l
73.73 4.51 l
73.72 32.14 l
73.73 -47.61 l
73.72 -20.57 l
73.73 83.47 l
o
ep
%%Trailer
%%Pages: 1
%%EOF
